-|-|-|-|-|-|-|-|-|
2017-04-04 07:30:08.186|1491265808186:PMYCHAW901G:5812:j0w9ivr3:11081|10.195.161.26||GET|/apple-touch-icon-120x120-precomposed.png|{"host":"mychannel.ais.co.th","accept":"*/*","accept-language":"en-us","connection":"keep-alive","accept-encoding":"gzip, deflate","user-agent":"MobileSafari/602.1 CFNetwork/808.3 Darwin/16.3.0"}||
2017-04-04 07:30:08.240|1491265808240:PMYCHAW901G:5812:j0w9ivr3:11082|10.195.161.26||GET|/apple-touch-icon-120x120.png|{"host":"mychannel.ais.co.th","accept":"*/*","accept-language":"en-us","connection":"keep-alive","accept-encoding":"gzip, deflate","user-agent":"MobileSafari/602.1 CFNetwork/808.3 Darwin/16.3.0"}||
2017-04-04 07:30:08.307|1491265808307:PMYCHAW901G:5812:j0w9ivr3:11083|10.195.161.26||GET|/apple-touch-icon-precomposed.png|{"host":"mychannel.ais.co.th","accept":"*/*","accept-language":"en-us","connection":"keep-alive","accept-encoding":"gzip, deflate","user-agent":"MobileSafari/602.1 CFNetwork/808.3 Darwin/16.3.0"}||
2017-04-04 07:30:08.382|1491265808382:PMYCHAW901G:5812:j0w9ivr3:11084|10.195.161.26||GET|/apple-touch-icon.png|{"host":"mychannel.ais.co.th","accept":"*/*","accept-language":"en-us","connection":"keep-alive","accept-encoding":"gzip, deflate","user-agent":"MobileSafari/602.1 CFNetwork/808.3 Darwin/16.3.0"}||
2017-04-04 07:30:08.472|1491265808472:PMYCHAW901G:5812:j0w9ivr3:11085|10.195.161.26||GET|/customer-portal/favicon.ico|{"host":"mychannel.ais.co.th","accept":"*/*","accept-language":"en-us","connection":"keep-alive","accept-encoding":"gzip, deflate","user-agent":"MobileSafari/602.1 CFNetwork/808.3 Darwin/16.3.0"}||
2017-04-04 07:30:16.266|1491265816266:PMYCHAW901G:5812:j0w9ivr3:11086|10.195.161.26||GET|/customer-portal/|{"host":"mychannel.ais.co.th","connection":"keep-alive","accept":"text/html,application/xhtml+xml,application/xml;q=0.9,*/*;q=0.8","user-agent":"Mozilla/5.0 (iPhone; CPU iPhone OS 10_2_1 like Mac OS X) AppleWebKit/602.4.6 (KHTML, like Gecko) Version/10.0 Mobile/14D27 Safari/602.1","accept-language":"en-us","referer":"https://mychannel.ais.co.th/","accept-encoding":"gzip, deflate"}||
2017-04-04 07:30:16.334|1491265816334:PMYCHAW901G:5812:j0w9ivr3:11087|10.195.161.26||GET|/customer-portal/styles.aed3af2c28dbae396718.bundle.css|{"host":"mychannel.ais.co.th","connection":"keep-alive","if-none-match":"\"05b9a8f1c9e45b0ec853e20de37307114afe5e8d-gzip\"","accept":"text/css,*/*;q=0.1","if-modified-since":"Wed, 29 Mar 2017 03:50:10 GMT","user-agent":"Mozilla/5.0 (iPhone; CPU iPhone OS 10_2_1 like Mac OS X) AppleWebKit/602.4.6 (KHTML, like Gecko) Version/10.0 Mobile/14D27 Safari/602.1","accept-language":"en-us","referer":"https://mychannel.ais.co.th/customer-portal/","accept-encoding":"gzip, deflate"}||
2017-04-04 07:30:16.386|1491265816386:PMYCHAW901G:5812:j0w9ivr3:11088|10.195.161.26||GET|/customer-portal/main.4abaee9285fd23db3d06.bundle.js|{"host":"mychannel.ais.co.th","connection":"keep-alive","if-none-match":"\"3f923a5bca93cb47fc26e35aa1a3b118cf0dd464-gzip\"","accept":"*/*","if-modified-since":"Wed, 29 Mar 2017 03:50:10 GMT","user-agent":"Mozilla/5.0 (iPhone; CPU iPhone OS 10_2_1 like Mac OS X) AppleWebKit/602.4.6 (KHTML, like Gecko) Version/10.0 Mobile/14D27 Safari/602.1","accept-language":"en-us","referer":"https://mychannel.ais.co.th/customer-portal/","accept-encoding":"gzip, deflate"}||
2017-04-04 07:30:16.441|1491265816441:PMYCHAW901G:5812:j0w9ivr3:11089|10.195.161.26||GET|/customer-portal/0.bc81d97b42b8dcb6f4ea.chunk.js|{"host":"mychannel.ais.co.th","connection":"keep-alive","if-none-match":"\"4c5536b79a8078e741766333463e022119a8d12d-gzip\"","accept":"*/*","if-modified-since":"Wed, 29 Mar 2017 03:50:09 GMT","user-agent":"Mozilla/5.0 (iPhone; CPU iPhone OS 10_2_1 like Mac OS X) AppleWebKit/602.4.6 (KHTML, like Gecko) Version/10.0 Mobile/14D27 Safari/602.1","accept-language":"en-us","referer":"https://mychannel.ais.co.th/customer-portal/","accept-encoding":"gzip, deflate"}||
2017-04-04 07:30:16.470|1491265816470:PMYCHAW901G:5818:j0w9ivtt:11091|10.195.161.26||GET|/customer-portal/assets/images/icon/icon-arrow-left.png|{"host":"mychannel.ais.co.th","connection":"keep-alive","if-none-match":"\"69ca4cc589836399f33749aae73075e694ccd7d0\"","accept":"*/*","if-modified-since":"Wed, 29 Mar 2017 03:50:59 GMT","user-agent":"Mozilla/5.0 (iPhone; CPU iPhone OS 10_2_1 like Mac OS X) AppleWebKit/602.4.6 (KHTML, like Gecko) Version/10.0 Mobile/14D27 Safari/602.1","accept-language":"en-us","referer":"https://mychannel.ais.co.th/customer-portal/","accept-encoding":"gzip, deflate"}||
2017-04-04 07:30:16.495|1491265816495:PMYCHAW901G:5812:j0w9ivr3:11090|10.195.161.26||GET|/customer-portal/db_helvethaicaais_x_v3.2-webfont.eadf432c777807001bf0.woff|{"host":"mychannel.ais.co.th","connection":"keep-alive","if-none-match":"\"65d36184b2946d8e2b280a7841c28aabc54ab3d8\"","accept":"*/*","if-modified-since":"Wed, 29 Mar 2017 03:50:09 GMT","user-agent":"Mozilla/5.0 (iPhone; CPU iPhone OS 10_2_1 like Mac OS X) AppleWebKit/602.4.6 (KHTML, like Gecko) Version/10.0 Mobile/14D27 Safari/602.1","accept-language":"en-us","referer":"https://mychannel.ais.co.th/customer-portal/","accept-encoding":"gzip, deflate"}||
2017-04-04 07:30:16.527|1491265816527:PMYCHAW901G:5818:j0w9ivtt:11092|10.195.161.26||GET|/customer-portal/scripts.ae44f0deb89bb3359516.bundle.js|{"host":"mychannel.ais.co.th","connection":"keep-alive","if-none-match":"\"e31634bda38592fba3a82468c98c99bc2fa1f6f5-gzip\"","accept":"*/*","if-modified-since":"Wed, 29 Mar 2017 03:50:10 GMT","user-agent":"Mozilla/5.0 (iPhone; CPU iPhone OS 10_2_1 like Mac OS X) AppleWebKit/602.4.6 (KHTML, like Gecko) Version/10.0 Mobile/14D27 Safari/602.1","accept-language":"en-us","referer":"https://mychannel.ais.co.th/customer-portal/","accept-encoding":"gzip, deflate"}||
2017-04-04 07:30:20.966|1491265820966:PMYCHAW901G:5812:j0w9ivr3:11091|10.195.161.26||GET|/assets/images/icon/icon-landing-love.png|{"host":"mychannel.ais.co.th","connection":"keep-alive","if-none-match":"\"b0203d040bf8ecaea123edeb88d806011f8fa2e1\"","accept":"*/*","if-modified-since":"Wed, 29 Mar 2017 03:50:57 GMT","user-agent":"Mozilla/5.0 (iPhone; CPU iPhone OS 10_2_1 like Mac OS X) AppleWebKit/602.4.6 (KHTML, like Gecko) Version/10.0 Mobile/14D27 Safari/602.1","accept-language":"en-us","referer":"https://mychannel.ais.co.th/","accept-encoding":"gzip, deflate"}||
2017-04-04 07:30:20.991|1491265820991:PMYCHAW901G:5818:j0w9ivtt:11093|10.195.161.26||GET|/polyfills.cf2fe89dcf93401c136f.bundle.js|{"host":"mychannel.ais.co.th","connection":"keep-alive","if-none-match":"\"285cddcf02c3e33c7e2bb0fc447e4d45ce72bc90-gzip\"","accept":"*/*","if-modified-since":"Wed, 29 Mar 2017 03:50:08 GMT","user-agent":"Mozilla/5.0 (iPhone; CPU iPhone OS 10_2_1 like Mac OS X) AppleWebKit/602.4.6 (KHTML, like Gecko) Version/10.0 Mobile/14D27 Safari/602.1","accept-language":"en-us","referer":"https://mychannel.ais.co.th/","accept-encoding":"gzip, deflate"}||
2017-04-04 07:30:21.019|1491265821019:PMYCHAW901G:5812:j0w9ivr3:11092|10.195.161.26||GET|/inline.2b497be5ebd075f2dd9a.bundle.js|{"host":"mychannel.ais.co.th","connection":"keep-alive","if-none-match":"\"a553d1319f5e6d616e5de0ade9b600e3e18adefc-gzip\"","accept":"*/*","if-modified-since":"Wed, 29 Mar 2017 03:50:08 GMT","user-agent":"Mozilla/5.0 (iPhone; CPU iPhone OS 10_2_1 like Mac OS X) AppleWebKit/602.4.6 (KHTML, like Gecko) Version/10.0 Mobile/14D27 Safari/602.1","accept-language":"en-us","referer":"https://mychannel.ais.co.th/","accept-encoding":"gzip, deflate"}||
2017-04-04 07:30:21.048|1491265821048:PMYCHAW901G:5818:j0w9ivtt:11094|10.195.161.26||GET|/vendor.79ff024b38332f992a1a.bundle.js|{"host":"mychannel.ais.co.th","connection":"keep-alive","if-none-match":"\"afcad7c89e25d6178afe0133718bffda49a0d61f-gzip\"","accept":"*/*","if-modified-since":"Wed, 29 Mar 2017 03:50:09 GMT","user-agent":"Mozilla/5.0 (iPhone; CPU iPhone OS 10_2_1 like Mac OS X) AppleWebKit/602.4.6 (KHTML, like Gecko) Version/10.0 Mobile/14D27 Safari/602.1","accept-language":"en-us","referer":"https://mychannel.ais.co.th/","accept-encoding":"gzip, deflate"}||
2017-04-04 07:30:21.070|1491265821070:PMYCHAW901G:5812:j0w9ivr3:11093|10.195.161.26||GET|/assets/images/icon/icon-landing-person.png|{"host":"mychannel.ais.co.th","connection":"keep-alive","if-none-match":"\"8c033eaffa8484da58d0a30e804b26acb9d67f77\"","accept":"*/*","if-modified-since":"Wed, 29 Mar 2017 03:50:57 GMT","user-agent":"Mozilla/5.0 (iPhone; CPU iPhone OS 10_2_1 like Mac OS X) AppleWebKit/602.4.6 (KHTML, like Gecko) Version/10.0 Mobile/14D27 Safari/602.1","accept-language":"en-us","referer":"https://mychannel.ais.co.th/","accept-encoding":"gzip, deflate"}||
2017-04-04 07:30:26.339|1491265826339:PMYCHAW901G:5812:j0w9ivr3:11094|10.195.161.26||POST|/api/auth/refreshToken|{"host":"mychannel.ais.co.th","content-type":"text/plain","origin":"https://mychannel.ais.co.th","accept-language":"en-us","accept-encoding":"gzip, deflate","connection":"keep-alive","accept":"application/json, text/plain, */*","user-agent":"Mozilla/5.0 (iPhone; CPU iPhone OS 10_2_1 like Mac OS X) AppleWebKit/602.4.6 (KHTML, like Gecko) Version/10.0 Mobile/14D27 Safari/602.1","x-authorization":"Bearer undefined","referer":"https://mychannel.ais.co.th/customer-portal/","content-length":"2"}||
2017-04-04 07:30:48.737|1491265848737:PMYCHAW901G:5812:j0w9ivr3:11095|10.195.161.26||GET|/api/auth/login|{"host":"mychannel.ais.co.th","connection":"keep-alive","accept":"text/html,application/xhtml+xml,application/xml;q=0.9,*/*;q=0.8","user-agent":"Mozilla/5.0 (iPhone; CPU iPhone OS 10_2_1 like Mac OS X) AppleWebKit/602.4.6 (KHTML, like Gecko) Version/10.0 Mobile/14D27 Safari/602.1","accept-language":"en-us","referer":"https://cspportal.ais.co.th/SFFWeb/pages/home/portal.jsf;jsessionid=HDnDYvpFHvJmTwdL2ryPW27XchPTQJdNh3gm8w03W8v0hgHsjDPx!2017149184","accept-encoding":"gzip, deflate"}|{"tokenID":"yGL2N6U7QngjaMLu5bT9K6039ZMRSTWSIke0o8vN/Qs="}|
2017-04-04 07:30:48.893|1491265848893:PMYCHAW901G:5812:j0w9ivr3:11096|10.195.161.26||GET|/|{"host":"mychannel.ais.co.th","cookie":"accessToken=eyJhbGciOiJIUzI1NiIsInR5cCI6IkpXVCJ9.eyJ1c2VybmFtZSI6IlNPTUJBVEhPIiwidGltZXN0YW1wIjoiMjAxNzA0MDQwNzMwIiwibG9jYXRpb25Db2RlIjoiMTAwNCIsImlhdCI6MTQ5MTI2NTg1MSwiZXhwIjoxNDkxMjY1OTcxfQ.qQjOwIiA6C964UJDaDbdewhsr3hMJJsQ1Uwn31MXTH8; refreshToken=eyJhbGciOiJIUzI1NiIsInR5cCI6IkpXVCJ9.eyJ1c2VybmFtZSI6IlNPTUJBVEhPIiwidGltZXN0YW1wIjoiMjAxNzA0MDQwNzMwIiwibG9jYXRpb25Db2RlIjoiMTAwNCIsImlhdCI6MTQ5MTI2NTg1MSwiZXhwIjoxNDkxMjY2NzUxfQ.V98Jhz-fVLXEl1uS2__4kQZO5UeGe-dTSPD-OoX3BRs","if-none-match":"\"eb718579f854047659fed567bef6e227c887b231-gzip\"","accept":"text/html,application/xhtml+xml,application/xml;q=0.9,*/*;q=0.8","if-modified-since":"Wed, 29 Mar 2017 03:50:08 GMT","user-agent":"Mozilla/5.0 (iPhone; CPU iPhone OS 10_2_1 like Mac OS X) AppleWebKit/602.4.6 (KHTML, like Gecko) Version/10.0 Mobile/14D27 Safari/602.1","accept-language":"en-us","accept-encoding":"gzip, deflate","connection":"keep-alive"}||
2017-04-04 07:30:48.977|1491265848977:PMYCHAW901G:5812:j0w9ivr3:11097|10.195.161.26||GET|/styles.8a14d4720907b950514b.bundle.css|{"host":"mychannel.ais.co.th","cookie":"accessToken=eyJhbGciOiJIUzI1NiIsInR5cCI6IkpXVCJ9.eyJ1c2VybmFtZSI6IlNPTUJBVEhPIiwidGltZXN0YW1wIjoiMjAxNzA0MDQwNzMwIiwibG9jYXRpb25Db2RlIjoiMTAwNCIsImlhdCI6MTQ5MTI2NTg1MSwiZXhwIjoxNDkxMjY1OTcxfQ.qQjOwIiA6C964UJDaDbdewhsr3hMJJsQ1Uwn31MXTH8; refreshToken=eyJhbGciOiJIUzI1NiIsInR5cCI6IkpXVCJ9.eyJ1c2VybmFtZSI6IlNPTUJBVEhPIiwidGltZXN0YW1wIjoiMjAxNzA0MDQwNzMwIiwibG9jYXRpb25Db2RlIjoiMTAwNCIsImlhdCI6MTQ5MTI2NTg1MSwiZXhwIjoxNDkxMjY2NzUxfQ.V98Jhz-fVLXEl1uS2__4kQZO5UeGe-dTSPD-OoX3BRs","connection":"keep-alive","if-none-match":"\"ee1d67ff17d48ebd6d7f567cfbb9d1bfc36c24b5-gzip\"","accept":"text/css,*/*;q=0.1","if-modified-since":"Wed, 29 Mar 2017 03:50:08 GMT","user-agent":"Mozilla/5.0 (iPhone; CPU iPhone OS 10_2_1 like Mac OS X) AppleWebKit/602.4.6 (KHTML, like Gecko) Version/10.0 Mobile/14D27 Safari/602.1","accept-language":"en-us","referer":"https://mychannel.ais.co.th/","accept-encoding":"gzip, deflate"}||
2017-04-04 07:30:49.022|1491265849022:PMYCHAW901G:5818:j0w9ivtt:11095|10.195.161.26||GET|/vendor.79ff024b38332f992a1a.bundle.js|{"host":"mychannel.ais.co.th","cookie":"accessToken=eyJhbGciOiJIUzI1NiIsInR5cCI6IkpXVCJ9.eyJ1c2VybmFtZSI6IlNPTUJBVEhPIiwidGltZXN0YW1wIjoiMjAxNzA0MDQwNzMwIiwibG9jYXRpb25Db2RlIjoiMTAwNCIsImlhdCI6MTQ5MTI2NTg1MSwiZXhwIjoxNDkxMjY1OTcxfQ.qQjOwIiA6C964UJDaDbdewhsr3hMJJsQ1Uwn31MXTH8; refreshToken=eyJhbGciOiJIUzI1NiIsInR5cCI6IkpXVCJ9.eyJ1c2VybmFtZSI6IlNPTUJBVEhPIiwidGltZXN0YW1wIjoiMjAxNzA0MDQwNzMwIiwibG9jYXRpb25Db2RlIjoiMTAwNCIsImlhdCI6MTQ5MTI2NTg1MSwiZXhwIjoxNDkxMjY2NzUxfQ.V98Jhz-fVLXEl1uS2__4kQZO5UeGe-dTSPD-OoX3BRs","connection":"keep-alive","if-none-match":"\"afcad7c89e25d6178afe0133718bffda49a0d61f-gzip\"","accept":"*/*","if-modified-since":"Wed, 29 Mar 2017 03:50:09 GMT","user-agent":"Mozilla/5.0 (iPhone; CPU iPhone OS 10_2_1 like Mac OS X) AppleWebKit/602.4.6 (KHTML, like Gecko) Version/10.0 Mobile/14D27 Safari/602.1","accept-language":"en-us","referer":"https://mychannel.ais.co.th/","accept-encoding":"gzip, deflate"}||
2017-04-04 07:30:49.037|1491265849037:PMYCHAW901G:5812:j0w9ivr3:11098|10.195.161.26||GET|/main.942717d9f92c4aec0c0b.bundle.js|{"host":"mychannel.ais.co.th","cookie":"accessToken=eyJhbGciOiJIUzI1NiIsInR5cCI6IkpXVCJ9.eyJ1c2VybmFtZSI6IlNPTUJBVEhPIiwidGltZXN0YW1wIjoiMjAxNzA0MDQwNzMwIiwibG9jYXRpb25Db2RlIjoiMTAwNCIsImlhdCI6MTQ5MTI2NTg1MSwiZXhwIjoxNDkxMjY1OTcxfQ.qQjOwIiA6C964UJDaDbdewhsr3hMJJsQ1Uwn31MXTH8; refreshToken=eyJhbGciOiJIUzI1NiIsInR5cCI6IkpXVCJ9.eyJ1c2VybmFtZSI6IlNPTUJBVEhPIiwidGltZXN0YW1wIjoiMjAxNzA0MDQwNzMwIiwibG9jYXRpb25Db2RlIjoiMTAwNCIsImlhdCI6MTQ5MTI2NTg1MSwiZXhwIjoxNDkxMjY2NzUxfQ.V98Jhz-fVLXEl1uS2__4kQZO5UeGe-dTSPD-OoX3BRs","connection":"keep-alive","if-none-match":"\"ab9ea2a748863202422aa5492f30f82dbbe4549d-gzip\"","accept":"*/*","if-modified-since":"Wed, 29 Mar 2017 03:50:08 GMT","user-agent":"Mozilla/5.0 (iPhone; CPU iPhone OS 10_2_1 like Mac OS X) AppleWebKit/602.4.6 (KHTML, like Gecko) Version/10.0 Mobile/14D27 Safari/602.1","accept-language":"en-us","referer":"https://mychannel.ais.co.th/","accept-encoding":"gzip, deflate"}||
2017-04-04 07:30:49.218|1491265849218:PMYCHAW901G:5812:j0w9ivr3:11099|10.195.161.26||GET|/assets/images/icon/icon-landing-person.png|{"host":"mychannel.ais.co.th","cookie":"accessToken=eyJhbGciOiJIUzI1NiIsInR5cCI6IkpXVCJ9.eyJ1c2VybmFtZSI6IlNPTUJBVEhPIiwidGltZXN0YW1wIjoiMjAxNzA0MDQwNzMwIiwibG9jYXRpb25Db2RlIjoiMTAwNCIsImlhdCI6MTQ5MTI2NTg1MSwiZXhwIjoxNDkxMjY1OTcxfQ.qQjOwIiA6C964UJDaDbdewhsr3hMJJsQ1Uwn31MXTH8; refreshToken=eyJhbGciOiJIUzI1NiIsInR5cCI6IkpXVCJ9.eyJ1c2VybmFtZSI6IlNPTUJBVEhPIiwidGltZXN0YW1wIjoiMjAxNzA0MDQwNzMwIiwibG9jYXRpb25Db2RlIjoiMTAwNCIsImlhdCI6MTQ5MTI2NTg1MSwiZXhwIjoxNDkxMjY2NzUxfQ.V98Jhz-fVLXEl1uS2__4kQZO5UeGe-dTSPD-OoX3BRs","connection":"keep-alive","if-none-match":"\"8c033eaffa8484da58d0a30e804b26acb9d67f77\"","accept":"*/*","if-modified-since":"Wed, 29 Mar 2017 03:52:36 GMT","user-agent":"Mozilla/5.0 (iPhone; CPU iPhone OS 10_2_1 like Mac OS X) AppleWebKit/602.4.6 (KHTML, like Gecko) Version/10.0 Mobile/14D27 Safari/602.1","accept-language":"en-us","referer":"https://mychannel.ais.co.th/","accept-encoding":"gzip, deflate"}||
2017-04-04 07:30:49.265|1491265849265:PMYCHAW901G:5818:j0w9ivtt:11096|10.195.161.26||GET|/db_helvethaicaais_x_v3.2-webfont.eadf432c777807001bf0.woff|{"host":"mychannel.ais.co.th","cookie":"accessToken=eyJhbGciOiJIUzI1NiIsInR5cCI6IkpXVCJ9.eyJ1c2VybmFtZSI6IlNPTUJBVEhPIiwidGltZXN0YW1wIjoiMjAxNzA0MDQwNzMwIiwibG9jYXRpb25Db2RlIjoiMTAwNCIsImlhdCI6MTQ5MTI2NTg1MSwiZXhwIjoxNDkxMjY1OTcxfQ.qQjOwIiA6C964UJDaDbdewhsr3hMJJsQ1Uwn31MXTH8; refreshToken=eyJhbGciOiJIUzI1NiIsInR5cCI6IkpXVCJ9.eyJ1c2VybmFtZSI6IlNPTUJBVEhPIiwidGltZXN0YW1wIjoiMjAxNzA0MDQwNzMwIiwibG9jYXRpb25Db2RlIjoiMTAwNCIsImlhdCI6MTQ5MTI2NTg1MSwiZXhwIjoxNDkxMjY2NzUxfQ.V98Jhz-fVLXEl1uS2__4kQZO5UeGe-dTSPD-OoX3BRs","connection":"keep-alive","if-none-match":"\"65d36184b2946d8e2b280a7841c28aabc54ab3d8\"","accept":"*/*","if-modified-since":"Wed, 29 Mar 2017 03:50:08 GMT","user-agent":"Mozilla/5.0 (iPhone; CPU iPhone OS 10_2_1 like Mac OS X) AppleWebKit/602.4.6 (KHTML, like Gecko) Version/10.0 Mobile/14D27 Safari/602.1","accept-language":"en-us","referer":"https://mychannel.ais.co.th/","accept-encoding":"gzip, deflate"}||
2017-04-04 07:30:49.281|1491265849281:PMYCHAW901G:5812:j0w9ivr3:11100|10.195.161.26||GET|/assets/images/landing.jpg|{"host":"mychannel.ais.co.th","cookie":"accessToken=eyJhbGciOiJIUzI1NiIsInR5cCI6IkpXVCJ9.eyJ1c2VybmFtZSI6IlNPTUJBVEhPIiwidGltZXN0YW1wIjoiMjAxNzA0MDQwNzMwIiwibG9jYXRpb25Db2RlIjoiMTAwNCIsImlhdCI6MTQ5MTI2NTg1MSwiZXhwIjoxNDkxMjY1OTcxfQ.qQjOwIiA6C964UJDaDbdewhsr3hMJJsQ1Uwn31MXTH8; refreshToken=eyJhbGciOiJIUzI1NiIsInR5cCI6IkpXVCJ9.eyJ1c2VybmFtZSI6IlNPTUJBVEhPIiwidGltZXN0YW1wIjoiMjAxNzA0MDQwNzMwIiwibG9jYXRpb25Db2RlIjoiMTAwNCIsImlhdCI6MTQ5MTI2NTg1MSwiZXhwIjoxNDkxMjY2NzUxfQ.V98Jhz-fVLXEl1uS2__4kQZO5UeGe-dTSPD-OoX3BRs","connection":"keep-alive","if-none-match":"\"2ccb8b8db89cc1886c18d601cc48b9ffd570ee18\"","accept":"*/*","if-modified-since":"Wed, 29 Mar 2017 03:50:46 GMT","user-agent":"Mozilla/5.0 (iPhone; CPU iPhone OS 10_2_1 like Mac OS X) AppleWebKit/602.4.6 (KHTML, like Gecko) Version/10.0 Mobile/14D27 Safari/602.1","accept-language":"en-us","referer":"https://mychannel.ais.co.th/","accept-encoding":"gzip, deflate"}||
2017-04-04 07:31:00.215|1491265860215:PMYCHAW901G:5812:j0w9ivr3:11101|10.195.161.26||GET|/customer-portal|{"host":"mychannel.ais.co.th","accept":"text/html,application/xhtml+xml,application/xml;q=0.9,*/*;q=0.8","connection":"keep-alive","cookie":"accessToken=eyJhbGciOiJIUzI1NiIsInR5cCI6IkpXVCJ9.eyJ1c2VybmFtZSI6IlNPTUJBVEhPIiwidGltZXN0YW1wIjoiMjAxNzA0MDQwNzMwIiwibG9jYXRpb25Db2RlIjoiMTAwNCIsImlhdCI6MTQ5MTI2NTg1MSwiZXhwIjoxNDkxMjY1OTcxfQ.qQjOwIiA6C964UJDaDbdewhsr3hMJJsQ1Uwn31MXTH8; refreshToken=eyJhbGciOiJIUzI1NiIsInR5cCI6IkpXVCJ9.eyJ1c2VybmFtZSI6IlNPTUJBVEhPIiwidGltZXN0YW1wIjoiMjAxNzA0MDQwNzMwIiwibG9jYXRpb25Db2RlIjoiMTAwNCIsImlhdCI6MTQ5MTI2NTg1MSwiZXhwIjoxNDkxMjY2NzUxfQ.V98Jhz-fVLXEl1uS2__4kQZO5UeGe-dTSPD-OoX3BRs","user-agent":"Mozilla/5.0 (iPhone; CPU iPhone OS 10_2_1 like Mac OS X) AppleWebKit/602.4.6 (KHTML, like Gecko) Version/10.0 Mobile/14D27 Safari/602.1","accept-language":"en-us","referer":"https://mychannel.ais.co.th/","accept-encoding":"gzip, deflate"}||
2017-04-04 07:31:00.350|1491265860350:PMYCHAW901G:5812:j0w9ivr3:11102|10.195.161.26||GET|/customer-portal/|{"host":"mychannel.ais.co.th","accept":"text/html,application/xhtml+xml,application/xml;q=0.9,*/*;q=0.8","connection":"keep-alive","cookie":"accessToken=eyJhbGciOiJIUzI1NiIsInR5cCI6IkpXVCJ9.eyJ1c2VybmFtZSI6IlNPTUJBVEhPIiwidGltZXN0YW1wIjoiMjAxNzA0MDQwNzMwIiwibG9jYXRpb25Db2RlIjoiMTAwNCIsImlhdCI6MTQ5MTI2NTg1MSwiZXhwIjoxNDkxMjY1OTcxfQ.qQjOwIiA6C964UJDaDbdewhsr3hMJJsQ1Uwn31MXTH8; refreshToken=eyJhbGciOiJIUzI1NiIsInR5cCI6IkpXVCJ9.eyJ1c2VybmFtZSI6IlNPTUJBVEhPIiwidGltZXN0YW1wIjoiMjAxNzA0MDQwNzMwIiwibG9jYXRpb25Db2RlIjoiMTAwNCIsImlhdCI6MTQ5MTI2NTg1MSwiZXhwIjoxNDkxMjY2NzUxfQ.V98Jhz-fVLXEl1uS2__4kQZO5UeGe-dTSPD-OoX3BRs","user-agent":"Mozilla/5.0 (iPhone; CPU iPhone OS 10_2_1 like Mac OS X) AppleWebKit/602.4.6 (KHTML, like Gecko) Version/10.0 Mobile/14D27 Safari/602.1","accept-language":"en-us","referer":"https://mychannel.ais.co.th/","accept-encoding":"gzip, deflate"}||
2017-04-04 07:31:00.455|1491265860455:PMYCHAW901G:5812:j0w9ivr3:11103|10.195.161.26||GET|/customer-portal/inline.fbcaba5f911e10de2eed.bundle.js|{"host":"mychannel.ais.co.th","cookie":"accessToken=eyJhbGciOiJIUzI1NiIsInR5cCI6IkpXVCJ9.eyJ1c2VybmFtZSI6IlNPTUJBVEhPIiwidGltZXN0YW1wIjoiMjAxNzA0MDQwNzMwIiwibG9jYXRpb25Db2RlIjoiMTAwNCIsImlhdCI6MTQ5MTI2NTg1MSwiZXhwIjoxNDkxMjY1OTcxfQ.qQjOwIiA6C964UJDaDbdewhsr3hMJJsQ1Uwn31MXTH8; refreshToken=eyJhbGciOiJIUzI1NiIsInR5cCI6IkpXVCJ9.eyJ1c2VybmFtZSI6IlNPTUJBVEhPIiwidGltZXN0YW1wIjoiMjAxNzA0MDQwNzMwIiwibG9jYXRpb25Db2RlIjoiMTAwNCIsImlhdCI6MTQ5MTI2NTg1MSwiZXhwIjoxNDkxMjY2NzUxfQ.V98Jhz-fVLXEl1uS2__4kQZO5UeGe-dTSPD-OoX3BRs","connection":"keep-alive","if-none-match":"\"3b6c0681ec869faa380104c4387058440e488d7b-gzip\"","accept":"*/*","if-modified-since":"Wed, 29 Mar 2017 03:50:09 GMT","user-agent":"Mozilla/5.0 (iPhone; CPU iPhone OS 10_2_1 like Mac OS X) AppleWebKit/602.4.6 (KHTML, like Gecko) Version/10.0 Mobile/14D27 Safari/602.1","accept-language":"en-us","referer":"https://mychannel.ais.co.th/customer-portal/","accept-encoding":"gzip, deflate"}||
2017-04-04 07:31:00.502|1491265860502:PMYCHAW901G:5818:j0w9ivtt:11097|10.195.161.26||GET|/customer-portal/main.4abaee9285fd23db3d06.bundle.js|{"host":"mychannel.ais.co.th","cookie":"accessToken=eyJhbGciOiJIUzI1NiIsInR5cCI6IkpXVCJ9.eyJ1c2VybmFtZSI6IlNPTUJBVEhPIiwidGltZXN0YW1wIjoiMjAxNzA0MDQwNzMwIiwibG9jYXRpb25Db2RlIjoiMTAwNCIsImlhdCI6MTQ5MTI2NTg1MSwiZXhwIjoxNDkxMjY1OTcxfQ.qQjOwIiA6C964UJDaDbdewhsr3hMJJsQ1Uwn31MXTH8; refreshToken=eyJhbGciOiJIUzI1NiIsInR5cCI6IkpXVCJ9.eyJ1c2VybmFtZSI6IlNPTUJBVEhPIiwidGltZXN0YW1wIjoiMjAxNzA0MDQwNzMwIiwibG9jYXRpb25Db2RlIjoiMTAwNCIsImlhdCI6MTQ5MTI2NTg1MSwiZXhwIjoxNDkxMjY2NzUxfQ.V98Jhz-fVLXEl1uS2__4kQZO5UeGe-dTSPD-OoX3BRs","connection":"keep-alive","if-none-match":"\"3f923a5bca93cb47fc26e35aa1a3b118cf0dd464-gzip\"","accept":"*/*","if-modified-since":"Wed, 29 Mar 2017 03:51:51 GMT","user-agent":"Mozilla/5.0 (iPhone; CPU iPhone OS 10_2_1 like Mac OS X) AppleWebKit/602.4.6 (KHTML, like Gecko) Version/10.0 Mobile/14D27 Safari/602.1","accept-language":"en-us","referer":"https://mychannel.ais.co.th/customer-portal/","accept-encoding":"gzip, deflate"}||
2017-04-04 07:31:00.519|1491265860519:PMYCHAW901G:5812:j0w9ivr3:11104|10.195.161.26||GET|/customer-portal/scripts.ae44f0deb89bb3359516.bundle.js|{"host":"mychannel.ais.co.th","cookie":"accessToken=eyJhbGciOiJIUzI1NiIsInR5cCI6IkpXVCJ9.eyJ1c2VybmFtZSI6IlNPTUJBVEhPIiwidGltZXN0YW1wIjoiMjAxNzA0MDQwNzMwIiwibG9jYXRpb25Db2RlIjoiMTAwNCIsImlhdCI6MTQ5MTI2NTg1MSwiZXhwIjoxNDkxMjY1OTcxfQ.qQjOwIiA6C964UJDaDbdewhsr3hMJJsQ1Uwn31MXTH8; refreshToken=eyJhbGciOiJIUzI1NiIsInR5cCI6IkpXVCJ9.eyJ1c2VybmFtZSI6IlNPTUJBVEhPIiwidGltZXN0YW1wIjoiMjAxNzA0MDQwNzMwIiwibG9jYXRpb25Db2RlIjoiMTAwNCIsImlhdCI6MTQ5MTI2NTg1MSwiZXhwIjoxNDkxMjY2NzUxfQ.V98Jhz-fVLXEl1uS2__4kQZO5UeGe-dTSPD-OoX3BRs","connection":"keep-alive","if-none-match":"\"e31634bda38592fba3a82468c98c99bc2fa1f6f5-gzip\"","accept":"*/*","if-modified-since":"Wed, 29 Mar 2017 03:51:51 GMT","user-agent":"Mozilla/5.0 (iPhone; CPU iPhone OS 10_2_1 like Mac OS X) AppleWebKit/602.4.6 (KHTML, like Gecko) Version/10.0 Mobile/14D27 Safari/602.1","accept-language":"en-us","referer":"https://mychannel.ais.co.th/customer-portal/","accept-encoding":"gzip, deflate"}||
2017-04-04 07:31:01.522|1491265861522:PMYCHAW901G:5812:j0w9ivr3:11105|10.195.161.26||GET|/customer-portal/0.bc81d97b42b8dcb6f4ea.chunk.js|{"host":"mychannel.ais.co.th","cookie":"accessToken=eyJhbGciOiJIUzI1NiIsInR5cCI6IkpXVCJ9.eyJ1c2VybmFtZSI6IlNPTUJBVEhPIiwidGltZXN0YW1wIjoiMjAxNzA0MDQwNzMwIiwibG9jYXRpb25Db2RlIjoiMTAwNCIsImlhdCI6MTQ5MTI2NTg1MSwiZXhwIjoxNDkxMjY1OTcxfQ.qQjOwIiA6C964UJDaDbdewhsr3hMJJsQ1Uwn31MXTH8; refreshToken=eyJhbGciOiJIUzI1NiIsInR5cCI6IkpXVCJ9.eyJ1c2VybmFtZSI6IlNPTUJBVEhPIiwidGltZXN0YW1wIjoiMjAxNzA0MDQwNzMwIiwibG9jYXRpb25Db2RlIjoiMTAwNCIsImlhdCI6MTQ5MTI2NTg1MSwiZXhwIjoxNDkxMjY2NzUxfQ.V98Jhz-fVLXEl1uS2__4kQZO5UeGe-dTSPD-OoX3BRs","connection":"keep-alive","if-none-match":"\"4c5536b79a8078e741766333463e022119a8d12d-gzip\"","accept":"*/*","if-modified-since":"Wed, 29 Mar 2017 03:51:50 GMT","user-agent":"Mozilla/5.0 (iPhone; CPU iPhone OS 10_2_1 like Mac OS X) AppleWebKit/602.4.6 (KHTML, like Gecko) Version/10.0 Mobile/14D27 Safari/602.1","accept-language":"en-us","referer":"https://mychannel.ais.co.th/customer-portal/","accept-encoding":"gzip, deflate"}||
2017-04-04 07:31:01.668|1491265861668:PMYCHAW901G:5812:j0w9ivr3:11106|10.195.161.26||GET|/customer-portal/assets/images/icon/icon-ais-logo.png|{"host":"mychannel.ais.co.th","cookie":"accessToken=eyJhbGciOiJIUzI1NiIsInR5cCI6IkpXVCJ9.eyJ1c2VybmFtZSI6IlNPTUJBVEhPIiwidGltZXN0YW1wIjoiMjAxNzA0MDQwNzMwIiwibG9jYXRpb25Db2RlIjoiMTAwNCIsImlhdCI6MTQ5MTI2NTg1MSwiZXhwIjoxNDkxMjY1OTcxfQ.qQjOwIiA6C964UJDaDbdewhsr3hMJJsQ1Uwn31MXTH8; refreshToken=eyJhbGciOiJIUzI1NiIsInR5cCI6IkpXVCJ9.eyJ1c2VybmFtZSI6IlNPTUJBVEhPIiwidGltZXN0YW1wIjoiMjAxNzA0MDQwNzMwIiwibG9jYXRpb25Db2RlIjoiMTAwNCIsImlhdCI6MTQ5MTI2NTg1MSwiZXhwIjoxNDkxMjY2NzUxfQ.V98Jhz-fVLXEl1uS2__4kQZO5UeGe-dTSPD-OoX3BRs","connection":"keep-alive","if-none-match":"\"cc9f850d62173656ab54a3ba82cfb24752b59856\"","accept":"*/*","if-modified-since":"Wed, 29 Mar 2017 03:50:59 GMT","user-agent":"Mozilla/5.0 (iPhone; CPU iPhone OS 10_2_1 like Mac OS X) AppleWebKit/602.4.6 (KHTML, like Gecko) Version/10.0 Mobile/14D27 Safari/602.1","accept-language":"en-us","referer":"https://mychannel.ais.co.th/customer-portal/","accept-encoding":"gzip, deflate"}||
2017-04-04 07:31:06.765|1491265866765:PMYCHAW901G:5812:j0w9ivr3:11107|10.195.161.26||GET|/api/customerportal/customerprofile/0614696966|{"host":"mychannel.ais.co.th","content-type":"application/json","accept-encoding":"gzip, deflate","cookie":"mobileNo=0614696966; accessToken=eyJhbGciOiJIUzI1NiIsInR5cCI6IkpXVCJ9.eyJ1c2VybmFtZSI6IlNPTUJBVEhPIiwidGltZXN0YW1wIjoiMjAxNzA0MDQwNzMwIiwibG9jYXRpb25Db2RlIjoiMTAwNCIsImlhdCI6MTQ5MTI2NTg1MSwiZXhwIjoxNDkxMjY1OTcxfQ.qQjOwIiA6C964UJDaDbdewhsr3hMJJsQ1Uwn31MXTH8; refreshToken=eyJhbGciOiJIUzI1NiIsInR5cCI6IkpXVCJ9.eyJ1c2VybmFtZSI6IlNPTUJBVEhPIiwidGltZXN0YW1wIjoiMjAxNzA0MDQwNzMwIiwibG9jYXRpb25Db2RlIjoiMTAwNCIsImlhdCI6MTQ5MTI2NTg1MSwiZXhwIjoxNDkxMjY2NzUxfQ.V98Jhz-fVLXEl1uS2__4kQZO5UeGe-dTSPD-OoX3BRs","connection":"keep-alive","accept":"application/json, text/plain, */*","user-agent":"Mozilla/5.0 (iPhone; CPU iPhone OS 10_2_1 like Mac OS X) AppleWebKit/602.4.6 (KHTML, like Gecko) Version/10.0 Mobile/14D27 Safari/602.1","x-authorization":"Bearer eyJhbGciOiJIUzI1NiIsInR5cCI6IkpXVCJ9.eyJ1c2VybmFtZSI6IlNPTUJBVEhPIiwidGltZXN0YW1wIjoiMjAxNzA0MDQwNzMwIiwibG9jYXRpb25Db2RlIjoiMTAwNCIsImlhdCI6MTQ5MTI2NTg1MSwiZXhwIjoxNDkxMjY1OTcxfQ.qQjOwIiA6C964UJDaDbdewhsr3hMJJsQ1Uwn31MXTH8","referer":"https://mychannel.ais.co.th/customer-portal/","accept-language":"en-us"}||
2017-04-04 07:31:07.070|1491265867070:PMYCHAW901G:5812:j0w9ivr3:11108|10.195.161.26||GET|/api/customerportal/greeting/0614696966/profile|{"host":"mychannel.ais.co.th","content-type":"application/json","accept-encoding":"gzip, deflate","cookie":"mobileNo=0614696966; accessToken=eyJhbGciOiJIUzI1NiIsInR5cCI6IkpXVCJ9.eyJ1c2VybmFtZSI6IlNPTUJBVEhPIiwidGltZXN0YW1wIjoiMjAxNzA0MDQwNzMwIiwibG9jYXRpb25Db2RlIjoiMTAwNCIsImlhdCI6MTQ5MTI2NTg1MSwiZXhwIjoxNDkxMjY1OTcxfQ.qQjOwIiA6C964UJDaDbdewhsr3hMJJsQ1Uwn31MXTH8; refreshToken=eyJhbGciOiJIUzI1NiIsInR5cCI6IkpXVCJ9.eyJ1c2VybmFtZSI6IlNPTUJBVEhPIiwidGltZXN0YW1wIjoiMjAxNzA0MDQwNzMwIiwibG9jYXRpb25Db2RlIjoiMTAwNCIsImlhdCI6MTQ5MTI2NTg1MSwiZXhwIjoxNDkxMjY2NzUxfQ.V98Jhz-fVLXEl1uS2__4kQZO5UeGe-dTSPD-OoX3BRs","connection":"keep-alive","accept":"application/json, text/plain, */*","user-agent":"Mozilla/5.0 (iPhone; CPU iPhone OS 10_2_1 like Mac OS X) AppleWebKit/602.4.6 (KHTML, like Gecko) Version/10.0 Mobile/14D27 Safari/602.1","x-authorization":"Bearer eyJhbGciOiJIUzI1NiIsInR5cCI6IkpXVCJ9.eyJ1c2VybmFtZSI6IlNPTUJBVEhPIiwidGltZXN0YW1wIjoiMjAxNzA0MDQwNzMwIiwibG9jYXRpb25Db2RlIjoiMTAwNCIsImlhdCI6MTQ5MTI2NTg1MSwiZXhwIjoxNDkxMjY1OTcxfQ.qQjOwIiA6C964UJDaDbdewhsr3hMJJsQ1Uwn31MXTH8","referer":"https://mychannel.ais.co.th/customer-portal/","accept-language":"en-us"}||
2017-04-04 07:31:08.093|1491265868093:PMYCHAW901G:5812:j0w9ivr3:11109|10.195.161.26||GET|/customer-portal/assets/images/icon/icon-person.png|{"host":"mychannel.ais.co.th","cookie":"mobileNo=0614696966; accessToken=eyJhbGciOiJIUzI1NiIsInR5cCI6IkpXVCJ9.eyJ1c2VybmFtZSI6IlNPTUJBVEhPIiwidGltZXN0YW1wIjoiMjAxNzA0MDQwNzMwIiwibG9jYXRpb25Db2RlIjoiMTAwNCIsImlhdCI6MTQ5MTI2NTg1MSwiZXhwIjoxNDkxMjY1OTcxfQ.qQjOwIiA6C964UJDaDbdewhsr3hMJJsQ1Uwn31MXTH8; refreshToken=eyJhbGciOiJIUzI1NiIsInR5cCI6IkpXVCJ9.eyJ1c2VybmFtZSI6IlNPTUJBVEhPIiwidGltZXN0YW1wIjoiMjAxNzA0MDQwNzMwIiwibG9jYXRpb25Db2RlIjoiMTAwNCIsImlhdCI6MTQ5MTI2NTg1MSwiZXhwIjoxNDkxMjY2NzUxfQ.V98Jhz-fVLXEl1uS2__4kQZO5UeGe-dTSPD-OoX3BRs","connection":"keep-alive","if-none-match":"\"d6986b2cc7523e0a0863ee53c3145bf9301e3ada\"","accept":"*/*","if-modified-since":"Wed, 29 Mar 2017 03:52:38 GMT","user-agent":"Mozilla/5.0 (iPhone; CPU iPhone OS 10_2_1 like Mac OS X) AppleWebKit/602.4.6 (KHTML, like Gecko) Version/10.0 Mobile/14D27 Safari/602.1","accept-language":"en-us","referer":"https://mychannel.ais.co.th/customer-portal/portal/greet","accept-encoding":"gzip, deflate"}||
2017-04-04 07:31:08.140|1491265868140:PMYCHAW901G:5818:j0w9ivtt:11098|10.195.161.26||GET|/customer-portal/assets/images/icon/icon-circle-csp.png|{"host":"mychannel.ais.co.th","cookie":"mobileNo=0614696966; accessToken=eyJhbGciOiJIUzI1NiIsInR5cCI6IkpXVCJ9.eyJ1c2VybmFtZSI6IlNPTUJBVEhPIiwidGltZXN0YW1wIjoiMjAxNzA0MDQwNzMwIiwibG9jYXRpb25Db2RlIjoiMTAwNCIsImlhdCI6MTQ5MTI2NTg1MSwiZXhwIjoxNDkxMjY1OTcxfQ.qQjOwIiA6C964UJDaDbdewhsr3hMJJsQ1Uwn31MXTH8; refreshToken=eyJhbGciOiJIUzI1NiIsInR5cCI6IkpXVCJ9.eyJ1c2VybmFtZSI6IlNPTUJBVEhPIiwidGltZXN0YW1wIjoiMjAxNzA0MDQwNzMwIiwibG9jYXRpb25Db2RlIjoiMTAwNCIsImlhdCI6MTQ5MTI2NTg1MSwiZXhwIjoxNDkxMjY2NzUxfQ.V98Jhz-fVLXEl1uS2__4kQZO5UeGe-dTSPD-OoX3BRs","connection":"keep-alive","if-none-match":"\"a1ac4b35dc9d8a3e127b15cd733e9125c5efad0e\"","accept":"*/*","if-modified-since":"Wed, 29 Mar 2017 03:50:59 GMT","user-agent":"Mozilla/5.0 (iPhone; CPU iPhone OS 10_2_1 like Mac OS X) AppleWebKit/602.4.6 (KHTML, like Gecko) Version/10.0 Mobile/14D27 Safari/602.1","accept-language":"en-us","referer":"https://mychannel.ais.co.th/customer-portal/portal/greet","accept-encoding":"gzip, deflate"}||
2017-04-04 07:31:08.161|1491265868161:PMYCHAW901G:5812:j0w9ivr3:11110|10.195.161.26||GET|/api/customerportal/greeting/0614696966/profile|{"host":"mychannel.ais.co.th","content-type":"application/json","accept-encoding":"gzip, deflate","cookie":"mobileNo=0614696966; accessToken=eyJhbGciOiJIUzI1NiIsInR5cCI6IkpXVCJ9.eyJ1c2VybmFtZSI6IlNPTUJBVEhPIiwidGltZXN0YW1wIjoiMjAxNzA0MDQwNzMwIiwibG9jYXRpb25Db2RlIjoiMTAwNCIsImlhdCI6MTQ5MTI2NTg1MSwiZXhwIjoxNDkxMjY1OTcxfQ.qQjOwIiA6C964UJDaDbdewhsr3hMJJsQ1Uwn31MXTH8; refreshToken=eyJhbGciOiJIUzI1NiIsInR5cCI6IkpXVCJ9.eyJ1c2VybmFtZSI6IlNPTUJBVEhPIiwidGltZXN0YW1wIjoiMjAxNzA0MDQwNzMwIiwibG9jYXRpb25Db2RlIjoiMTAwNCIsImlhdCI6MTQ5MTI2NTg1MSwiZXhwIjoxNDkxMjY2NzUxfQ.V98Jhz-fVLXEl1uS2__4kQZO5UeGe-dTSPD-OoX3BRs","connection":"keep-alive","accept":"application/json, text/plain, */*","user-agent":"Mozilla/5.0 (iPhone; CPU iPhone OS 10_2_1 like Mac OS X) AppleWebKit/602.4.6 (KHTML, like Gecko) Version/10.0 Mobile/14D27 Safari/602.1","x-authorization":"Bearer eyJhbGciOiJIUzI1NiIsInR5cCI6IkpXVCJ9.eyJ1c2VybmFtZSI6IlNPTUJBVEhPIiwidGltZXN0YW1wIjoiMjAxNzA0MDQwNzMwIiwibG9jYXRpb25Db2RlIjoiMTAwNCIsImlhdCI6MTQ5MTI2NTg1MSwiZXhwIjoxNDkxMjY1OTcxfQ.qQjOwIiA6C964UJDaDbdewhsr3hMJJsQ1Uwn31MXTH8","referer":"https://mychannel.ais.co.th/customer-portal/portal/greet","accept-language":"en-us"}||
2017-04-04 07:31:08.216|1491265868216:PMYCHAW901G:5818:j0w9ivtt:11099|10.195.161.26||GET|/customer-portal/assets/images/icon/icon-arrow-right.png|{"host":"mychannel.ais.co.th","cookie":"mobileNo=0614696966; accessToken=eyJhbGciOiJIUzI1NiIsInR5cCI6IkpXVCJ9.eyJ1c2VybmFtZSI6IlNPTUJBVEhPIiwidGltZXN0YW1wIjoiMjAxNzA0MDQwNzMwIiwibG9jYXRpb25Db2RlIjoiMTAwNCIsImlhdCI6MTQ5MTI2NTg1MSwiZXhwIjoxNDkxMjY1OTcxfQ.qQjOwIiA6C964UJDaDbdewhsr3hMJJsQ1Uwn31MXTH8; refreshToken=eyJhbGciOiJIUzI1NiIsInR5cCI6IkpXVCJ9.eyJ1c2VybmFtZSI6IlNPTUJBVEhPIiwidGltZXN0YW1wIjoiMjAxNzA0MDQwNzMwIiwibG9jYXRpb25Db2RlIjoiMTAwNCIsImlhdCI6MTQ5MTI2NTg1MSwiZXhwIjoxNDkxMjY2NzUxfQ.V98Jhz-fVLXEl1uS2__4kQZO5UeGe-dTSPD-OoX3BRs","connection":"keep-alive","if-none-match":"\"6abb498ec67a0cca50a5b4aee48f600d97e5a8d9\"","accept":"*/*","if-modified-since":"Wed, 29 Mar 2017 03:50:59 GMT","user-agent":"Mozilla/5.0 (iPhone; CPU iPhone OS 10_2_1 like Mac OS X) AppleWebKit/602.4.6 (KHTML, like Gecko) Version/10.0 Mobile/14D27 Safari/602.1","accept-language":"en-us","referer":"https://mychannel.ais.co.th/customer-portal/portal/greet","accept-encoding":"gzip, deflate"}||
2017-04-04 07:31:25.679|1491265885679:PMYCHAW901G:5812:j0w9ivr3:11111|10.195.161.26||GET|/api/customerportal/asset/0614696966/profile|{"host":"mychannel.ais.co.th","content-type":"application/json","accept-encoding":"gzip, deflate","cookie":"mobileNo=0614696966; accessToken=eyJhbGciOiJIUzI1NiIsInR5cCI6IkpXVCJ9.eyJ1c2VybmFtZSI6IlNPTUJBVEhPIiwidGltZXN0YW1wIjoiMjAxNzA0MDQwNzMwIiwibG9jYXRpb25Db2RlIjoiMTAwNCIsImlhdCI6MTQ5MTI2NTg1MSwiZXhwIjoxNDkxMjY1OTcxfQ.qQjOwIiA6C964UJDaDbdewhsr3hMJJsQ1Uwn31MXTH8; refreshToken=eyJhbGciOiJIUzI1NiIsInR5cCI6IkpXVCJ9.eyJ1c2VybmFtZSI6IlNPTUJBVEhPIiwidGltZXN0YW1wIjoiMjAxNzA0MDQwNzMwIiwibG9jYXRpb25Db2RlIjoiMTAwNCIsImlhdCI6MTQ5MTI2NTg1MSwiZXhwIjoxNDkxMjY2NzUxfQ.V98Jhz-fVLXEl1uS2__4kQZO5UeGe-dTSPD-OoX3BRs","connection":"keep-alive","accept":"application/json, text/plain, */*","user-agent":"Mozilla/5.0 (iPhone; CPU iPhone OS 10_2_1 like Mac OS X) AppleWebKit/602.4.6 (KHTML, like Gecko) Version/10.0 Mobile/14D27 Safari/602.1","x-authorization":"Bearer eyJhbGciOiJIUzI1NiIsInR5cCI6IkpXVCJ9.eyJ1c2VybmFtZSI6IlNPTUJBVEhPIiwidGltZXN0YW1wIjoiMjAxNzA0MDQwNzMwIiwibG9jYXRpb25Db2RlIjoiMTAwNCIsImlhdCI6MTQ5MTI2NTg1MSwiZXhwIjoxNDkxMjY1OTcxfQ.qQjOwIiA6C964UJDaDbdewhsr3hMJJsQ1Uwn31MXTH8","referer":"https://mychannel.ais.co.th/customer-portal/portal/asset","accept-language":"en-us"}||
2017-04-04 07:31:25.738|1491265885738:PMYCHAW901G:5818:j0w9ivtt:11100|10.195.161.26||GET|/api/customerportal/asset/0614696966/contracts|{"host":"mychannel.ais.co.th","content-type":"application/json","accept-encoding":"gzip, deflate","cookie":"mobileNo=0614696966; accessToken=eyJhbGciOiJIUzI1NiIsInR5cCI6IkpXVCJ9.eyJ1c2VybmFtZSI6IlNPTUJBVEhPIiwidGltZXN0YW1wIjoiMjAxNzA0MDQwNzMwIiwibG9jYXRpb25Db2RlIjoiMTAwNCIsImlhdCI6MTQ5MTI2NTg1MSwiZXhwIjoxNDkxMjY1OTcxfQ.qQjOwIiA6C964UJDaDbdewhsr3hMJJsQ1Uwn31MXTH8; refreshToken=eyJhbGciOiJIUzI1NiIsInR5cCI6IkpXVCJ9.eyJ1c2VybmFtZSI6IlNPTUJBVEhPIiwidGltZXN0YW1wIjoiMjAxNzA0MDQwNzMwIiwibG9jYXRpb25Db2RlIjoiMTAwNCIsImlhdCI6MTQ5MTI2NTg1MSwiZXhwIjoxNDkxMjY2NzUxfQ.V98Jhz-fVLXEl1uS2__4kQZO5UeGe-dTSPD-OoX3BRs","connection":"keep-alive","accept":"application/json, text/plain, */*","user-agent":"Mozilla/5.0 (iPhone; CPU iPhone OS 10_2_1 like Mac OS X) AppleWebKit/602.4.6 (KHTML, like Gecko) Version/10.0 Mobile/14D27 Safari/602.1","x-authorization":"Bearer eyJhbGciOiJIUzI1NiIsInR5cCI6IkpXVCJ9.eyJ1c2VybmFtZSI6IlNPTUJBVEhPIiwidGltZXN0YW1wIjoiMjAxNzA0MDQwNzMwIiwibG9jYXRpb25Db2RlIjoiMTAwNCIsImlhdCI6MTQ5MTI2NTg1MSwiZXhwIjoxNDkxMjY1OTcxfQ.qQjOwIiA6C964UJDaDbdewhsr3hMJJsQ1Uwn31MXTH8","referer":"https://mychannel.ais.co.th/customer-portal/portal/asset","accept-language":"en-us"}||
2017-04-04 07:31:26.617|1491265886617:PMYCHAW901G:5812:j0w9ivr3:11112|10.195.161.26||GET|/customer-portal/assets/images/icon/icon-prepaid.png|{"host":"mychannel.ais.co.th","accept":"*/*","connection":"keep-alive","cookie":"mobileNo=0614696966; accessToken=eyJhbGciOiJIUzI1NiIsInR5cCI6IkpXVCJ9.eyJ1c2VybmFtZSI6IlNPTUJBVEhPIiwidGltZXN0YW1wIjoiMjAxNzA0MDQwNzMwIiwibG9jYXRpb25Db2RlIjoiMTAwNCIsImlhdCI6MTQ5MTI2NTg1MSwiZXhwIjoxNDkxMjY1OTcxfQ.qQjOwIiA6C964UJDaDbdewhsr3hMJJsQ1Uwn31MXTH8; refreshToken=eyJhbGciOiJIUzI1NiIsInR5cCI6IkpXVCJ9.eyJ1c2VybmFtZSI6IlNPTUJBVEhPIiwidGltZXN0YW1wIjoiMjAxNzA0MDQwNzMwIiwibG9jYXRpb25Db2RlIjoiMTAwNCIsImlhdCI6MTQ5MTI2NTg1MSwiZXhwIjoxNDkxMjY2NzUxfQ.V98Jhz-fVLXEl1uS2__4kQZO5UeGe-dTSPD-OoX3BRs","user-agent":"Mozilla/5.0 (iPhone; CPU iPhone OS 10_2_1 like Mac OS X) AppleWebKit/602.4.6 (KHTML, like Gecko) Version/10.0 Mobile/14D27 Safari/602.1","accept-language":"en-us","referer":"https://mychannel.ais.co.th/customer-portal/portal/asset","accept-encoding":"gzip, deflate"}||
2017-04-04 07:31:50.069|1491265910069:PMYCHAW901G:5812:j0w9ivr3:11113|10.195.161.26||GET|/api/customerportal/offers/0614696966/transactions|{"host":"mychannel.ais.co.th","content-type":"application/json","accept-encoding":"gzip, deflate","cookie":"mobileNo=0614696966; accessToken=eyJhbGciOiJIUzI1NiIsInR5cCI6IkpXVCJ9.eyJ1c2VybmFtZSI6IlNPTUJBVEhPIiwidGltZXN0YW1wIjoiMjAxNzA0MDQwNzMwIiwibG9jYXRpb25Db2RlIjoiMTAwNCIsImlhdCI6MTQ5MTI2NTg1MSwiZXhwIjoxNDkxMjY1OTcxfQ.qQjOwIiA6C964UJDaDbdewhsr3hMJJsQ1Uwn31MXTH8; refreshToken=eyJhbGciOiJIUzI1NiIsInR5cCI6IkpXVCJ9.eyJ1c2VybmFtZSI6IlNPTUJBVEhPIiwidGltZXN0YW1wIjoiMjAxNzA0MDQwNzMwIiwibG9jYXRpb25Db2RlIjoiMTAwNCIsImlhdCI6MTQ5MTI2NTg1MSwiZXhwIjoxNDkxMjY2NzUxfQ.V98Jhz-fVLXEl1uS2__4kQZO5UeGe-dTSPD-OoX3BRs","connection":"keep-alive","accept":"application/json, text/plain, */*","user-agent":"Mozilla/5.0 (iPhone; CPU iPhone OS 10_2_1 like Mac OS X) AppleWebKit/602.4.6 (KHTML, like Gecko) Version/10.0 Mobile/14D27 Safari/602.1","x-authorization":"Bearer eyJhbGciOiJIUzI1NiIsInR5cCI6IkpXVCJ9.eyJ1c2VybmFtZSI6IlNPTUJBVEhPIiwidGltZXN0YW1wIjoiMjAxNzA0MDQwNzMwIiwibG9jYXRpb25Db2RlIjoiMTAwNCIsImlhdCI6MTQ5MTI2NTg1MSwiZXhwIjoxNDkxMjY1OTcxfQ.qQjOwIiA6C964UJDaDbdewhsr3hMJJsQ1Uwn31MXTH8","referer":"https://mychannel.ais.co.th/customer-portal/portal/offer","accept-language":"en-us"}||
