-|-|-|-|-|-|-|-|-|
2017-04-03 22:50:22.165|1491234622165:PMYCHAW902G:6025:j0w9iade:10931|10.195.161.26||GET|/customer-portal/main.4abaee9285fd23db3d06.bundle.js|{"host":"mychannel.ais.co.th","connection":"keep-alive","user-agent":"Mozilla/5.0 (Linux; Android 7.0; F8332 Build/39.2.A.0.442; wv) AppleWebKit/537.36 (KHTML, like Gecko) Version/4.0 Chrome/56.0.2924.87 Mobile Safari/537.36 [FB_IAB/MESSENGER;FBAV/111.0.0.15.46;]","accept":"*/*","referer":"https://mychannel.ais.co.th/customer-portal/","accept-encoding":"gzip, deflate","accept-language":"th-TH,en-US;q=0.8","cookie":"accessToken=eyJhbGciOiJIUzI1NiIsInR5cCI6IkpXVCJ9.eyJ1c2VybmFtZSI6IlNVTUVUU0FJIiwidGltZXN0YW1wIjoiMjAxNzA0MDMxMTI0IiwibG9jYXRpb25Db2RlIjoiODg4OCIsImlhdCI6MTQ5MTE5MzQ0MywiZXhwIjoxNDkxMTkzNTYzfQ.E-5C4e-hKF_Dwx_NX8WxFJijrcuzseIAo3tbD7GpF9g; refreshToken=eyJhbGciOiJIUzI1NiIsInR5cCI6IkpXVCJ9.eyJ1c2VybmFtZSI6IlNVTUVUU0FJIiwidGltZXN0YW1wIjoiMjAxNzA0MDMxMTI0IiwibG9jYXRpb25Db2RlIjoiODg4OCIsImlhdCI6MTQ5MTE5MzQ0MywiZXhwIjoxNDkxMTk0MzQzfQ.HTFuDzrVshbvONdN1T8PHr0BxGTC4pR7QFy29XJRY70; mobileNo=0818350033","x-requested-with":"com.facebook.orca","if-none-match":"\"3f923a5bca93cb47fc26e35aa1a3b118cf0dd464-gzip\"","if-modified-since":"Wed, 29 Mar 2017 03:50:10 GMT"}||
2017-04-03 22:50:22.171|1491234622171:PMYCHAW902G:6019:j0w9iadw:10905|10.195.161.26||GET|/customer-portal/polyfills.33c6381b31ba97fee5bf.bundle.js|{"host":"mychannel.ais.co.th","connection":"keep-alive","user-agent":"Mozilla/5.0 (Linux; Android 7.0; F8332 Build/39.2.A.0.442; wv) AppleWebKit/537.36 (KHTML, like Gecko) Version/4.0 Chrome/56.0.2924.87 Mobile Safari/537.36 [FB_IAB/MESSENGER;FBAV/111.0.0.15.46;]","accept":"*/*","referer":"https://mychannel.ais.co.th/customer-portal/","accept-encoding":"gzip, deflate","accept-language":"th-TH,en-US;q=0.8","cookie":"accessToken=eyJhbGciOiJIUzI1NiIsInR5cCI6IkpXVCJ9.eyJ1c2VybmFtZSI6IlNVTUVUU0FJIiwidGltZXN0YW1wIjoiMjAxNzA0MDMxMTI0IiwibG9jYXRpb25Db2RlIjoiODg4OCIsImlhdCI6MTQ5MTE5MzQ0MywiZXhwIjoxNDkxMTkzNTYzfQ.E-5C4e-hKF_Dwx_NX8WxFJijrcuzseIAo3tbD7GpF9g; refreshToken=eyJhbGciOiJIUzI1NiIsInR5cCI6IkpXVCJ9.eyJ1c2VybmFtZSI6IlNVTUVUU0FJIiwidGltZXN0YW1wIjoiMjAxNzA0MDMxMTI0IiwibG9jYXRpb25Db2RlIjoiODg4OCIsImlhdCI6MTQ5MTE5MzQ0MywiZXhwIjoxNDkxMTk0MzQzfQ.HTFuDzrVshbvONdN1T8PHr0BxGTC4pR7QFy29XJRY70; mobileNo=0818350033","x-requested-with":"com.facebook.orca","if-none-match":"\"710850cd2890db5444bf31d9a7f8eb55f9eb6f4e-gzip\"","if-modified-since":"Wed, 29 Mar 2017 03:50:10 GMT"}||
2017-04-03 22:50:22.197|1491234622197:PMYCHAW902G:6025:j0w9iade:10932|10.195.161.26||GET|/customer-portal/db_helvethaicaais_x_v3.2-webfont.eadf432c777807001bf0.woff|{"host":"mychannel.ais.co.th","connection":"keep-alive","user-agent":"Mozilla/5.0 (Linux; Android 7.0; F8332 Build/39.2.A.0.442; wv) AppleWebKit/537.36 (KHTML, like Gecko) Version/4.0 Chrome/56.0.2924.87 Mobile Safari/537.36 [FB_IAB/MESSENGER;FBAV/111.0.0.15.46;]","origin":"https://mychannel.ais.co.th","accept":"*/*","referer":"https://mychannel.ais.co.th/customer-portal/styles.aed3af2c28dbae396718.bundle.css","accept-encoding":"gzip, deflate","accept-language":"th-TH,en-US;q=0.8","cookie":"accessToken=eyJhbGciOiJIUzI1NiIsInR5cCI6IkpXVCJ9.eyJ1c2VybmFtZSI6IlNVTUVUU0FJIiwidGltZXN0YW1wIjoiMjAxNzA0MDMxMTI0IiwibG9jYXRpb25Db2RlIjoiODg4OCIsImlhdCI6MTQ5MTE5MzQ0MywiZXhwIjoxNDkxMTkzNTYzfQ.E-5C4e-hKF_Dwx_NX8WxFJijrcuzseIAo3tbD7GpF9g; refreshToken=eyJhbGciOiJIUzI1NiIsInR5cCI6IkpXVCJ9.eyJ1c2VybmFtZSI6IlNVTUVUU0FJIiwidGltZXN0YW1wIjoiMjAxNzA0MDMxMTI0IiwibG9jYXRpb25Db2RlIjoiODg4OCIsImlhdCI6MTQ5MTE5MzQ0MywiZXhwIjoxNDkxMTk0MzQzfQ.HTFuDzrVshbvONdN1T8PHr0BxGTC4pR7QFy29XJRY70; mobileNo=0818350033","x-requested-with":"com.facebook.orca","if-none-match":"\"65d36184b2946d8e2b280a7841c28aabc54ab3d8\"","if-modified-since":"Wed, 29 Mar 2017 03:50:09 GMT"}||
2017-04-03 22:50:23.647|1491234623647:PMYCHAW902G:6025:j0w9iade:10933|10.195.161.26||GET|/customer-portal/0.bc81d97b42b8dcb6f4ea.chunk.js|{"host":"mychannel.ais.co.th","connection":"keep-alive","user-agent":"Mozilla/5.0 (Linux; Android 7.0; F8332 Build/39.2.A.0.442; wv) AppleWebKit/537.36 (KHTML, like Gecko) Version/4.0 Chrome/56.0.2924.87 Mobile Safari/537.36 [FB_IAB/MESSENGER;FBAV/111.0.0.15.46;]","accept":"*/*","referer":"https://mychannel.ais.co.th/customer-portal/","accept-encoding":"gzip, deflate","accept-language":"th-TH,en-US;q=0.8","cookie":"accessToken=eyJhbGciOiJIUzI1NiIsInR5cCI6IkpXVCJ9.eyJ1c2VybmFtZSI6IlNVTUVUU0FJIiwidGltZXN0YW1wIjoiMjAxNzA0MDMxMTI0IiwibG9jYXRpb25Db2RlIjoiODg4OCIsImlhdCI6MTQ5MTE5MzQ0MywiZXhwIjoxNDkxMTkzNTYzfQ.E-5C4e-hKF_Dwx_NX8WxFJijrcuzseIAo3tbD7GpF9g; refreshToken=eyJhbGciOiJIUzI1NiIsInR5cCI6IkpXVCJ9.eyJ1c2VybmFtZSI6IlNVTUVUU0FJIiwidGltZXN0YW1wIjoiMjAxNzA0MDMxMTI0IiwibG9jYXRpb25Db2RlIjoiODg4OCIsImlhdCI6MTQ5MTE5MzQ0MywiZXhwIjoxNDkxMTk0MzQzfQ.HTFuDzrVshbvONdN1T8PHr0BxGTC4pR7QFy29XJRY70; mobileNo=0818350033","x-requested-with":"com.facebook.orca","if-none-match":"\"4c5536b79a8078e741766333463e022119a8d12d-gzip\"","if-modified-since":"Wed, 29 Mar 2017 03:50:09 GMT"}||
2017-04-03 22:50:23.772|1491234623772:PMYCHAW902G:6025:j0w9iade:10934|10.195.161.26||GET|/customer-portal/assets/images/icon/icon-ais-logo.png|{"host":"mychannel.ais.co.th","connection":"keep-alive","user-agent":"Mozilla/5.0 (Linux; Android 7.0; F8332 Build/39.2.A.0.442; wv) AppleWebKit/537.36 (KHTML, like Gecko) Version/4.0 Chrome/56.0.2924.87 Mobile Safari/537.36 [FB_IAB/MESSENGER;FBAV/111.0.0.15.46;]","accept":"image/webp,image/*,*/*;q=0.8","referer":"https://mychannel.ais.co.th/customer-portal/","accept-encoding":"gzip, deflate","accept-language":"th-TH,en-US;q=0.8","cookie":"accessToken=eyJhbGciOiJIUzI1NiIsInR5cCI6IkpXVCJ9.eyJ1c2VybmFtZSI6IlNVTUVUU0FJIiwidGltZXN0YW1wIjoiMjAxNzA0MDMxMTI0IiwibG9jYXRpb25Db2RlIjoiODg4OCIsImlhdCI6MTQ5MTE5MzQ0MywiZXhwIjoxNDkxMTkzNTYzfQ.E-5C4e-hKF_Dwx_NX8WxFJijrcuzseIAo3tbD7GpF9g; refreshToken=eyJhbGciOiJIUzI1NiIsInR5cCI6IkpXVCJ9.eyJ1c2VybmFtZSI6IlNVTUVUU0FJIiwidGltZXN0YW1wIjoiMjAxNzA0MDMxMTI0IiwibG9jYXRpb25Db2RlIjoiODg4OCIsImlhdCI6MTQ5MTE5MzQ0MywiZXhwIjoxNDkxMTk0MzQzfQ.HTFuDzrVshbvONdN1T8PHr0BxGTC4pR7QFy29XJRY70; mobileNo=0818350033","x-requested-with":"com.facebook.orca","if-none-match":"\"cc9f850d62173656ab54a3ba82cfb24752b59856\"","if-modified-since":"Wed, 29 Mar 2017 03:50:59 GMT"}||
2017-04-03 22:50:23.776|1491234623776:PMYCHAW902G:6019:j0w9iadw:10906|10.195.161.26||GET|/customer-portal/assets/images/icon/icon-arrow-left.png|{"host":"mychannel.ais.co.th","connection":"keep-alive","user-agent":"Mozilla/5.0 (Linux; Android 7.0; F8332 Build/39.2.A.0.442; wv) AppleWebKit/537.36 (KHTML, like Gecko) Version/4.0 Chrome/56.0.2924.87 Mobile Safari/537.36 [FB_IAB/MESSENGER;FBAV/111.0.0.15.46;]","accept":"image/webp,image/*,*/*;q=0.8","referer":"https://mychannel.ais.co.th/customer-portal/","accept-encoding":"gzip, deflate","accept-language":"th-TH,en-US;q=0.8","cookie":"accessToken=eyJhbGciOiJIUzI1NiIsInR5cCI6IkpXVCJ9.eyJ1c2VybmFtZSI6IlNVTUVUU0FJIiwidGltZXN0YW1wIjoiMjAxNzA0MDMxMTI0IiwibG9jYXRpb25Db2RlIjoiODg4OCIsImlhdCI6MTQ5MTE5MzQ0MywiZXhwIjoxNDkxMTkzNTYzfQ.E-5C4e-hKF_Dwx_NX8WxFJijrcuzseIAo3tbD7GpF9g; refreshToken=eyJhbGciOiJIUzI1NiIsInR5cCI6IkpXVCJ9.eyJ1c2VybmFtZSI6IlNVTUVUU0FJIiwidGltZXN0YW1wIjoiMjAxNzA0MDMxMTI0IiwibG9jYXRpb25Db2RlIjoiODg4OCIsImlhdCI6MTQ5MTE5MzQ0MywiZXhwIjoxNDkxMTk0MzQzfQ.HTFuDzrVshbvONdN1T8PHr0BxGTC4pR7QFy29XJRY70; mobileNo=0818350033","x-requested-with":"com.facebook.orca","if-none-match":"\"69ca4cc589836399f33749aae73075e694ccd7d0\"","if-modified-since":"Wed, 29 Mar 2017 03:52:38 GMT"}||
2017-04-03 22:50:23.869|1491234623869:PMYCHAW902G:6019:j0w9iadw:10907|10.195.161.26||GET|/customer-portal/favicon.ico|{"host":"mychannel.ais.co.th","connection":"keep-alive","user-agent":"Mozilla/5.0 (Linux; Android 7.0; F8332 Build/39.2.A.0.442; wv) AppleWebKit/537.36 (KHTML, like Gecko) Version/4.0 Chrome/56.0.2924.87 Mobile Safari/537.36 [FB_IAB/MESSENGER;FBAV/111.0.0.15.46;]","accept":"image/webp,image/*,*/*;q=0.8","referer":"https://mychannel.ais.co.th/customer-portal/","accept-encoding":"gzip, deflate","accept-language":"th-TH,en-US;q=0.8","cookie":"accessToken=eyJhbGciOiJIUzI1NiIsInR5cCI6IkpXVCJ9.eyJ1c2VybmFtZSI6IlNVTUVUU0FJIiwidGltZXN0YW1wIjoiMjAxNzA0MDMxMTI0IiwibG9jYXRpb25Db2RlIjoiODg4OCIsImlhdCI6MTQ5MTE5MzQ0MywiZXhwIjoxNDkxMTkzNTYzfQ.E-5C4e-hKF_Dwx_NX8WxFJijrcuzseIAo3tbD7GpF9g; refreshToken=eyJhbGciOiJIUzI1NiIsInR5cCI6IkpXVCJ9.eyJ1c2VybmFtZSI6IlNVTUVUU0FJIiwidGltZXN0YW1wIjoiMjAxNzA0MDMxMTI0IiwibG9jYXRpb25Db2RlIjoiODg4OCIsImlhdCI6MTQ5MTE5MzQ0MywiZXhwIjoxNDkxMTk0MzQzfQ.HTFuDzrVshbvONdN1T8PHr0BxGTC4pR7QFy29XJRY70; mobileNo=0818350033","x-requested-with":"com.facebook.orca","if-none-match":"\"57bffb976c81668993e97f5b0183ee3775a79fa8-gzip\"","if-modified-since":"Wed, 29 Mar 2017 03:51:51 GMT"}||
2017-04-03 22:50:31.898|1491234631898:PMYCHAW902G:6019:j0w9iadw:10908|10.195.161.26||POST|/api/auth/refreshToken|{"host":"mychannel.ais.co.th","connection":"keep-alive","content-length":"2","accept":"application/json, text/plain, */*","origin":"https://mychannel.ais.co.th","x-authorization":"Bearer eyJhbGciOiJIUzI1NiIsInR5cCI6IkpXVCJ9.eyJ1c2VybmFtZSI6IlNVTUVUU0FJIiwidGltZXN0YW1wIjoiMjAxNzA0MDMxMTI0IiwibG9jYXRpb25Db2RlIjoiODg4OCIsImlhdCI6MTQ5MTE5MzQ0MywiZXhwIjoxNDkxMTk0MzQzfQ.HTFuDzrVshbvONdN1T8PHr0BxGTC4pR7QFy29XJRY70","user-agent":"Mozilla/5.0 (Linux; Android 7.0; F8332 Build/39.2.A.0.442; wv) AppleWebKit/537.36 (KHTML, like Gecko) Version/4.0 Chrome/56.0.2924.87 Mobile Safari/537.36 [FB_IAB/MESSENGER;FBAV/111.0.0.15.46;]","content-type":"text/plain","referer":"https://mychannel.ais.co.th/customer-portal/","accept-encoding":"gzip, deflate","accept-language":"th-TH,en-US;q=0.8","cookie":"accessToken=eyJhbGciOiJIUzI1NiIsInR5cCI6IkpXVCJ9.eyJ1c2VybmFtZSI6IlNVTUVUU0FJIiwidGltZXN0YW1wIjoiMjAxNzA0MDMxMTI0IiwibG9jYXRpb25Db2RlIjoiODg4OCIsImlhdCI6MTQ5MTE5MzQ0MywiZXhwIjoxNDkxMTkzNTYzfQ.E-5C4e-hKF_Dwx_NX8WxFJijrcuzseIAo3tbD7GpF9g; refreshToken=eyJhbGciOiJIUzI1NiIsInR5cCI6IkpXVCJ9.eyJ1c2VybmFtZSI6IlNVTUVUU0FJIiwidGltZXN0YW1wIjoiMjAxNzA0MDMxMTI0IiwibG9jYXRpb25Db2RlIjoiODg4OCIsImlhdCI6MTQ5MTE5MzQ0MywiZXhwIjoxNDkxMTk0MzQzfQ.HTFuDzrVshbvONdN1T8PHr0BxGTC4pR7QFy29XJRY70; mobileNo=0818350033","x-requested-with":"com.facebook.orca"}||
