-|-|-|-|-|-|-|-|-|-|-|-|-|-|
2017-04-04 16:15:10.000|1491297308965:PMYCHAW901G:5818:j0w9ivtt:11646|10.195.161.26|201704041615089662879|GET|http://10.198.40.23:8080/api/greeting/0929595556/profile|{"x-api-request-id":"201704041615089662879","x-authorization":"Bearer eyJhbGciOiJIUzI1NiIsInR5cCI6IkpXVCJ9.eyJ1c2VybmFtZSI6IkNIQVRDSEFVIiwidGltZXN0YW1wIjoiMjAxNzA0MDQxNjE0IiwibG9jYXRpb25Db2RlIjoiMTAwNiIsImlhdCI6MTQ5MTI5NzI4MCwiZXhwIjoxNDkxMjk3NDAwfQ.BE8FvJIimam2tSeF7TLl3-OvhZ6N9W56LIIqZwSD8aM"}|||200|{"resultCode":"20000","resultDescription":"Success","developerMessage":"Success","data":{"mobileStatus":"Active","registerDate":"02/04/1997 00:00:00","remark":"","chargeType":"Post-paid","customerType":"Residential","birthDate":"24/08/1978"}}|1739||null
2017-04-04 16:15:12.000|1491297310771:PMYCHAW901G:5818:j0w9ivtt:11647|10.195.161.26|201704041615107730078|GET|http://10.198.40.23:8080/api/greeting/0929595556/profile|{"x-api-request-id":"201704041615107730078","x-authorization":"Bearer eyJhbGciOiJIUzI1NiIsInR5cCI6IkpXVCJ9.eyJ1c2VybmFtZSI6IkNIQVRDSEFVIiwidGltZXN0YW1wIjoiMjAxNzA0MDQxNjE0IiwibG9jYXRpb25Db2RlIjoiMTAwNiIsImlhdCI6MTQ5MTI5NzI4MCwiZXhwIjoxNDkxMjk3NDAwfQ.BE8FvJIimam2tSeF7TLl3-OvhZ6N9W56LIIqZwSD8aM"}|||200|{"resultCode":"20000","resultDescription":"Success","developerMessage":"Success","data":{"mobileStatus":"Active","registerDate":"02/04/1997 00:00:00","remark":"","chargeType":"Post-paid","customerType":"Residential","birthDate":"24/08/1978"}}|1516||null
2017-04-04 16:15:14.000|1491297312422:PMYCHAW901G:5818:j0w9ivtt:11650|10.195.161.26|201704041615124241113|GET|http://10.198.40.23:8080/api/greeting/0929595556/profile|{"x-api-request-id":"201704041615124241113","x-authorization":"Bearer eyJhbGciOiJIUzI1NiIsInR5cCI6IkpXVCJ9.eyJ1c2VybmFtZSI6IkNIQVRDSEFVIiwidGltZXN0YW1wIjoiMjAxNzA0MDQxNjE0IiwibG9jYXRpb25Db2RlIjoiMTAwNiIsImlhdCI6MTQ5MTI5NzI4MCwiZXhwIjoxNDkxMjk3NDAwfQ.BE8FvJIimam2tSeF7TLl3-OvhZ6N9W56LIIqZwSD8aM"}|||200|{"resultCode":"20000","resultDescription":"Success","developerMessage":"Success","data":{"mobileStatus":"Active","registerDate":"02/04/1997 00:00:00","remark":"","chargeType":"Post-paid","customerType":"Residential","birthDate":"24/08/1978"}}|1667||null
2017-04-04 16:15:22.000|1491297322391:PMYCHAW901G:5818:j0w9ivtt:11652|10.195.161.26|201704041615223926624|GET|http://10.198.40.23:8080/api/asset/0929595556/packages|{"x-api-request-id":"201704041615223926624","x-authorization":"Bearer eyJhbGciOiJIUzI1NiIsInR5cCI6IkpXVCJ9.eyJ1c2VybmFtZSI6IkNIQVRDSEFVIiwidGltZXN0YW1wIjoiMjAxNzA0MDQxNjE0IiwibG9jYXRpb25Db2RlIjoiMTAwNiIsImlhdCI6MTQ5MTI5NzI4MCwiZXhwIjoxNDkxMjk3NDAwfQ.BE8FvJIimam2tSeF7TLl3-OvhZ6N9W56LIIqZwSD8aM"}|||200|{"resultCode":"20000","resultDescription":"Success","developerMessage":"Success","data":{"packages":[{"title":"4G Staff Excellent package 248","detail":"4G Staff Excellent 248บ.,โทรฟรี AIS&เบอร์บ้านตลอด 24ชม.,4G/3G จำนวน8GB รับ4Gเพิ่มอีก2GB รวม10GB SMS 50ข้อความ MMS 50ข้อความ ฟรี AIS SUPER WiFi และหนังจาก AIS Play, ส่วนเกินโทรเครือข่ายอื่นนาทีละ 0.55บ., SMS 1บ., MMS 3บ., internet GBละ 49บ.,12รอบบิล","expiredDate":"07/06/2017 23:59:59"},{"title":"","detail":"ระบบแจ้งเตือนและระงับไม่ให้ลูกค้าเกิดการใช้งาน data roaming เกินจำนวน Quota ประมาณ 2,000 บาท","expiredDate":"31/03/2023 23:59:59"},{"title":"สิทธิพิเศษโทร AIS CALL CENTER ฟรีจากต่างประเทศ","detail":"สิทธิพิเศษโทรฟรีเข้า AIS CALL CENTER เมื่ออยู่ต่างประเทศ หมายเลข 02-2719000","expiredDate":"30/06/2017 23:59:59"}]}}|240||null
2017-04-04 16:15:22.000|1491297322392:PMYCHAW901G:5812:j0w9ivr3:11701|10.195.161.26|201704041615223943406|GET|http://10.198.40.23:8080/api/asset/0929595556/services|{"x-api-request-id":"201704041615223943406","x-authorization":"Bearer eyJhbGciOiJIUzI1NiIsInR5cCI6IkpXVCJ9.eyJ1c2VybmFtZSI6IkNIQVRDSEFVIiwidGltZXN0YW1wIjoiMjAxNzA0MDQxNjE0IiwibG9jYXRpb25Db2RlIjoiMTAwNiIsImlhdCI6MTQ5MTI5NzI4MCwiZXhwIjoxNDkxMjk3NDAwfQ.BE8FvJIimam2tSeF7TLl3-OvhZ6N9W56LIIqZwSD8aM"}|||200|{"resultCode":"20000","resultDescription":"Success","developerMessage":"Success","data":{"services":[{"detail":"GSM GPRS"},{"detail":"VoWiFi"},{"detail":"GSM advance Calling Melody 0 Baht for Staff"},{"detail":"GSM International Roaming"},{"detail":"VoLTE Service"},{"detail":"GSM International Call"}]}}|334||null
2017-04-04 16:15:22.000|1491297322483:PMYCHAW901G:5812:j0w9ivr3:11702|10.195.161.26|201704041615224841570|GET|http://10.198.40.23:8080/api/asset/0929595556/contracts|{"x-api-request-id":"201704041615224841570","x-authorization":"Bearer eyJhbGciOiJIUzI1NiIsInR5cCI6IkpXVCJ9.eyJ1c2VybmFtZSI6IkNIQVRDSEFVIiwidGltZXN0YW1wIjoiMjAxNzA0MDQxNjE0IiwibG9jYXRpb25Db2RlIjoiMTAwNiIsImlhdCI6MTQ5MTI5NzI4MCwiZXhwIjoxNDkxMjk3NDAwfQ.BE8FvJIimam2tSeF7TLl3-OvhZ6N9W56LIIqZwSD8aM"}|||200|{"resultCode":"20000","resultDescription":"Success","developerMessage":"Success","data":{"contractAmount":"0"}}|480||null
2017-04-04 16:15:24.000|1491297322384:PMYCHAW901G:5818:j0w9ivtt:11651|10.195.161.26|201704041615223869759|GET|http://10.198.40.23:8080/api/asset/0929595556/profile|{"x-api-request-id":"201704041615223869759","x-authorization":"Bearer eyJhbGciOiJIUzI1NiIsInR5cCI6IkpXVCJ9.eyJ1c2VybmFtZSI6IkNIQVRDSEFVIiwidGltZXN0YW1wIjoiMjAxNzA0MDQxNjE0IiwibG9jYXRpb25Db2RlIjoiMTAwNiIsImlhdCI6MTQ5MTI5NzI4MCwiZXhwIjoxNDkxMjk3NDAwfQ.BE8FvJIimam2tSeF7TLl3-OvhZ6N9W56LIIqZwSD8aM"}|||200|{"resultCode":"20000","resultDescription":"Success","developerMessage":"Success","data":{"mobileStatus":"Active","statusReason":"971-ขอใช้สิทธิ์ Campaign ที่ได้รับ","product":"3BO","chargeType":"Post-paid","idCardNo":"xxxxxxxxx6143","billingSystem":"BOS","simSerialNo":"1431453427985","activeStop":"","suspendStop":"","disableStop":""}}|2357||null
2017-04-04 16:15:30.000|1491297330209:PMYCHAW901G:5818:j0w9ivtt:11654|10.195.161.26|201704041615302115036|GET|http://10.198.40.23:8080/api/offers/0929595556/transactions|{"x-api-request-id":"201704041615302115036","x-authorization":"Bearer eyJhbGciOiJIUzI1NiIsInR5cCI6IkpXVCJ9.eyJ1c2VybmFtZSI6IkNIQVRDSEFVIiwidGltZXN0YW1wIjoiMjAxNzA0MDQxNjE0IiwibG9jYXRpb25Db2RlIjoiMTAwNiIsImlhdCI6MTQ5MTI5NzI4MCwiZXhwIjoxNDkxMjk3NDAwfQ.BE8FvJIimam2tSeF7TLl3-OvhZ6N9W56LIIqZwSD8aM"}|||200|{"resultCode":"20000","resultDescription":"Success","developerMessage":"Success","data":{"transactions":[]}}|39||null
2017-04-04 16:15:31.000|1491297331627:PMYCHAW901G:5818:j0w9ivtt:11656|10.195.161.26|201704041615316290164|GET|http://10.198.40.23:8080/api/billing/0929595556|{"x-api-request-id":"201704041615316290164","x-authorization":"Bearer eyJhbGciOiJIUzI1NiIsInR5cCI6IkpXVCJ9.eyJ1c2VybmFtZSI6IkNIQVRDSEFVIiwidGltZXN0YW1wIjoiMjAxNzA0MDQxNjE0IiwibG9jYXRpb25Db2RlIjoiMTAwNiIsImlhdCI6MTQ5MTI5NzI4MCwiZXhwIjoxNDkxMjk3NDAwfQ.BE8FvJIimam2tSeF7TLl3-OvhZ6N9W56LIIqZwSD8aM"}|||200|{"resultCode":"20000","resultDescription":"Success","developerMessage":"Success","data":{"billingAddress":{"houseNumber":"63/65","mooban":"หมู่บ้านสัมมากร","streetName":"ราชพฤกษ์","tumbol":"อ้อมเกร็ด","provinceName":"นนทบุรี","portalCode":"11120","buildingName":"","soi":"","moo":"","floor":"","amphur":"ปากเกร็ด"},"periodFrom":"8","periodTo":"7","paymentDueDate":"12","paymentType":"Credit Card Debit","billingChannel":"SMS + Email","noticeMobileNumber":"0929595556","contactTelNumber":["029243630","0818445666"]}}|298||null
2017-04-04 16:15:44.000|1491297343365:PMYCHAW901G:5818:j0w9ivtt:11657|10.195.161.26|201704041615433675629|GET|http://10.198.40.23:8080/api/greeting/0929595556/profile|{"x-api-request-id":"201704041615433675629","x-authorization":"Bearer eyJhbGciOiJIUzI1NiIsInR5cCI6IkpXVCJ9.eyJ1c2VybmFtZSI6IkNIQVRDSEFVIiwidGltZXN0YW1wIjoiMjAxNzA0MDQxNjE0IiwibG9jYXRpb25Db2RlIjoiMTAwNiIsImlhdCI6MTQ5MTI5NzI4MCwiZXhwIjoxNDkxMjk3NDAwfQ.BE8FvJIimam2tSeF7TLl3-OvhZ6N9W56LIIqZwSD8aM"}|||200|{"resultCode":"20000","resultDescription":"Success","developerMessage":"Success","data":{"mobileStatus":"Active","registerDate":"02/04/1997 00:00:00","remark":"","chargeType":"Post-paid","customerType":"Residential","birthDate":"24/08/1978"}}|1517||null
2017-04-04 16:16:05.000|1491297363380:PMYCHAW901G:5818:j0w9ivtt:11658|10.195.161.26|201704041616033818367|GET|http://10.198.40.23:8080/api/greeting/0929595556/recentactivities|{"x-api-request-id":"201704041616033818367","x-authorization":"Bearer eyJhbGciOiJIUzI1NiIsInR5cCI6IkpXVCJ9.eyJ1c2VybmFtZSI6IkNIQVRDSEFVIiwidGltZXN0YW1wIjoiMjAxNzA0MDQxNjE0IiwibG9jYXRpb25Db2RlIjoiMTAwNiIsImlhdCI6MTQ5MTI5NzI4MCwiZXhwIjoxNDkxMjk3NDAwfQ.BE8FvJIimam2tSeF7TLl3-OvhZ6N9W56LIIqZwSD8aM"}|||200|{"resultCode":"20000","resultDescription":"Success","developerMessage":"Success","data":{"activities":[{"createdDate":"16/03/2017 16:58:53","subCategory":"ส่ง e-Statement ผ่าน SMS","status":"Done"},{"createdDate":"14/03/2017 14:36:10","subCategory":"เข้าใช้งาน my AIS","status":"Done"},{"createdDate":"14/03/2017 14:24:57","subCategory":"เข้าใช้งาน my AIS","status":"Done"},{"createdDate":"02/03/2017 18:53:22","subCategory":"ยกเลิกการล็อคอินเข้าใช้งาน WiFi อัตโนมัติ ผ่าน AIS SUPER WiFi","status":"Done"},{"createdDate":"01/03/2017 12:09:57","subCategory":"เข้าใช้งาน my AIS","status":"Done"},{"createdDate":"22/02/2017 08:49:00","subCategory":"เข้าใช้งาน my AIS","status":"Done"},{"createdDate":"16/02/2017 16:46:31","subCategory":"ส่ง e-Statement ผ่าน SMS","status":"Done"},{"createdDate":"14/02/2017 10:21:13","subCategory":"ผลการพิจารณาคำขอ Port Out","status":"Done"},{"createdDate":"08/02/2017 13:08:32","subCategory":"เข้าใช้งาน eService","status":"Done"},{"createdDate":"20/01/2017 09:13:55","subCategory":"ยกเลิก Port Out","status":"Done"},{"createdDate":"20/01/2017 08:59:29","subCategory":"ผลการพิจารณาคำขอ Port Out","status":"Done"}]}}|1673||null
2017-04-04 16:17:02.000|1491297421872:PMYCHAW901G:5818:j0w9ivtt:11663|10.195.161.26|201704041617018734311|GET|http://10.198.40.23:8080/api/asset/0818496868/services|{"x-api-request-id":"201704041617018734311","x-authorization":"Bearer eyJhbGciOiJIUzI1NiIsInR5cCI6IkpXVCJ9.eyJ1c2VybmFtZSI6IkNIQVRDSEFVIiwidGltZXN0YW1wIjoiMjAxNzA0MDQxNjE2IiwibG9jYXRpb25Db2RlIjoiMTAwNiIsImlhdCI6MTQ5MTI5NzM4OSwiZXhwIjoxNDkxMjk3NTA5fQ.9cd6bzeVuYq6O7tlaE9gpQPpwPojYJU0E0O3VoZjKT4"}|||200|{"resultCode":"20000","resultDescription":"Success","developerMessage":"Success","data":{"services":[{"detail":"GSM International Call"},{"detail":"Bar GPRS service"},{"detail":"GSM GPRS"},{"detail":"GSM International Roaming"}]}}|174||null
2017-04-04 16:17:02.000|1491297421893:PMYCHAW901G:5812:j0w9ivr3:11718|10.195.161.26|201704041617018969538|GET|http://10.198.40.23:8080/api/asset/0818496868/contracts|{"x-api-request-id":"201704041617018969538","x-authorization":"Bearer eyJhbGciOiJIUzI1NiIsInR5cCI6IkpXVCJ9.eyJ1c2VybmFtZSI6IkNIQVRDSEFVIiwidGltZXN0YW1wIjoiMjAxNzA0MDQxNjE2IiwibG9jYXRpb25Db2RlIjoiMTAwNiIsImlhdCI6MTQ5MTI5NzM4OSwiZXhwIjoxNDkxMjk3NTA5fQ.9cd6bzeVuYq6O7tlaE9gpQPpwPojYJU0E0O3VoZjKT4"}|||200|{"resultCode":"20000","resultDescription":"Success","developerMessage":"Success","data":{"contractAmount":"0"}}|228||null
2017-04-04 16:17:11.000|1491297431081:PMYCHAW901G:5818:j0w9ivtt:11664|10.195.161.26|201704041617110851058|GET|http://10.198.40.23:8080/api/greeting/0929595556/recentactivities|{"x-api-request-id":"201704041617110851058","x-authorization":"Bearer eyJhbGciOiJIUzI1NiIsInR5cCI6IkpXVCJ9.eyJ1c2VybmFtZSI6IkNIQVRDSEFVIiwidGltZXN0YW1wIjoiMjAxNzA0MDQxNjE0IiwibG9jYXRpb25Db2RlIjoiMTAwNiIsImlhdCI6MTQ5MTI5NzI4MCwiZXhwIjoxNDkxMjk3NDAwfQ.BE8FvJIimam2tSeF7TLl3-OvhZ6N9W56LIIqZwSD8aM"}|||401||17|"401 - {\"resultCode\":401,\"resultDescription\":\"Invalid token\",\"developerMessage\":\"Invalid token\",\"errors\":{\"statusCode\":401,\"error\":\"Unauthorized\",\"message\":\"Invalid token\",\"attributes\":{\"error\":\"Invalid token\"}}}"|StatusCodeError
2017-04-04 16:17:55.000|1491297474897:PMYCHAW901G:5812:j0w9ivr3:11722|10.195.161.26|201704041617549000435|GET|http://10.198.40.23:8080/api/billing/0818496868|{"x-api-request-id":"201704041617549000435","x-authorization":"Bearer eyJhbGciOiJIUzI1NiIsInR5cCI6IkpXVCJ9.eyJ1c2VybmFtZSI6IkNIQVRDSEFVIiwidGltZXN0YW1wIjoiMjAxNzA0MDQxNjE2IiwibG9jYXRpb25Db2RlIjoiMTAwNiIsImlhdCI6MTQ5MTI5NzM4OSwiZXhwIjoxNDkxMjk3NTA5fQ.9cd6bzeVuYq6O7tlaE9gpQPpwPojYJU0E0O3VoZjKT4"}|||200|{"resultCode":"20000","resultDescription":"Success","developerMessage":"Success","data":{"billingAddress":{"houseNumber":"63/65","mooban":"","streetName":"ราชพฤกษ์","tumbol":"อ้อมเกร็ด","provinceName":"นนทบุรี","portalCode":"11120","buildingName":"","soi":"","moo":"สัมมากร","floor":"","amphur":"ปากเกร็ด"},"periodFrom":"1","periodTo":"30","paymentDueDate":"18","paymentType":"Credit Card Debit","billingChannel":"Hard Copy","noticeMobileNumber":"","contactTelNumber":["025831849"]}}|264||null
