-|-|-|-|-|-|-|-|-|-|-|-|-|-|
2017-04-04 16:07:34.000|1491296853603:PMYCHAW901G:5818:j0w9ivtt:11618|10.195.161.26|201704041607336059268|GET|http://10.198.40.23:8080/api/customerprofile/0818416161|{"x-api-request-id":"201704041607336059268","x-authorization":"Bearer eyJhbGciOiJIUzI1NiIsInR5cCI6IkpXVCJ9.eyJ1c2VybmFtZSI6IkNIQU5QSEVTIiwidGltZXN0YW1wIjoiMjAxNzA0MDQxNjA3IiwibG9jYXRpb25Db2RlIjoiMTAwNiIsImlhdCI6MTQ5MTI5Njg0NSwiZXhwIjoxNDkxMjk2OTY1fQ.-_azJ-Vz30fGHjIWUUHx3hDIuMEX9_5ZVjVnr6bSwFA"}|||200|{"resultCode":"20000","resultDescription":"Success","developerMessage":"Success","data":{"title":"คุณ","name":"ชาติชาย สุวรรณกำจาย","mobileNo":"0818416161","mobileSegment":"Gold","chargeType":"Post-paid","customerType":"Residential"}}|409||null
2017-04-04 16:07:35.000|1491296854109:PMYCHAW901G:5818:j0w9ivtt:11619|10.195.161.26|201704041607341104656|GET|http://10.198.40.23:8080/api/greeting/0818416161/profile|{"x-api-request-id":"201704041607341104656","x-authorization":"Bearer eyJhbGciOiJIUzI1NiIsInR5cCI6IkpXVCJ9.eyJ1c2VybmFtZSI6IkNIQU5QSEVTIiwidGltZXN0YW1wIjoiMjAxNzA0MDQxNjA3IiwibG9jYXRpb25Db2RlIjoiMTAwNiIsImlhdCI6MTQ5MTI5Njg0NSwiZXhwIjoxNDkxMjk2OTY1fQ.-_azJ-Vz30fGHjIWUUHx3hDIuMEX9_5ZVjVnr6bSwFA"}|||200|{"resultCode":"20000","resultDescription":"Success","developerMessage":"Success","data":{"mobileStatus":"Active","registerDate":"05/06/2005 00:00:00","remark":"","chargeType":"Post-paid","customerType":"Residential","birthDate":"24/08/1978"}}|1758||null
2017-04-04 16:07:37.000|1491296856263:PMYCHAW901G:5812:j0w9ivr3:11569|10.195.161.26|201704041607362654084|GET|http://10.198.40.23:8080/api/greeting/0818416161/profile|{"x-api-request-id":"201704041607362654084","x-authorization":"Bearer eyJhbGciOiJIUzI1NiIsInR5cCI6IkpXVCJ9.eyJ1c2VybmFtZSI6IkNIQU5QSEVTIiwidGltZXN0YW1wIjoiMjAxNzA0MDQxNjA3IiwibG9jYXRpb25Db2RlIjoiMTAwNiIsImlhdCI6MTQ5MTI5Njg0NSwiZXhwIjoxNDkxMjk2OTY1fQ.-_azJ-Vz30fGHjIWUUHx3hDIuMEX9_5ZVjVnr6bSwFA"}|||200|{"resultCode":"20000","resultDescription":"Success","developerMessage":"Success","data":{"mobileStatus":"Active","registerDate":"05/06/2005 00:00:00","remark":"","chargeType":"Post-paid","customerType":"Residential","birthDate":"24/08/1978"}}|1397||null
2017-04-04 16:07:37.000|1491296856273:PMYCHAW901G:5812:j0w9ivr3:11570|10.195.161.26|201704041607362742514|GET|http://10.198.40.23:8080/api/greeting/0818416161/recentactivities|{"x-api-request-id":"201704041607362742514","x-authorization":"Bearer eyJhbGciOiJIUzI1NiIsInR5cCI6IkpXVCJ9.eyJ1c2VybmFtZSI6IkNIQU5QSEVTIiwidGltZXN0YW1wIjoiMjAxNzA0MDQxNjA3IiwibG9jYXRpb25Db2RlIjoiMTAwNiIsImlhdCI6MTQ5MTI5Njg0NSwiZXhwIjoxNDkxMjk2OTY1fQ.-_azJ-Vz30fGHjIWUUHx3hDIuMEX9_5ZVjVnr6bSwFA"}|||200|{"resultCode":"20000","resultDescription":"Success","developerMessage":"Success","data":{"activities":[{"createdDate":"13/03/2017 16:34:49","subCategory":"ส่ง e-Statement ผ่าน SMS","status":"Done"},{"createdDate":"02/03/2017 18:53:22","subCategory":"ยกเลิกการล็อคอินเข้าใช้งาน WiFi อัตโนมัติ ผ่าน AIS SUPER WiFi","status":"Done"},{"createdDate":"22/02/2017 13:10:08","subCategory":"เข้าใช้งาน eService","status":"Done"},{"createdDate":"14/02/2017 16:03:05","subCategory":"ส่ง e-Statement ผ่าน SMS","status":"Done"}]}}|1545||null
2017-04-04 16:08:22.000|1491296901867:PMYCHAW901G:5812:j0w9ivr3:11586|10.195.161.26|201704041608218713974|GET|http://10.198.40.23:8080/api/customerprofile/0982616969|{"x-api-request-id":"201704041608218713974","x-authorization":"Bearer eyJhbGciOiJIUzI1NiIsInR5cCI6IkpXVCJ9.eyJ1c2VybmFtZSI6IkNIQU5QSEVTIiwidGltZXN0YW1wIjoiMjAxNzA0MDQxNjA4IiwibG9jYXRpb25Db2RlIjoiMTAwNiIsImlhdCI6MTQ5MTI5Njg5MCwiZXhwIjoxNDkxMjk3MDEwfQ.Cvpn80bkeXsN0A5qK5-RiEzt-OUr7sn12PPGjBSzJWs"}|||200|{"resultCode":"20000","resultDescription":"Success","developerMessage":"Success","data":{"title":"คุณ","name":"ชาติชาย สุวรรณกำจาย","mobileNo":"0982616969","mobileSegment":"Classic","chargeType":"Pre-paid","customerType":"Residential"}}|226||null
2017-04-04 16:08:22.000|1491296902184:PMYCHAW901G:5812:j0w9ivr3:11587|10.195.161.26|201704041608221853970|GET|http://10.198.40.23:8080/api/greeting/0982616969/profile|{"x-api-request-id":"201704041608221853970","x-authorization":"Bearer eyJhbGciOiJIUzI1NiIsInR5cCI6IkpXVCJ9.eyJ1c2VybmFtZSI6IkNIQU5QSEVTIiwidGltZXN0YW1wIjoiMjAxNzA0MDQxNjA4IiwibG9jYXRpb25Db2RlIjoiMTAwNiIsImlhdCI6MTQ5MTI5Njg5MCwiZXhwIjoxNDkxMjk3MDEwfQ.Cvpn80bkeXsN0A5qK5-RiEzt-OUr7sn12PPGjBSzJWs"}|||200|{"resultCode":"20000","resultDescription":"Success","developerMessage":"Success","data":{"mobileStatus":"000","serviceYear":{"year":"3","month":"0","day":"16"},"remark":"","chargeType":"Pre-paid","customerType":"Residential","birthDate":"1978-08-24"}}|780||null
2017-04-04 16:08:25.000|1491296903245:PMYCHAW901G:5812:j0w9ivr3:11590|10.195.161.26|201704041608232479862|GET|http://10.198.40.23:8080/api/greeting/0982616969/profile|{"x-api-request-id":"201704041608232479862","x-authorization":"Bearer eyJhbGciOiJIUzI1NiIsInR5cCI6IkpXVCJ9.eyJ1c2VybmFtZSI6IkNIQU5QSEVTIiwidGltZXN0YW1wIjoiMjAxNzA0MDQxNjA4IiwibG9jYXRpb25Db2RlIjoiMTAwNiIsImlhdCI6MTQ5MTI5Njg5MCwiZXhwIjoxNDkxMjk3MDEwfQ.Cvpn80bkeXsN0A5qK5-RiEzt-OUr7sn12PPGjBSzJWs"}|||200|{"resultCode":"20000","resultDescription":"Success","developerMessage":"Success","data":{"mobileStatus":"000","serviceYear":{"year":"3","month":"0","day":"16"},"remark":"","chargeType":"Pre-paid","customerType":"Residential","birthDate":"1978-08-24"}}|2001||null
2017-04-04 16:08:57.000|1491296937361:PMYCHAW901G:5812:j0w9ivr3:11593|10.195.161.26|201704041608573624941|GET|http://10.198.40.23:8080/api/asset/0982616969/services|{"x-api-request-id":"201704041608573624941","x-authorization":"Bearer eyJhbGciOiJIUzI1NiIsInR5cCI6IkpXVCJ9.eyJ1c2VybmFtZSI6IkNIQU5QSEVTIiwidGltZXN0YW1wIjoiMjAxNzA0MDQxNjA4IiwibG9jYXRpb25Db2RlIjoiMTAwNiIsImlhdCI6MTQ5MTI5Njg5MCwiZXhwIjoxNDkxMjk3MDEwfQ.Cvpn80bkeXsN0A5qK5-RiEzt-OUr7sn12PPGjBSzJWs"}|||200|{"resultCode":"20000","resultDescription":"Success","developerMessage":"Success","data":{"services":[{"detail":"WAP / Internet / Multimedia"}]}}|218||null
2017-04-04 16:08:57.000|1491296937485:PMYCHAW901G:5818:j0w9ivtt:11636|10.195.161.26|201704041608574872140|GET|http://10.198.40.23:8080/api/asset/0982616969/contracts|{"x-api-request-id":"201704041608574872140","x-authorization":"Bearer eyJhbGciOiJIUzI1NiIsInR5cCI6IkpXVCJ9.eyJ1c2VybmFtZSI6IkNIQU5QSEVTIiwidGltZXN0YW1wIjoiMjAxNzA0MDQxNjA4IiwibG9jYXRpb25Db2RlIjoiMTAwNiIsImlhdCI6MTQ5MTI5Njg5MCwiZXhwIjoxNDkxMjk3MDEwfQ.Cvpn80bkeXsN0A5qK5-RiEzt-OUr7sn12PPGjBSzJWs"}|||200|{"resultCode":"20000","resultDescription":"Success","developerMessage":"Success","data":{"contractAmount":"0"}}|348||null
2017-04-04 16:08:58.000|1491296937350:PMYCHAW901G:5812:j0w9ivr3:11592|10.195.161.26|201704041608573559382|GET|http://10.198.40.23:8080/api/asset/0982616969/profile|{"x-api-request-id":"201704041608573559382","x-authorization":"Bearer eyJhbGciOiJIUzI1NiIsInR5cCI6IkpXVCJ9.eyJ1c2VybmFtZSI6IkNIQU5QSEVTIiwidGltZXN0YW1wIjoiMjAxNzA0MDQxNjA4IiwibG9jYXRpb25Db2RlIjoiMTAwNiIsImlhdCI6MTQ5MTI5Njg5MCwiZXhwIjoxNDkxMjk3MDEwfQ.Cvpn80bkeXsN0A5qK5-RiEzt-OUr7sn12PPGjBSzJWs"}|||200|{"resultCode":"20000","resultDescription":"Success","developerMessage":"Success","data":{"mobileStatus":"000","statusReason":"","product":"3PE","chargeType":"Pre-paid","idCardNo":"xxxxxxxxx6143","billingSystem":"Non BOS","simSerialNo":"1641701070193","activeStop":"20170413","suspendStop":"20170513","disableStop":"20170528"}}|756||null
2017-04-04 16:09:43.000|1491296983583:PMYCHAW901G:5812:j0w9ivr3:11595|10.195.161.26|201704041609435856238|GET|http://10.198.40.23:8080/api/offers/0982616969/transactions|{"x-api-request-id":"201704041609435856238","x-authorization":"Bearer eyJhbGciOiJIUzI1NiIsInR5cCI6IkpXVCJ9.eyJ1c2VybmFtZSI6IkNIQU5QSEVTIiwidGltZXN0YW1wIjoiMjAxNzA0MDQxNjA4IiwibG9jYXRpb25Db2RlIjoiMTAwNiIsImlhdCI6MTQ5MTI5Njg5MCwiZXhwIjoxNDkxMjk3MDEwfQ.Cvpn80bkeXsN0A5qK5-RiEzt-OUr7sn12PPGjBSzJWs"}|||200|{"resultCode":"20000","resultDescription":"Success","developerMessage":"Success","data":{"transactions":[]}}|39||null
2017-04-04 16:09:50.000|1491296990136:PMYCHAW901G:5812:j0w9ivr3:11596|10.195.161.26|201704041609501381041|GET|http://10.198.40.23:8080/api/greeting/0982616969/profile|{"x-api-request-id":"201704041609501381041","x-authorization":"Bearer eyJhbGciOiJIUzI1NiIsInR5cCI6IkpXVCJ9.eyJ1c2VybmFtZSI6IkNIQU5QSEVTIiwidGltZXN0YW1wIjoiMjAxNzA0MDQxNjA4IiwibG9jYXRpb25Db2RlIjoiMTAwNiIsImlhdCI6MTQ5MTI5Njg5MCwiZXhwIjoxNDkxMjk3MDEwfQ.Cvpn80bkeXsN0A5qK5-RiEzt-OUr7sn12PPGjBSzJWs"}|||200|{"resultCode":"20000","resultDescription":"Success","developerMessage":"Success","data":{"mobileStatus":"000","serviceYear":{"year":"3","month":"0","day":"16"},"remark":"","chargeType":"Pre-paid","customerType":"Residential","birthDate":"1978-08-24"}}|744||null
2017-04-04 16:10:16.000|1491297016370:PMYCHAW901G:5812:j0w9ivr3:11605|10.195.161.26|201704041610163726605|GET|http://10.198.40.23:8080/api/customerprofile/0982691569|{"x-api-request-id":"201704041610163726605","x-authorization":"Bearer eyJhbGciOiJIUzI1NiIsInR5cCI6IkpXVCJ9.eyJ1c2VybmFtZSI6IkNIQU5QSEVTIiwidGltZXN0YW1wIjoiMjAxNzA0MDQxNjA4IiwibG9jYXRpb25Db2RlIjoiMTAwNiIsImlhdCI6MTQ5MTI5Njg5MCwiZXhwIjoxNDkxMjk3MDEwfQ.Cvpn80bkeXsN0A5qK5-RiEzt-OUr7sn12PPGjBSzJWs"}|||401||21|"401 - {\"resultCode\":401,\"resultDescription\":\"Invalid token\",\"developerMessage\":\"Invalid token\",\"errors\":{\"statusCode\":401,\"error\":\"Unauthorized\",\"message\":\"Invalid token\",\"attributes\":{\"error\":\"Invalid token\"}}}"|StatusCodeError
2017-04-04 16:11:27.000|1491297087276:PMYCHAW901G:5812:j0w9ivr3:11606|10.195.161.26|201704041611272779223|GET|http://10.198.40.23:8080/api/customerprofile/0982691569|{"x-api-request-id":"201704041611272779223","x-authorization":"Bearer eyJhbGciOiJIUzI1NiIsInR5cCI6IkpXVCJ9.eyJ1c2VybmFtZSI6IkNIQU5QSEVTIiwidGltZXN0YW1wIjoiMjAxNzA0MDQxNjA4IiwibG9jYXRpb25Db2RlIjoiMTAwNiIsImlhdCI6MTQ5MTI5Njg5MCwiZXhwIjoxNDkxMjk3MDEwfQ.Cvpn80bkeXsN0A5qK5-RiEzt-OUr7sn12PPGjBSzJWs"}|||401||16|"401 - {\"resultCode\":401,\"resultDescription\":\"Invalid token\",\"developerMessage\":\"Invalid token\",\"errors\":{\"statusCode\":401,\"error\":\"Unauthorized\",\"message\":\"Invalid token\",\"attributes\":{\"error\":\"Invalid token\"}}}"|StatusCodeError
2017-04-04 16:11:29.000|1491297089032:PMYCHAW901G:5812:j0w9ivr3:11607|10.195.161.26|201704041611290341500|GET|http://10.198.40.23:8080/api/customerprofile/0982691569|{"x-api-request-id":"201704041611290341500","x-authorization":"Bearer eyJhbGciOiJIUzI1NiIsInR5cCI6IkpXVCJ9.eyJ1c2VybmFtZSI6IkNIQU5QSEVTIiwidGltZXN0YW1wIjoiMjAxNzA0MDQxNjA4IiwibG9jYXRpb25Db2RlIjoiMTAwNiIsImlhdCI6MTQ5MTI5Njg5MCwiZXhwIjoxNDkxMjk3MDEwfQ.Cvpn80bkeXsN0A5qK5-RiEzt-OUr7sn12PPGjBSzJWs"}|||401||19|"401 - {\"resultCode\":401,\"resultDescription\":\"Invalid token\",\"developerMessage\":\"Invalid token\",\"errors\":{\"statusCode\":401,\"error\":\"Unauthorized\",\"message\":\"Invalid token\",\"attributes\":{\"error\":\"Invalid token\"}}}"|StatusCodeError
2017-04-04 16:11:29.000|1491297089339:PMYCHAW901G:5812:j0w9ivr3:11608|10.195.161.26|201704041611293413320|GET|http://10.198.40.23:8080/api/customerprofile/0982691569|{"x-api-request-id":"201704041611293413320","x-authorization":"Bearer eyJhbGciOiJIUzI1NiIsInR5cCI6IkpXVCJ9.eyJ1c2VybmFtZSI6IkNIQU5QSEVTIiwidGltZXN0YW1wIjoiMjAxNzA0MDQxNjA4IiwibG9jYXRpb25Db2RlIjoiMTAwNiIsImlhdCI6MTQ5MTI5Njg5MCwiZXhwIjoxNDkxMjk3MDEwfQ.Cvpn80bkeXsN0A5qK5-RiEzt-OUr7sn12PPGjBSzJWs"}|||401||15|"401 - {\"resultCode\":401,\"resultDescription\":\"Invalid token\",\"developerMessage\":\"Invalid token\",\"errors\":{\"statusCode\":401,\"error\":\"Unauthorized\",\"message\":\"Invalid token\",\"attributes\":{\"error\":\"Invalid token\"}}}"|StatusCodeError
2017-04-04 16:11:29.000|1491297089747:PMYCHAW901G:5812:j0w9ivr3:11609|10.195.161.26|201704041611297481315|GET|http://10.198.40.23:8080/api/customerprofile/0982691569|{"x-api-request-id":"201704041611297481315","x-authorization":"Bearer eyJhbGciOiJIUzI1NiIsInR5cCI6IkpXVCJ9.eyJ1c2VybmFtZSI6IkNIQU5QSEVTIiwidGltZXN0YW1wIjoiMjAxNzA0MDQxNjA4IiwibG9jYXRpb25Db2RlIjoiMTAwNiIsImlhdCI6MTQ5MTI5Njg5MCwiZXhwIjoxNDkxMjk3MDEwfQ.Cvpn80bkeXsN0A5qK5-RiEzt-OUr7sn12PPGjBSzJWs"}|||401||21|"401 - {\"resultCode\":401,\"resultDescription\":\"Invalid token\",\"developerMessage\":\"Invalid token\",\"errors\":{\"statusCode\":401,\"error\":\"Unauthorized\",\"message\":\"Invalid token\",\"attributes\":{\"error\":\"Invalid token\"}}}"|StatusCodeError
2017-04-04 16:11:29.000|1491297089853:PMYCHAW901G:5812:j0w9ivr3:11610|10.195.161.26|201704041611298553598|GET|http://10.198.40.23:8080/api/customerprofile/0982691569|{"x-api-request-id":"201704041611298553598","x-authorization":"Bearer eyJhbGciOiJIUzI1NiIsInR5cCI6IkpXVCJ9.eyJ1c2VybmFtZSI6IkNIQU5QSEVTIiwidGltZXN0YW1wIjoiMjAxNzA0MDQxNjA4IiwibG9jYXRpb25Db2RlIjoiMTAwNiIsImlhdCI6MTQ5MTI5Njg5MCwiZXhwIjoxNDkxMjk3MDEwfQ.Cvpn80bkeXsN0A5qK5-RiEzt-OUr7sn12PPGjBSzJWs"}|||401||16|"401 - {\"resultCode\":401,\"resultDescription\":\"Invalid token\",\"developerMessage\":\"Invalid token\",\"errors\":{\"statusCode\":401,\"error\":\"Unauthorized\",\"message\":\"Invalid token\",\"attributes\":{\"error\":\"Invalid token\"}}}"|StatusCodeError
2017-04-04 16:11:30.000|1491297090063:PMYCHAW901G:5812:j0w9ivr3:11611|10.195.161.26|201704041611300669668|GET|http://10.198.40.23:8080/api/customerprofile/0982691569|{"x-api-request-id":"201704041611300669668","x-authorization":"Bearer eyJhbGciOiJIUzI1NiIsInR5cCI6IkpXVCJ9.eyJ1c2VybmFtZSI6IkNIQU5QSEVTIiwidGltZXN0YW1wIjoiMjAxNzA0MDQxNjA4IiwibG9jYXRpb25Db2RlIjoiMTAwNiIsImlhdCI6MTQ5MTI5Njg5MCwiZXhwIjoxNDkxMjk3MDEwfQ.Cvpn80bkeXsN0A5qK5-RiEzt-OUr7sn12PPGjBSzJWs"}|||401||16|"401 - {\"resultCode\":401,\"resultDescription\":\"Invalid token\",\"developerMessage\":\"Invalid token\",\"errors\":{\"statusCode\":401,\"error\":\"Unauthorized\",\"message\":\"Invalid token\",\"attributes\":{\"error\":\"Invalid token\"}}}"|StatusCodeError
2017-04-04 16:11:30.000|1491297090244:PMYCHAW901G:5812:j0w9ivr3:11612|10.195.161.26|201704041611302461985|GET|http://10.198.40.23:8080/api/customerprofile/0982691569|{"x-api-request-id":"201704041611302461985","x-authorization":"Bearer eyJhbGciOiJIUzI1NiIsInR5cCI6IkpXVCJ9.eyJ1c2VybmFtZSI6IkNIQU5QSEVTIiwidGltZXN0YW1wIjoiMjAxNzA0MDQxNjA4IiwibG9jYXRpb25Db2RlIjoiMTAwNiIsImlhdCI6MTQ5MTI5Njg5MCwiZXhwIjoxNDkxMjk3MDEwfQ.Cvpn80bkeXsN0A5qK5-RiEzt-OUr7sn12PPGjBSzJWs"}|||401||15|"401 - {\"resultCode\":401,\"resultDescription\":\"Invalid token\",\"developerMessage\":\"Invalid token\",\"errors\":{\"statusCode\":401,\"error\":\"Unauthorized\",\"message\":\"Invalid token\",\"attributes\":{\"error\":\"Invalid token\"}}}"|StatusCodeError
2017-04-04 16:11:30.000|1491297090473:PMYCHAW901G:5812:j0w9ivr3:11613|10.195.161.26|201704041611304749951|GET|http://10.198.40.23:8080/api/customerprofile/0982691569|{"x-api-request-id":"201704041611304749951","x-authorization":"Bearer eyJhbGciOiJIUzI1NiIsInR5cCI6IkpXVCJ9.eyJ1c2VybmFtZSI6IkNIQU5QSEVTIiwidGltZXN0YW1wIjoiMjAxNzA0MDQxNjA4IiwibG9jYXRpb25Db2RlIjoiMTAwNiIsImlhdCI6MTQ5MTI5Njg5MCwiZXhwIjoxNDkxMjk3MDEwfQ.Cvpn80bkeXsN0A5qK5-RiEzt-OUr7sn12PPGjBSzJWs"}|||401||17|"401 - {\"resultCode\":401,\"resultDescription\":\"Invalid token\",\"developerMessage\":\"Invalid token\",\"errors\":{\"statusCode\":401,\"error\":\"Unauthorized\",\"message\":\"Invalid token\",\"attributes\":{\"error\":\"Invalid token\"}}}"|StatusCodeError
2017-04-04 16:11:30.000|1491297090657:PMYCHAW901G:5812:j0w9ivr3:11614|10.195.161.26|201704041611306593221|GET|http://10.198.40.23:8080/api/customerprofile/0982691569|{"x-api-request-id":"201704041611306593221","x-authorization":"Bearer eyJhbGciOiJIUzI1NiIsInR5cCI6IkpXVCJ9.eyJ1c2VybmFtZSI6IkNIQU5QSEVTIiwidGltZXN0YW1wIjoiMjAxNzA0MDQxNjA4IiwibG9jYXRpb25Db2RlIjoiMTAwNiIsImlhdCI6MTQ5MTI5Njg5MCwiZXhwIjoxNDkxMjk3MDEwfQ.Cvpn80bkeXsN0A5qK5-RiEzt-OUr7sn12PPGjBSzJWs"}|||401||15|"401 - {\"resultCode\":401,\"resultDescription\":\"Invalid token\",\"developerMessage\":\"Invalid token\",\"errors\":{\"statusCode\":401,\"error\":\"Unauthorized\",\"message\":\"Invalid token\",\"attributes\":{\"error\":\"Invalid token\"}}}"|StatusCodeError
2017-04-04 16:11:30.000|1491297090894:PMYCHAW901G:5812:j0w9ivr3:11615|10.195.161.26|201704041611308956454|GET|http://10.198.40.23:8080/api/customerprofile/0982691569|{"x-api-request-id":"201704041611308956454","x-authorization":"Bearer eyJhbGciOiJIUzI1NiIsInR5cCI6IkpXVCJ9.eyJ1c2VybmFtZSI6IkNIQU5QSEVTIiwidGltZXN0YW1wIjoiMjAxNzA0MDQxNjA4IiwibG9jYXRpb25Db2RlIjoiMTAwNiIsImlhdCI6MTQ5MTI5Njg5MCwiZXhwIjoxNDkxMjk3MDEwfQ.Cvpn80bkeXsN0A5qK5-RiEzt-OUr7sn12PPGjBSzJWs"}|||401||15|"401 - {\"resultCode\":401,\"resultDescription\":\"Invalid token\",\"developerMessage\":\"Invalid token\",\"errors\":{\"statusCode\":401,\"error\":\"Unauthorized\",\"message\":\"Invalid token\",\"attributes\":{\"error\":\"Invalid token\"}}}"|StatusCodeError
2017-04-04 16:11:31.000|1491297091118:PMYCHAW901G:5812:j0w9ivr3:11616|10.195.161.26|201704041611311192222|GET|http://10.198.40.23:8080/api/customerprofile/0982691569|{"x-api-request-id":"201704041611311192222","x-authorization":"Bearer eyJhbGciOiJIUzI1NiIsInR5cCI6IkpXVCJ9.eyJ1c2VybmFtZSI6IkNIQU5QSEVTIiwidGltZXN0YW1wIjoiMjAxNzA0MDQxNjA4IiwibG9jYXRpb25Db2RlIjoiMTAwNiIsImlhdCI6MTQ5MTI5Njg5MCwiZXhwIjoxNDkxMjk3MDEwfQ.Cvpn80bkeXsN0A5qK5-RiEzt-OUr7sn12PPGjBSzJWs"}|||401||15|"401 - {\"resultCode\":401,\"resultDescription\":\"Invalid token\",\"developerMessage\":\"Invalid token\",\"errors\":{\"statusCode\":401,\"error\":\"Unauthorized\",\"message\":\"Invalid token\",\"attributes\":{\"error\":\"Invalid token\"}}}"|StatusCodeError
2017-04-04 16:11:31.000|1491297091375:PMYCHAW901G:5812:j0w9ivr3:11617|10.195.161.26|201704041611313773897|GET|http://10.198.40.23:8080/api/customerprofile/0982691569|{"x-api-request-id":"201704041611313773897","x-authorization":"Bearer eyJhbGciOiJIUzI1NiIsInR5cCI6IkpXVCJ9.eyJ1c2VybmFtZSI6IkNIQU5QSEVTIiwidGltZXN0YW1wIjoiMjAxNzA0MDQxNjA4IiwibG9jYXRpb25Db2RlIjoiMTAwNiIsImlhdCI6MTQ5MTI5Njg5MCwiZXhwIjoxNDkxMjk3MDEwfQ.Cvpn80bkeXsN0A5qK5-RiEzt-OUr7sn12PPGjBSzJWs"}|||401||15|"401 - {\"resultCode\":401,\"resultDescription\":\"Invalid token\",\"developerMessage\":\"Invalid token\",\"errors\":{\"statusCode\":401,\"error\":\"Unauthorized\",\"message\":\"Invalid token\",\"attributes\":{\"error\":\"Invalid token\"}}}"|StatusCodeError
2017-04-04 16:11:31.000|1491297091546:PMYCHAW901G:5812:j0w9ivr3:11618|10.195.161.26|201704041611315473348|GET|http://10.198.40.23:8080/api/customerprofile/0982691569|{"x-api-request-id":"201704041611315473348","x-authorization":"Bearer eyJhbGciOiJIUzI1NiIsInR5cCI6IkpXVCJ9.eyJ1c2VybmFtZSI6IkNIQU5QSEVTIiwidGltZXN0YW1wIjoiMjAxNzA0MDQxNjA4IiwibG9jYXRpb25Db2RlIjoiMTAwNiIsImlhdCI6MTQ5MTI5Njg5MCwiZXhwIjoxNDkxMjk3MDEwfQ.Cvpn80bkeXsN0A5qK5-RiEzt-OUr7sn12PPGjBSzJWs"}|||401||15|"401 - {\"resultCode\":401,\"resultDescription\":\"Invalid token\",\"developerMessage\":\"Invalid token\",\"errors\":{\"statusCode\":401,\"error\":\"Unauthorized\",\"message\":\"Invalid token\",\"attributes\":{\"error\":\"Invalid token\"}}}"|StatusCodeError
2017-04-04 16:11:31.000|1491297091841:PMYCHAW901G:5812:j0w9ivr3:11619|10.195.161.26|201704041611318426074|GET|http://10.198.40.23:8080/api/customerprofile/0982691569|{"x-api-request-id":"201704041611318426074","x-authorization":"Bearer eyJhbGciOiJIUzI1NiIsInR5cCI6IkpXVCJ9.eyJ1c2VybmFtZSI6IkNIQU5QSEVTIiwidGltZXN0YW1wIjoiMjAxNzA0MDQxNjA4IiwibG9jYXRpb25Db2RlIjoiMTAwNiIsImlhdCI6MTQ5MTI5Njg5MCwiZXhwIjoxNDkxMjk3MDEwfQ.Cvpn80bkeXsN0A5qK5-RiEzt-OUr7sn12PPGjBSzJWs"}|||401||15|"401 - {\"resultCode\":401,\"resultDescription\":\"Invalid token\",\"developerMessage\":\"Invalid token\",\"errors\":{\"statusCode\":401,\"error\":\"Unauthorized\",\"message\":\"Invalid token\",\"attributes\":{\"error\":\"Invalid token\"}}}"|StatusCodeError
2017-04-04 16:11:32.000|1491297092053:PMYCHAW901G:5812:j0w9ivr3:11620|10.195.161.26|201704041611320560001|GET|http://10.198.40.23:8080/api/customerprofile/0982691569|{"x-api-request-id":"201704041611320560001","x-authorization":"Bearer eyJhbGciOiJIUzI1NiIsInR5cCI6IkpXVCJ9.eyJ1c2VybmFtZSI6IkNIQU5QSEVTIiwidGltZXN0YW1wIjoiMjAxNzA0MDQxNjA4IiwibG9jYXRpb25Db2RlIjoiMTAwNiIsImlhdCI6MTQ5MTI5Njg5MCwiZXhwIjoxNDkxMjk3MDEwfQ.Cvpn80bkeXsN0A5qK5-RiEzt-OUr7sn12PPGjBSzJWs"}|||401||15|"401 - {\"resultCode\":401,\"resultDescription\":\"Invalid token\",\"developerMessage\":\"Invalid token\",\"errors\":{\"statusCode\":401,\"error\":\"Unauthorized\",\"message\":\"Invalid token\",\"attributes\":{\"error\":\"Invalid token\"}}}"|StatusCodeError
2017-04-04 16:11:32.000|1491297092238:PMYCHAW901G:5812:j0w9ivr3:11621|10.195.161.26|201704041611322407274|GET|http://10.198.40.23:8080/api/customerprofile/0982691569|{"x-api-request-id":"201704041611322407274","x-authorization":"Bearer eyJhbGciOiJIUzI1NiIsInR5cCI6IkpXVCJ9.eyJ1c2VybmFtZSI6IkNIQU5QSEVTIiwidGltZXN0YW1wIjoiMjAxNzA0MDQxNjA4IiwibG9jYXRpb25Db2RlIjoiMTAwNiIsImlhdCI6MTQ5MTI5Njg5MCwiZXhwIjoxNDkxMjk3MDEwfQ.Cvpn80bkeXsN0A5qK5-RiEzt-OUr7sn12PPGjBSzJWs"}|||401||15|"401 - {\"resultCode\":401,\"resultDescription\":\"Invalid token\",\"developerMessage\":\"Invalid token\",\"errors\":{\"statusCode\":401,\"error\":\"Unauthorized\",\"message\":\"Invalid token\",\"attributes\":{\"error\":\"Invalid token\"}}}"|StatusCodeError
2017-04-04 16:11:32.000|1491297092466:PMYCHAW901G:5812:j0w9ivr3:11622|10.195.161.26|201704041611324679329|GET|http://10.198.40.23:8080/api/customerprofile/0982691569|{"x-api-request-id":"201704041611324679329","x-authorization":"Bearer eyJhbGciOiJIUzI1NiIsInR5cCI6IkpXVCJ9.eyJ1c2VybmFtZSI6IkNIQU5QSEVTIiwidGltZXN0YW1wIjoiMjAxNzA0MDQxNjA4IiwibG9jYXRpb25Db2RlIjoiMTAwNiIsImlhdCI6MTQ5MTI5Njg5MCwiZXhwIjoxNDkxMjk3MDEwfQ.Cvpn80bkeXsN0A5qK5-RiEzt-OUr7sn12PPGjBSzJWs"}|||401||16|"401 - {\"resultCode\":401,\"resultDescription\":\"Invalid token\",\"developerMessage\":\"Invalid token\",\"errors\":{\"statusCode\":401,\"error\":\"Unauthorized\",\"message\":\"Invalid token\",\"attributes\":{\"error\":\"Invalid token\"}}}"|StatusCodeError
2017-04-04 16:11:33.000|1491297093831:PMYCHAW901G:5812:j0w9ivr3:11623|10.195.161.26|201704041611338328423|GET|http://10.198.40.23:8080/api/customerprofile/0982691569|{"x-api-request-id":"201704041611338328423","x-authorization":"Bearer eyJhbGciOiJIUzI1NiIsInR5cCI6IkpXVCJ9.eyJ1c2VybmFtZSI6IkNIQU5QSEVTIiwidGltZXN0YW1wIjoiMjAxNzA0MDQxNjA4IiwibG9jYXRpb25Db2RlIjoiMTAwNiIsImlhdCI6MTQ5MTI5Njg5MCwiZXhwIjoxNDkxMjk3MDEwfQ.Cvpn80bkeXsN0A5qK5-RiEzt-OUr7sn12PPGjBSzJWs"}|||401||17|"401 - {\"resultCode\":401,\"resultDescription\":\"Invalid token\",\"developerMessage\":\"Invalid token\",\"errors\":{\"statusCode\":401,\"error\":\"Unauthorized\",\"message\":\"Invalid token\",\"attributes\":{\"error\":\"Invalid token\"}}}"|StatusCodeError
2017-04-04 16:11:34.000|1491297094061:PMYCHAW901G:5812:j0w9ivr3:11624|10.195.161.26|201704041611340626903|GET|http://10.198.40.23:8080/api/customerprofile/0982691569|{"x-api-request-id":"201704041611340626903","x-authorization":"Bearer eyJhbGciOiJIUzI1NiIsInR5cCI6IkpXVCJ9.eyJ1c2VybmFtZSI6IkNIQU5QSEVTIiwidGltZXN0YW1wIjoiMjAxNzA0MDQxNjA4IiwibG9jYXRpb25Db2RlIjoiMTAwNiIsImlhdCI6MTQ5MTI5Njg5MCwiZXhwIjoxNDkxMjk3MDEwfQ.Cvpn80bkeXsN0A5qK5-RiEzt-OUr7sn12PPGjBSzJWs"}|||401||18|"401 - {\"resultCode\":401,\"resultDescription\":\"Invalid token\",\"developerMessage\":\"Invalid token\",\"errors\":{\"statusCode\":401,\"error\":\"Unauthorized\",\"message\":\"Invalid token\",\"attributes\":{\"error\":\"Invalid token\"}}}"|StatusCodeError
2017-04-04 16:11:34.000|1491297094272:PMYCHAW901G:5812:j0w9ivr3:11625|10.195.161.26|201704041611342745352|GET|http://10.198.40.23:8080/api/customerprofile/0982691569|{"x-api-request-id":"201704041611342745352","x-authorization":"Bearer eyJhbGciOiJIUzI1NiIsInR5cCI6IkpXVCJ9.eyJ1c2VybmFtZSI6IkNIQU5QSEVTIiwidGltZXN0YW1wIjoiMjAxNzA0MDQxNjA4IiwibG9jYXRpb25Db2RlIjoiMTAwNiIsImlhdCI6MTQ5MTI5Njg5MCwiZXhwIjoxNDkxMjk3MDEwfQ.Cvpn80bkeXsN0A5qK5-RiEzt-OUr7sn12PPGjBSzJWs"}|||401||16|"401 - {\"resultCode\":401,\"resultDescription\":\"Invalid token\",\"developerMessage\":\"Invalid token\",\"errors\":{\"statusCode\":401,\"error\":\"Unauthorized\",\"message\":\"Invalid token\",\"attributes\":{\"error\":\"Invalid token\"}}}"|StatusCodeError
2017-04-04 16:11:34.000|1491297094507:PMYCHAW901G:5812:j0w9ivr3:11626|10.195.161.26|201704041611345080575|GET|http://10.198.40.23:8080/api/customerprofile/0982691569|{"x-api-request-id":"201704041611345080575","x-authorization":"Bearer eyJhbGciOiJIUzI1NiIsInR5cCI6IkpXVCJ9.eyJ1c2VybmFtZSI6IkNIQU5QSEVTIiwidGltZXN0YW1wIjoiMjAxNzA0MDQxNjA4IiwibG9jYXRpb25Db2RlIjoiMTAwNiIsImlhdCI6MTQ5MTI5Njg5MCwiZXhwIjoxNDkxMjk3MDEwfQ.Cvpn80bkeXsN0A5qK5-RiEzt-OUr7sn12PPGjBSzJWs"}|||401||16|"401 - {\"resultCode\":401,\"resultDescription\":\"Invalid token\",\"developerMessage\":\"Invalid token\",\"errors\":{\"statusCode\":401,\"error\":\"Unauthorized\",\"message\":\"Invalid token\",\"attributes\":{\"error\":\"Invalid token\"}}}"|StatusCodeError
2017-04-04 16:11:34.000|1491297094752:PMYCHAW901G:5812:j0w9ivr3:11627|10.195.161.26|201704041611347547858|GET|http://10.198.40.23:8080/api/customerprofile/0982691569|{"x-api-request-id":"201704041611347547858","x-authorization":"Bearer eyJhbGciOiJIUzI1NiIsInR5cCI6IkpXVCJ9.eyJ1c2VybmFtZSI6IkNIQU5QSEVTIiwidGltZXN0YW1wIjoiMjAxNzA0MDQxNjA4IiwibG9jYXRpb25Db2RlIjoiMTAwNiIsImlhdCI6MTQ5MTI5Njg5MCwiZXhwIjoxNDkxMjk3MDEwfQ.Cvpn80bkeXsN0A5qK5-RiEzt-OUr7sn12PPGjBSzJWs"}|||401||15|"401 - {\"resultCode\":401,\"resultDescription\":\"Invalid token\",\"developerMessage\":\"Invalid token\",\"errors\":{\"statusCode\":401,\"error\":\"Unauthorized\",\"message\":\"Invalid token\",\"attributes\":{\"error\":\"Invalid token\"}}}"|StatusCodeError
2017-04-04 16:11:35.000|1491297094983:PMYCHAW901G:5812:j0w9ivr3:11628|10.195.161.26|201704041611349845117|GET|http://10.198.40.23:8080/api/customerprofile/0982691569|{"x-api-request-id":"201704041611349845117","x-authorization":"Bearer eyJhbGciOiJIUzI1NiIsInR5cCI6IkpXVCJ9.eyJ1c2VybmFtZSI6IkNIQU5QSEVTIiwidGltZXN0YW1wIjoiMjAxNzA0MDQxNjA4IiwibG9jYXRpb25Db2RlIjoiMTAwNiIsImlhdCI6MTQ5MTI5Njg5MCwiZXhwIjoxNDkxMjk3MDEwfQ.Cvpn80bkeXsN0A5qK5-RiEzt-OUr7sn12PPGjBSzJWs"}|||401||17|"401 - {\"resultCode\":401,\"resultDescription\":\"Invalid token\",\"developerMessage\":\"Invalid token\",\"errors\":{\"statusCode\":401,\"error\":\"Unauthorized\",\"message\":\"Invalid token\",\"attributes\":{\"error\":\"Invalid token\"}}}"|StatusCodeError
2017-04-04 16:11:35.000|1491297095236:PMYCHAW901G:5812:j0w9ivr3:11629|10.195.161.26|201704041611352376799|GET|http://10.198.40.23:8080/api/customerprofile/0982691569|{"x-api-request-id":"201704041611352376799","x-authorization":"Bearer eyJhbGciOiJIUzI1NiIsInR5cCI6IkpXVCJ9.eyJ1c2VybmFtZSI6IkNIQU5QSEVTIiwidGltZXN0YW1wIjoiMjAxNzA0MDQxNjA4IiwibG9jYXRpb25Db2RlIjoiMTAwNiIsImlhdCI6MTQ5MTI5Njg5MCwiZXhwIjoxNDkxMjk3MDEwfQ.Cvpn80bkeXsN0A5qK5-RiEzt-OUr7sn12PPGjBSzJWs"}|||401||16|"401 - {\"resultCode\":401,\"resultDescription\":\"Invalid token\",\"developerMessage\":\"Invalid token\",\"errors\":{\"statusCode\":401,\"error\":\"Unauthorized\",\"message\":\"Invalid token\",\"attributes\":{\"error\":\"Invalid token\"}}}"|StatusCodeError
2017-04-04 16:11:35.000|1491297095478:PMYCHAW901G:5812:j0w9ivr3:11630|10.195.161.26|201704041611354807229|GET|http://10.198.40.23:8080/api/customerprofile/0982691569|{"x-api-request-id":"201704041611354807229","x-authorization":"Bearer eyJhbGciOiJIUzI1NiIsInR5cCI6IkpXVCJ9.eyJ1c2VybmFtZSI6IkNIQU5QSEVTIiwidGltZXN0YW1wIjoiMjAxNzA0MDQxNjA4IiwibG9jYXRpb25Db2RlIjoiMTAwNiIsImlhdCI6MTQ5MTI5Njg5MCwiZXhwIjoxNDkxMjk3MDEwfQ.Cvpn80bkeXsN0A5qK5-RiEzt-OUr7sn12PPGjBSzJWs"}|||401||15|"401 - {\"resultCode\":401,\"resultDescription\":\"Invalid token\",\"developerMessage\":\"Invalid token\",\"errors\":{\"statusCode\":401,\"error\":\"Unauthorized\",\"message\":\"Invalid token\",\"attributes\":{\"error\":\"Invalid token\"}}}"|StatusCodeError
2017-04-04 16:11:35.000|1491297095731:PMYCHAW901G:5812:j0w9ivr3:11631|10.195.161.26|201704041611357327116|GET|http://10.198.40.23:8080/api/customerprofile/0982691569|{"x-api-request-id":"201704041611357327116","x-authorization":"Bearer eyJhbGciOiJIUzI1NiIsInR5cCI6IkpXVCJ9.eyJ1c2VybmFtZSI6IkNIQU5QSEVTIiwidGltZXN0YW1wIjoiMjAxNzA0MDQxNjA4IiwibG9jYXRpb25Db2RlIjoiMTAwNiIsImlhdCI6MTQ5MTI5Njg5MCwiZXhwIjoxNDkxMjk3MDEwfQ.Cvpn80bkeXsN0A5qK5-RiEzt-OUr7sn12PPGjBSzJWs"}|||401||14|"401 - {\"resultCode\":401,\"resultDescription\":\"Invalid token\",\"developerMessage\":\"Invalid token\",\"errors\":{\"statusCode\":401,\"error\":\"Unauthorized\",\"message\":\"Invalid token\",\"attributes\":{\"error\":\"Invalid token\"}}}"|StatusCodeError
2017-04-04 16:11:35.000|1491297095958:PMYCHAW901G:5812:j0w9ivr3:11632|10.195.161.26|201704041611359597906|GET|http://10.198.40.23:8080/api/customerprofile/0982691569|{"x-api-request-id":"201704041611359597906","x-authorization":"Bearer eyJhbGciOiJIUzI1NiIsInR5cCI6IkpXVCJ9.eyJ1c2VybmFtZSI6IkNIQU5QSEVTIiwidGltZXN0YW1wIjoiMjAxNzA0MDQxNjA4IiwibG9jYXRpb25Db2RlIjoiMTAwNiIsImlhdCI6MTQ5MTI5Njg5MCwiZXhwIjoxNDkxMjk3MDEwfQ.Cvpn80bkeXsN0A5qK5-RiEzt-OUr7sn12PPGjBSzJWs"}|||401||15|"401 - {\"resultCode\":401,\"resultDescription\":\"Invalid token\",\"developerMessage\":\"Invalid token\",\"errors\":{\"statusCode\":401,\"error\":\"Unauthorized\",\"message\":\"Invalid token\",\"attributes\":{\"error\":\"Invalid token\"}}}"|StatusCodeError
2017-04-04 16:11:36.000|1491297096449:PMYCHAW901G:5812:j0w9ivr3:11633|10.195.161.26|201704041611364505458|GET|http://10.198.40.23:8080/api/customerprofile/0982691569|{"x-api-request-id":"201704041611364505458","x-authorization":"Bearer eyJhbGciOiJIUzI1NiIsInR5cCI6IkpXVCJ9.eyJ1c2VybmFtZSI6IkNIQU5QSEVTIiwidGltZXN0YW1wIjoiMjAxNzA0MDQxNjA4IiwibG9jYXRpb25Db2RlIjoiMTAwNiIsImlhdCI6MTQ5MTI5Njg5MCwiZXhwIjoxNDkxMjk3MDEwfQ.Cvpn80bkeXsN0A5qK5-RiEzt-OUr7sn12PPGjBSzJWs"}|||401||20|"401 - {\"resultCode\":401,\"resultDescription\":\"Invalid token\",\"developerMessage\":\"Invalid token\",\"errors\":{\"statusCode\":401,\"error\":\"Unauthorized\",\"message\":\"Invalid token\",\"attributes\":{\"error\":\"Invalid token\"}}}"|StatusCodeError
2017-04-04 16:11:36.000|1491297096683:PMYCHAW901G:5812:j0w9ivr3:11634|10.195.161.26|201704041611366851800|GET|http://10.198.40.23:8080/api/customerprofile/0982691569|{"x-api-request-id":"201704041611366851800","x-authorization":"Bearer eyJhbGciOiJIUzI1NiIsInR5cCI6IkpXVCJ9.eyJ1c2VybmFtZSI6IkNIQU5QSEVTIiwidGltZXN0YW1wIjoiMjAxNzA0MDQxNjA4IiwibG9jYXRpb25Db2RlIjoiMTAwNiIsImlhdCI6MTQ5MTI5Njg5MCwiZXhwIjoxNDkxMjk3MDEwfQ.Cvpn80bkeXsN0A5qK5-RiEzt-OUr7sn12PPGjBSzJWs"}|||401||15|"401 - {\"resultCode\":401,\"resultDescription\":\"Invalid token\",\"developerMessage\":\"Invalid token\",\"errors\":{\"statusCode\":401,\"error\":\"Unauthorized\",\"message\":\"Invalid token\",\"attributes\":{\"error\":\"Invalid token\"}}}"|StatusCodeError
2017-04-04 16:11:36.000|1491297096945:PMYCHAW901G:5812:j0w9ivr3:11635|10.195.161.26|201704041611369476459|GET|http://10.198.40.23:8080/api/customerprofile/0982691569|{"x-api-request-id":"201704041611369476459","x-authorization":"Bearer eyJhbGciOiJIUzI1NiIsInR5cCI6IkpXVCJ9.eyJ1c2VybmFtZSI6IkNIQU5QSEVTIiwidGltZXN0YW1wIjoiMjAxNzA0MDQxNjA4IiwibG9jYXRpb25Db2RlIjoiMTAwNiIsImlhdCI6MTQ5MTI5Njg5MCwiZXhwIjoxNDkxMjk3MDEwfQ.Cvpn80bkeXsN0A5qK5-RiEzt-OUr7sn12PPGjBSzJWs"}|||401||17|"401 - {\"resultCode\":401,\"resultDescription\":\"Invalid token\",\"developerMessage\":\"Invalid token\",\"errors\":{\"statusCode\":401,\"error\":\"Unauthorized\",\"message\":\"Invalid token\",\"attributes\":{\"error\":\"Invalid token\"}}}"|StatusCodeError
2017-04-04 16:11:37.000|1491297097189:PMYCHAW901G:5812:j0w9ivr3:11636|10.195.161.26|201704041611371909902|GET|http://10.198.40.23:8080/api/customerprofile/0982691569|{"x-api-request-id":"201704041611371909902","x-authorization":"Bearer eyJhbGciOiJIUzI1NiIsInR5cCI6IkpXVCJ9.eyJ1c2VybmFtZSI6IkNIQU5QSEVTIiwidGltZXN0YW1wIjoiMjAxNzA0MDQxNjA4IiwibG9jYXRpb25Db2RlIjoiMTAwNiIsImlhdCI6MTQ5MTI5Njg5MCwiZXhwIjoxNDkxMjk3MDEwfQ.Cvpn80bkeXsN0A5qK5-RiEzt-OUr7sn12PPGjBSzJWs"}|||401||19|"401 - {\"resultCode\":401,\"resultDescription\":\"Invalid token\",\"developerMessage\":\"Invalid token\",\"errors\":{\"statusCode\":401,\"error\":\"Unauthorized\",\"message\":\"Invalid token\",\"attributes\":{\"error\":\"Invalid token\"}}}"|StatusCodeError
2017-04-04 16:11:37.000|1491297097442:PMYCHAW901G:5812:j0w9ivr3:11637|10.195.161.26|201704041611374437778|GET|http://10.198.40.23:8080/api/customerprofile/0982691569|{"x-api-request-id":"201704041611374437778","x-authorization":"Bearer eyJhbGciOiJIUzI1NiIsInR5cCI6IkpXVCJ9.eyJ1c2VybmFtZSI6IkNIQU5QSEVTIiwidGltZXN0YW1wIjoiMjAxNzA0MDQxNjA4IiwibG9jYXRpb25Db2RlIjoiMTAwNiIsImlhdCI6MTQ5MTI5Njg5MCwiZXhwIjoxNDkxMjk3MDEwfQ.Cvpn80bkeXsN0A5qK5-RiEzt-OUr7sn12PPGjBSzJWs"}|||401||16|"401 - {\"resultCode\":401,\"resultDescription\":\"Invalid token\",\"developerMessage\":\"Invalid token\",\"errors\":{\"statusCode\":401,\"error\":\"Unauthorized\",\"message\":\"Invalid token\",\"attributes\":{\"error\":\"Invalid token\"}}}"|StatusCodeError
2017-04-04 16:11:37.000|1491297097694:PMYCHAW901G:5812:j0w9ivr3:11638|10.195.161.26|201704041611376955776|GET|http://10.198.40.23:8080/api/customerprofile/0982691569|{"x-api-request-id":"201704041611376955776","x-authorization":"Bearer eyJhbGciOiJIUzI1NiIsInR5cCI6IkpXVCJ9.eyJ1c2VybmFtZSI6IkNIQU5QSEVTIiwidGltZXN0YW1wIjoiMjAxNzA0MDQxNjA4IiwibG9jYXRpb25Db2RlIjoiMTAwNiIsImlhdCI6MTQ5MTI5Njg5MCwiZXhwIjoxNDkxMjk3MDEwfQ.Cvpn80bkeXsN0A5qK5-RiEzt-OUr7sn12PPGjBSzJWs"}|||401||15|"401 - {\"resultCode\":401,\"resultDescription\":\"Invalid token\",\"developerMessage\":\"Invalid token\",\"errors\":{\"statusCode\":401,\"error\":\"Unauthorized\",\"message\":\"Invalid token\",\"attributes\":{\"error\":\"Invalid token\"}}}"|StatusCodeError
2017-04-04 16:11:48.000|1491297108391:PMYCHAW901G:5812:j0w9ivr3:11639|10.195.161.26|201704041611483927569|GET|http://10.198.40.23:8080/api/customerprofile/0818497711|{"x-api-request-id":"201704041611483927569","x-authorization":"Bearer eyJhbGciOiJIUzI1NiIsInR5cCI6IkpXVCJ9.eyJ1c2VybmFtZSI6IkNIQU5QSEVTIiwidGltZXN0YW1wIjoiMjAxNzA0MDQxNjA4IiwibG9jYXRpb25Db2RlIjoiMTAwNiIsImlhdCI6MTQ5MTI5Njg5MCwiZXhwIjoxNDkxMjk3MDEwfQ.Cvpn80bkeXsN0A5qK5-RiEzt-OUr7sn12PPGjBSzJWs"}|||401||19|"401 - {\"resultCode\":401,\"resultDescription\":\"Invalid token\",\"developerMessage\":\"Invalid token\",\"errors\":{\"statusCode\":401,\"error\":\"Unauthorized\",\"message\":\"Invalid token\",\"attributes\":{\"error\":\"Invalid token\"}}}"|StatusCodeError
2017-04-04 16:12:08.000|1491297128088:PMYCHAW901G:5812:j0w9ivr3:11640|10.195.161.26|201704041612080907820|GET|http://10.198.40.23:8080/api/customerprofile/0818497711|{"x-api-request-id":"201704041612080907820","x-authorization":"Bearer eyJhbGciOiJIUzI1NiIsInR5cCI6IkpXVCJ9.eyJ1c2VybmFtZSI6IkNIQU5QSEVTIiwidGltZXN0YW1wIjoiMjAxNzA0MDQxNjA4IiwibG9jYXRpb25Db2RlIjoiMTAwNiIsImlhdCI6MTQ5MTI5Njg5MCwiZXhwIjoxNDkxMjk3MDEwfQ.Cvpn80bkeXsN0A5qK5-RiEzt-OUr7sn12PPGjBSzJWs"}|||401||15|"401 - {\"resultCode\":401,\"resultDescription\":\"Invalid token\",\"developerMessage\":\"Invalid token\",\"errors\":{\"statusCode\":401,\"error\":\"Unauthorized\",\"message\":\"Invalid token\",\"attributes\":{\"error\":\"Invalid token\"}}}"|StatusCodeError
2017-04-04 16:12:08.000|1491297128131:PMYCHAW901G:5812:j0w9ivr3:11641|10.195.161.26|201704041612081325741|GET|http://10.198.40.23:8080/api/customerprofile/0818497711|{"x-api-request-id":"201704041612081325741","x-authorization":"Bearer eyJhbGciOiJIUzI1NiIsInR5cCI6IkpXVCJ9.eyJ1c2VybmFtZSI6IkNIQU5QSEVTIiwidGltZXN0YW1wIjoiMjAxNzA0MDQxNjA4IiwibG9jYXRpb25Db2RlIjoiMTAwNiIsImlhdCI6MTQ5MTI5Njg5MCwiZXhwIjoxNDkxMjk3MDEwfQ.Cvpn80bkeXsN0A5qK5-RiEzt-OUr7sn12PPGjBSzJWs"}|||401||18|"401 - {\"resultCode\":401,\"resultDescription\":\"Invalid token\",\"developerMessage\":\"Invalid token\",\"errors\":{\"statusCode\":401,\"error\":\"Unauthorized\",\"message\":\"Invalid token\",\"attributes\":{\"error\":\"Invalid token\"}}}"|StatusCodeError
2017-04-04 16:12:08.000|1491297128428:PMYCHAW901G:5812:j0w9ivr3:11642|10.195.161.26|201704041612084306715|GET|http://10.198.40.23:8080/api/customerprofile/0818497711|{"x-api-request-id":"201704041612084306715","x-authorization":"Bearer eyJhbGciOiJIUzI1NiIsInR5cCI6IkpXVCJ9.eyJ1c2VybmFtZSI6IkNIQU5QSEVTIiwidGltZXN0YW1wIjoiMjAxNzA0MDQxNjA4IiwibG9jYXRpb25Db2RlIjoiMTAwNiIsImlhdCI6MTQ5MTI5Njg5MCwiZXhwIjoxNDkxMjk3MDEwfQ.Cvpn80bkeXsN0A5qK5-RiEzt-OUr7sn12PPGjBSzJWs"}|||401||22|"401 - {\"resultCode\":401,\"resultDescription\":\"Invalid token\",\"developerMessage\":\"Invalid token\",\"errors\":{\"statusCode\":401,\"error\":\"Unauthorized\",\"message\":\"Invalid token\",\"attributes\":{\"error\":\"Invalid token\"}}}"|StatusCodeError
2017-04-04 16:12:08.000|1491297128634:PMYCHAW901G:5812:j0w9ivr3:11643|10.195.161.26|201704041612086364642|GET|http://10.198.40.23:8080/api/customerprofile/0818497711|{"x-api-request-id":"201704041612086364642","x-authorization":"Bearer eyJhbGciOiJIUzI1NiIsInR5cCI6IkpXVCJ9.eyJ1c2VybmFtZSI6IkNIQU5QSEVTIiwidGltZXN0YW1wIjoiMjAxNzA0MDQxNjA4IiwibG9jYXRpb25Db2RlIjoiMTAwNiIsImlhdCI6MTQ5MTI5Njg5MCwiZXhwIjoxNDkxMjk3MDEwfQ.Cvpn80bkeXsN0A5qK5-RiEzt-OUr7sn12PPGjBSzJWs"}|||401||13|"401 - {\"resultCode\":401,\"resultDescription\":\"Invalid token\",\"developerMessage\":\"Invalid token\",\"errors\":{\"statusCode\":401,\"error\":\"Unauthorized\",\"message\":\"Invalid token\",\"attributes\":{\"error\":\"Invalid token\"}}}"|StatusCodeError
2017-04-04 16:12:09.000|1491297129185:PMYCHAW901G:5812:j0w9ivr3:11644|10.195.161.26|201704041612091867547|GET|http://10.198.40.23:8080/api/customerprofile/0818497711|{"x-api-request-id":"201704041612091867547","x-authorization":"Bearer eyJhbGciOiJIUzI1NiIsInR5cCI6IkpXVCJ9.eyJ1c2VybmFtZSI6IkNIQU5QSEVTIiwidGltZXN0YW1wIjoiMjAxNzA0MDQxNjA4IiwibG9jYXRpb25Db2RlIjoiMTAwNiIsImlhdCI6MTQ5MTI5Njg5MCwiZXhwIjoxNDkxMjk3MDEwfQ.Cvpn80bkeXsN0A5qK5-RiEzt-OUr7sn12PPGjBSzJWs"}|||401||14|"401 - {\"resultCode\":401,\"resultDescription\":\"Invalid token\",\"developerMessage\":\"Invalid token\",\"errors\":{\"statusCode\":401,\"error\":\"Unauthorized\",\"message\":\"Invalid token\",\"attributes\":{\"error\":\"Invalid token\"}}}"|StatusCodeError
2017-04-04 16:12:09.000|1491297129430:PMYCHAW901G:5812:j0w9ivr3:11645|10.195.161.26|201704041612094319493|GET|http://10.198.40.23:8080/api/customerprofile/0818497711|{"x-api-request-id":"201704041612094319493","x-authorization":"Bearer eyJhbGciOiJIUzI1NiIsInR5cCI6IkpXVCJ9.eyJ1c2VybmFtZSI6IkNIQU5QSEVTIiwidGltZXN0YW1wIjoiMjAxNzA0MDQxNjA4IiwibG9jYXRpb25Db2RlIjoiMTAwNiIsImlhdCI6MTQ5MTI5Njg5MCwiZXhwIjoxNDkxMjk3MDEwfQ.Cvpn80bkeXsN0A5qK5-RiEzt-OUr7sn12PPGjBSzJWs"}|||401||14|"401 - {\"resultCode\":401,\"resultDescription\":\"Invalid token\",\"developerMessage\":\"Invalid token\",\"errors\":{\"statusCode\":401,\"error\":\"Unauthorized\",\"message\":\"Invalid token\",\"attributes\":{\"error\":\"Invalid token\"}}}"|StatusCodeError
2017-04-04 16:12:09.000|1491297129708:PMYCHAW901G:5812:j0w9ivr3:11646|10.195.161.26|201704041612097104824|GET|http://10.198.40.23:8080/api/customerprofile/0818497711|{"x-api-request-id":"201704041612097104824","x-authorization":"Bearer eyJhbGciOiJIUzI1NiIsInR5cCI6IkpXVCJ9.eyJ1c2VybmFtZSI6IkNIQU5QSEVTIiwidGltZXN0YW1wIjoiMjAxNzA0MDQxNjA4IiwibG9jYXRpb25Db2RlIjoiMTAwNiIsImlhdCI6MTQ5MTI5Njg5MCwiZXhwIjoxNDkxMjk3MDEwfQ.Cvpn80bkeXsN0A5qK5-RiEzt-OUr7sn12PPGjBSzJWs"}|||401||14|"401 - {\"resultCode\":401,\"resultDescription\":\"Invalid token\",\"developerMessage\":\"Invalid token\",\"errors\":{\"statusCode\":401,\"error\":\"Unauthorized\",\"message\":\"Invalid token\",\"attributes\":{\"error\":\"Invalid token\"}}}"|StatusCodeError
2017-04-04 16:12:09.000|1491297129981:PMYCHAW901G:5812:j0w9ivr3:11647|10.195.161.26|201704041612099833691|GET|http://10.198.40.23:8080/api/customerprofile/0818497711|{"x-api-request-id":"201704041612099833691","x-authorization":"Bearer eyJhbGciOiJIUzI1NiIsInR5cCI6IkpXVCJ9.eyJ1c2VybmFtZSI6IkNIQU5QSEVTIiwidGltZXN0YW1wIjoiMjAxNzA0MDQxNjA4IiwibG9jYXRpb25Db2RlIjoiMTAwNiIsImlhdCI6MTQ5MTI5Njg5MCwiZXhwIjoxNDkxMjk3MDEwfQ.Cvpn80bkeXsN0A5qK5-RiEzt-OUr7sn12PPGjBSzJWs"}|||401||14|"401 - {\"resultCode\":401,\"resultDescription\":\"Invalid token\",\"developerMessage\":\"Invalid token\",\"errors\":{\"statusCode\":401,\"error\":\"Unauthorized\",\"message\":\"Invalid token\",\"attributes\":{\"error\":\"Invalid token\"}}}"|StatusCodeError
2017-04-04 16:12:10.000|1491297130253:PMYCHAW901G:5812:j0w9ivr3:11648|10.195.161.26|201704041612102555037|GET|http://10.198.40.23:8080/api/customerprofile/0818497711|{"x-api-request-id":"201704041612102555037","x-authorization":"Bearer eyJhbGciOiJIUzI1NiIsInR5cCI6IkpXVCJ9.eyJ1c2VybmFtZSI6IkNIQU5QSEVTIiwidGltZXN0YW1wIjoiMjAxNzA0MDQxNjA4IiwibG9jYXRpb25Db2RlIjoiMTAwNiIsImlhdCI6MTQ5MTI5Njg5MCwiZXhwIjoxNDkxMjk3MDEwfQ.Cvpn80bkeXsN0A5qK5-RiEzt-OUr7sn12PPGjBSzJWs"}|||401||18|"401 - {\"resultCode\":401,\"resultDescription\":\"Invalid token\",\"developerMessage\":\"Invalid token\",\"errors\":{\"statusCode\":401,\"error\":\"Unauthorized\",\"message\":\"Invalid token\",\"attributes\":{\"error\":\"Invalid token\"}}}"|StatusCodeError
2017-04-04 16:12:10.000|1491297130527:PMYCHAW901G:5812:j0w9ivr3:11649|10.195.161.26|201704041612105296882|GET|http://10.198.40.23:8080/api/customerprofile/0818497711|{"x-api-request-id":"201704041612105296882","x-authorization":"Bearer eyJhbGciOiJIUzI1NiIsInR5cCI6IkpXVCJ9.eyJ1c2VybmFtZSI6IkNIQU5QSEVTIiwidGltZXN0YW1wIjoiMjAxNzA0MDQxNjA4IiwibG9jYXRpb25Db2RlIjoiMTAwNiIsImlhdCI6MTQ5MTI5Njg5MCwiZXhwIjoxNDkxMjk3MDEwfQ.Cvpn80bkeXsN0A5qK5-RiEzt-OUr7sn12PPGjBSzJWs"}|||401||15|"401 - {\"resultCode\":401,\"resultDescription\":\"Invalid token\",\"developerMessage\":\"Invalid token\",\"errors\":{\"statusCode\":401,\"error\":\"Unauthorized\",\"message\":\"Invalid token\",\"attributes\":{\"error\":\"Invalid token\"}}}"|StatusCodeError
2017-04-04 16:12:10.000|1491297130782:PMYCHAW901G:5812:j0w9ivr3:11650|10.195.161.26|201704041612107835649|GET|http://10.198.40.23:8080/api/customerprofile/0818497711|{"x-api-request-id":"201704041612107835649","x-authorization":"Bearer eyJhbGciOiJIUzI1NiIsInR5cCI6IkpXVCJ9.eyJ1c2VybmFtZSI6IkNIQU5QSEVTIiwidGltZXN0YW1wIjoiMjAxNzA0MDQxNjA4IiwibG9jYXRpb25Db2RlIjoiMTAwNiIsImlhdCI6MTQ5MTI5Njg5MCwiZXhwIjoxNDkxMjk3MDEwfQ.Cvpn80bkeXsN0A5qK5-RiEzt-OUr7sn12PPGjBSzJWs"}|||401||15|"401 - {\"resultCode\":401,\"resultDescription\":\"Invalid token\",\"developerMessage\":\"Invalid token\",\"errors\":{\"statusCode\":401,\"error\":\"Unauthorized\",\"message\":\"Invalid token\",\"attributes\":{\"error\":\"Invalid token\"}}}"|StatusCodeError
2017-04-04 16:12:11.000|1491297131072:PMYCHAW901G:5812:j0w9ivr3:11651|10.195.161.26|201704041612110731505|GET|http://10.198.40.23:8080/api/customerprofile/0818497711|{"x-api-request-id":"201704041612110731505","x-authorization":"Bearer eyJhbGciOiJIUzI1NiIsInR5cCI6IkpXVCJ9.eyJ1c2VybmFtZSI6IkNIQU5QSEVTIiwidGltZXN0YW1wIjoiMjAxNzA0MDQxNjA4IiwibG9jYXRpb25Db2RlIjoiMTAwNiIsImlhdCI6MTQ5MTI5Njg5MCwiZXhwIjoxNDkxMjk3MDEwfQ.Cvpn80bkeXsN0A5qK5-RiEzt-OUr7sn12PPGjBSzJWs"}|||401||14|"401 - {\"resultCode\":401,\"resultDescription\":\"Invalid token\",\"developerMessage\":\"Invalid token\",\"errors\":{\"statusCode\":401,\"error\":\"Unauthorized\",\"message\":\"Invalid token\",\"attributes\":{\"error\":\"Invalid token\"}}}"|StatusCodeError
2017-04-04 16:12:11.000|1491297131336:PMYCHAW901G:5812:j0w9ivr3:11652|10.195.161.26|201704041612113374587|GET|http://10.198.40.23:8080/api/customerprofile/0818497711|{"x-api-request-id":"201704041612113374587","x-authorization":"Bearer eyJhbGciOiJIUzI1NiIsInR5cCI6IkpXVCJ9.eyJ1c2VybmFtZSI6IkNIQU5QSEVTIiwidGltZXN0YW1wIjoiMjAxNzA0MDQxNjA4IiwibG9jYXRpb25Db2RlIjoiMTAwNiIsImlhdCI6MTQ5MTI5Njg5MCwiZXhwIjoxNDkxMjk3MDEwfQ.Cvpn80bkeXsN0A5qK5-RiEzt-OUr7sn12PPGjBSzJWs"}|||401||16|"401 - {\"resultCode\":401,\"resultDescription\":\"Invalid token\",\"developerMessage\":\"Invalid token\",\"errors\":{\"statusCode\":401,\"error\":\"Unauthorized\",\"message\":\"Invalid token\",\"attributes\":{\"error\":\"Invalid token\"}}}"|StatusCodeError
2017-04-04 16:12:11.000|1491297131593:PMYCHAW901G:5812:j0w9ivr3:11653|10.195.161.26|201704041612115965240|GET|http://10.198.40.23:8080/api/customerprofile/0818497711|{"x-api-request-id":"201704041612115965240","x-authorization":"Bearer eyJhbGciOiJIUzI1NiIsInR5cCI6IkpXVCJ9.eyJ1c2VybmFtZSI6IkNIQU5QSEVTIiwidGltZXN0YW1wIjoiMjAxNzA0MDQxNjA4IiwibG9jYXRpb25Db2RlIjoiMTAwNiIsImlhdCI6MTQ5MTI5Njg5MCwiZXhwIjoxNDkxMjk3MDEwfQ.Cvpn80bkeXsN0A5qK5-RiEzt-OUr7sn12PPGjBSzJWs"}|||401||14|"401 - {\"resultCode\":401,\"resultDescription\":\"Invalid token\",\"developerMessage\":\"Invalid token\",\"errors\":{\"statusCode\":401,\"error\":\"Unauthorized\",\"message\":\"Invalid token\",\"attributes\":{\"error\":\"Invalid token\"}}}"|StatusCodeError
2017-04-04 16:12:11.000|1491297131951:PMYCHAW901G:5812:j0w9ivr3:11654|10.195.161.26|201704041612119530674|GET|http://10.198.40.23:8080/api/customerprofile/0818497711|{"x-api-request-id":"201704041612119530674","x-authorization":"Bearer eyJhbGciOiJIUzI1NiIsInR5cCI6IkpXVCJ9.eyJ1c2VybmFtZSI6IkNIQU5QSEVTIiwidGltZXN0YW1wIjoiMjAxNzA0MDQxNjA4IiwibG9jYXRpb25Db2RlIjoiMTAwNiIsImlhdCI6MTQ5MTI5Njg5MCwiZXhwIjoxNDkxMjk3MDEwfQ.Cvpn80bkeXsN0A5qK5-RiEzt-OUr7sn12PPGjBSzJWs"}|||401||12|"401 - {\"resultCode\":401,\"resultDescription\":\"Invalid token\",\"developerMessage\":\"Invalid token\",\"errors\":{\"statusCode\":401,\"error\":\"Unauthorized\",\"message\":\"Invalid token\",\"attributes\":{\"error\":\"Invalid token\"}}}"|StatusCodeError
2017-04-04 16:12:12.000|1491297132515:PMYCHAW901G:5812:j0w9ivr3:11655|10.195.161.26|201704041612125163086|GET|http://10.198.40.23:8080/api/customerprofile/0818497711|{"x-api-request-id":"201704041612125163086","x-authorization":"Bearer eyJhbGciOiJIUzI1NiIsInR5cCI6IkpXVCJ9.eyJ1c2VybmFtZSI6IkNIQU5QSEVTIiwidGltZXN0YW1wIjoiMjAxNzA0MDQxNjA4IiwibG9jYXRpb25Db2RlIjoiMTAwNiIsImlhdCI6MTQ5MTI5Njg5MCwiZXhwIjoxNDkxMjk3MDEwfQ.Cvpn80bkeXsN0A5qK5-RiEzt-OUr7sn12PPGjBSzJWs"}|||401||23|"401 - {\"resultCode\":401,\"resultDescription\":\"Invalid token\",\"developerMessage\":\"Invalid token\",\"errors\":{\"statusCode\":401,\"error\":\"Unauthorized\",\"message\":\"Invalid token\",\"attributes\":{\"error\":\"Invalid token\"}}}"|StatusCodeError
2017-04-04 16:13:21.000|1491297201802:PMYCHAW901G:5812:j0w9ivr3:11656|10.195.161.26|201704041613218047870|GET|http://10.198.40.23:8080/api/customerprofile/0818497711|{"x-api-request-id":"201704041613218047870","x-authorization":"Bearer eyJhbGciOiJIUzI1NiIsInR5cCI6IkpXVCJ9.eyJ1c2VybmFtZSI6IkNIQU5QSEVTIiwidGltZXN0YW1wIjoiMjAxNzA0MDQxNjA4IiwibG9jYXRpb25Db2RlIjoiMTAwNiIsImlhdCI6MTQ5MTI5Njg5MCwiZXhwIjoxNDkxMjk3MDEwfQ.Cvpn80bkeXsN0A5qK5-RiEzt-OUr7sn12PPGjBSzJWs"}|||401||16|"401 - {\"resultCode\":401,\"resultDescription\":\"Invalid token\",\"developerMessage\":\"Invalid token\",\"errors\":{\"statusCode\":401,\"error\":\"Unauthorized\",\"message\":\"Invalid token\",\"attributes\":{\"error\":\"Invalid token\"}}}"|StatusCodeError
2017-04-04 16:13:56.000|1491297236742:PMYCHAW901G:5812:j0w9ivr3:11667|10.195.161.26|201704041613567441948|GET|http://10.198.40.23:8080/api/customerprofile/0818497711|{"x-api-request-id":"201704041613567441948","x-authorization":"Bearer eyJhbGciOiJIUzI1NiIsInR5cCI6IkpXVCJ9.eyJ1c2VybmFtZSI6IkNIQU5QSEVTIiwidGltZXN0YW1wIjoiMjAxNzA0MDQxNjA4IiwibG9jYXRpb25Db2RlIjoiMTAwNiIsImlhdCI6MTQ5MTI5Njg5MCwiZXhwIjoxNDkxMjk3MDEwfQ.Cvpn80bkeXsN0A5qK5-RiEzt-OUr7sn12PPGjBSzJWs"}|||401||18|"401 - {\"resultCode\":401,\"resultDescription\":\"Invalid token\",\"developerMessage\":\"Invalid token\",\"errors\":{\"statusCode\":401,\"error\":\"Unauthorized\",\"message\":\"Invalid token\",\"attributes\":{\"error\":\"Invalid token\"}}}"|StatusCodeError
2017-04-04 16:13:57.000|1491297237355:PMYCHAW901G:5812:j0w9ivr3:11668|10.195.161.26|201704041613573579906|GET|http://10.198.40.23:8080/api/customerprofile/0818497711|{"x-api-request-id":"201704041613573579906","x-authorization":"Bearer eyJhbGciOiJIUzI1NiIsInR5cCI6IkpXVCJ9.eyJ1c2VybmFtZSI6IkNIQU5QSEVTIiwidGltZXN0YW1wIjoiMjAxNzA0MDQxNjA4IiwibG9jYXRpb25Db2RlIjoiMTAwNiIsImlhdCI6MTQ5MTI5Njg5MCwiZXhwIjoxNDkxMjk3MDEwfQ.Cvpn80bkeXsN0A5qK5-RiEzt-OUr7sn12PPGjBSzJWs"}|||401||15|"401 - {\"resultCode\":401,\"resultDescription\":\"Invalid token\",\"developerMessage\":\"Invalid token\",\"errors\":{\"statusCode\":401,\"error\":\"Unauthorized\",\"message\":\"Invalid token\",\"attributes\":{\"error\":\"Invalid token\"}}}"|StatusCodeError
