-|-|-|-|-|-|-|-|-|
-|-|-|-|-|-|-|-|-|
2017-04-05 11:40:31.796|1491367231796:PMYCHNA901G:12211:j14hcn7o:10000|10.195.208.89|201704051140286967902|GET|/api/asset/0616355055/profile|{"x-api-request-id":"201704051140286967902","x-authorization":"Bearer eyJhbGciOiJIUzI1NiIsInR5cCI6IkpXVCJ9.eyJ1c2VybmFtZSI6IkNIQU5QSEVTIiwidGltZXN0YW1wIjoiMjAxNzA0MDUxMTM5IiwibG9jYXRpb25Db2RlIjoiMTAwNiIsImlhdCI6MTQ5MTM2NzE4NCwiZXhwIjoxNDkxMzY3MzA0fQ.sdvjSEd-iGCLWSuDQTZiWSwe0sfG_BzNxjIMU5IYwe8","host":"10.198.40.23:8080","accept":"application/json","content-type":"application/json","content-length":"4","connection":"close","x-forwarded-for":"10.195.208.89"}||
2017-04-05 11:40:31.861|1491367231861:PMYCHNA901G:12211:j14hcn7o:10001|10.195.208.88|201704051140283324804|GET|/api/asset/0616355055/packages|{"x-api-request-id":"201704051140283324804","x-authorization":"Bearer eyJhbGciOiJIUzI1NiIsInR5cCI6IkpXVCJ9.eyJ1c2VybmFtZSI6IkNIQU5QSEVTIiwidGltZXN0YW1wIjoiMjAxNzA0MDUxMTM5IiwibG9jYXRpb25Db2RlIjoiMTAwNiIsImlhdCI6MTQ5MTM2NzE4NCwiZXhwIjoxNDkxMzY3MzA0fQ.sdvjSEd-iGCLWSuDQTZiWSwe0sfG_BzNxjIMU5IYwe8","host":"10.198.40.23:8080","accept":"application/json","content-type":"application/json","content-length":"4","connection":"close","x-forwarded-for":"10.195.208.88"}||
2017-04-05 11:40:31.875|1491367231875:PMYCHNA901G:12211:j14hcn7o:10002|10.195.208.89|201704051140287057375|GET|/api/asset/0616355055/services|{"x-api-request-id":"201704051140287057375","x-authorization":"Bearer eyJhbGciOiJIUzI1NiIsInR5cCI6IkpXVCJ9.eyJ1c2VybmFtZSI6IkNIQU5QSEVTIiwidGltZXN0YW1wIjoiMjAxNzA0MDUxMTM5IiwibG9jYXRpb25Db2RlIjoiMTAwNiIsImlhdCI6MTQ5MTM2NzE4NCwiZXhwIjoxNDkxMzY3MzA0fQ.sdvjSEd-iGCLWSuDQTZiWSwe0sfG_BzNxjIMU5IYwe8","host":"10.198.40.23:8080","accept":"application/json","content-type":"application/json","content-length":"4","connection":"close","x-forwarded-for":"10.195.208.89"}||
2017-04-05 11:40:31.884|1491367231884:PMYCHNA901G:12211:j14hcn7o:10003|10.195.208.88|201704051140283472469|GET|/api/asset/0616355055/contracts|{"x-api-request-id":"201704051140283472469","x-authorization":"Bearer eyJhbGciOiJIUzI1NiIsInR5cCI6IkpXVCJ9.eyJ1c2VybmFtZSI6IkNIQU5QSEVTIiwidGltZXN0YW1wIjoiMjAxNzA0MDUxMTM5IiwibG9jYXRpb25Db2RlIjoiMTAwNiIsImlhdCI6MTQ5MTM2NzE4NCwiZXhwIjoxNDkxMzY3MzA0fQ.sdvjSEd-iGCLWSuDQTZiWSwe0sfG_BzNxjIMU5IYwe8","host":"10.198.40.23:8080","accept":"application/json","content-type":"application/json","content-length":"4","connection":"close","x-forwarded-for":"10.195.208.88"}||
2017-04-05 11:40:43.456|1491367243456:PMYCHNA901G:12211:j14hcn7o:10004|10.195.208.89|201704051140403650271|GET|/api/offers/0616355055/transactions|{"x-api-request-id":"201704051140403650271","x-authorization":"Bearer eyJhbGciOiJIUzI1NiIsInR5cCI6IkpXVCJ9.eyJ1c2VybmFtZSI6IkNIQU5QSEVTIiwidGltZXN0YW1wIjoiMjAxNzA0MDUxMTM5IiwibG9jYXRpb25Db2RlIjoiMTAwNiIsImlhdCI6MTQ5MTM2NzE4NCwiZXhwIjoxNDkxMzY3MzA0fQ.sdvjSEd-iGCLWSuDQTZiWSwe0sfG_BzNxjIMU5IYwe8","host":"10.198.40.23:8080","accept":"application/json","content-type":"application/json","content-length":"4","connection":"close","x-forwarded-for":"10.195.208.89"}||
2017-04-05 11:40:46.803|1491367246803:PMYCHNA901G:12211:j14hcn7o:10005|10.195.208.89|201704051140437110205|GET|/api/billing/0616355055|{"x-api-request-id":"201704051140437110205","x-authorization":"Bearer eyJhbGciOiJIUzI1NiIsInR5cCI6IkpXVCJ9.eyJ1c2VybmFtZSI6IkNIQU5QSEVTIiwidGltZXN0YW1wIjoiMjAxNzA0MDUxMTM5IiwibG9jYXRpb25Db2RlIjoiMTAwNiIsImlhdCI6MTQ5MTM2NzE4NCwiZXhwIjoxNDkxMzY3MzA0fQ.sdvjSEd-iGCLWSuDQTZiWSwe0sfG_BzNxjIMU5IYwe8","host":"10.198.40.23:8080","accept":"application/json","content-type":"application/json","content-length":"4","connection":"close","x-forwarded-for":"10.195.208.89"}||
