-|-|-|-|-|-|-|-|-|-|-|-|
2017-04-05 13:51:31.487|1491375091487:PMYCHAW902G:23311:j14hdzid:10192|10.195.161.26||GET|/inline.2b497be5ebd075f2dd9a.bundle.js|{"host":"mychannel.ais.co.th","user-agent":"Mozilla/5.0 (Windows NT 6.1; WOW64; rv:46.0) Gecko/20100101 Firefox/46.0","accept":"*/*","accept-language":"en-US,en;q=0.5","accept-encoding":"gzip, deflate, br","referer":"https://mychannel.ais.co.th/","cookie":"_uid25621=0525FEF6.3; AMCV_46FAEF9957D778167F000101%40AdobeOrg=-1176276602%7CMCIDTS%7C17247%7CMCMID%7C81690499000220467890554293072435529570%7CMCAAMLH-1490669813%7C3%7CMCAAMB-1490669813%7CNRX38WO0n5BH8Th-nqAG_A%7CMCOPTOUT-1490072213s%7CNONE%7CMCAID%7CNONE; s_nr=1490065019068-New; _ga=GA1.3.1221121616.1490065014; __utma=110453781.1221121616.1490065014.1490065026.1490065026.1; __utmz=110453781.1490065026.1.1.utmcsr=(direct)|utmccn=(direct)|utmcmd=(none); accessToken=eyJhbGciOiJIUzI1NiIsInR5cCI6IkpXVCJ9.eyJ1c2VybmFtZSI6IkNIQU5QSEVTIiwidGltZXN0YW1wIjoiMjAxNzA0MDQxNzMxIiwibG9jYXRpb25Db2RlIjoiMTAwNiIsImlhdCI6MTQ5MTMwMTg3MywiZXhwIjoxNDkxMzAxOTkzfQ.K4Oo4R-lB-0Fn_UOi-yBx-bo8WiOyN8BuWSCWhhTcIA; refreshToken=eyJhbGciOiJIUzI1NiIsInR5cCI6IkpXVCJ9.eyJ1c2VybmFtZSI6IkNIQU5QSEVTIiwidGltZXN0YW1wIjoiMjAxNzA0MDQxNzMxIiwibG9jYXRpb25Db2RlIjoiMTAwNiIsImlhdCI6MTQ5MTMwMTg3MywiZXhwIjoxNDkxMzAyNzczfQ.VBKYMY6kQjKRWRvAKaHKmLcLX-bhLbRGOjTIRI-uS00; mobileNo=0982565849","connection":"keep-alive"}|||200|{"path":"/app/mychannel/frontend-web/public/client-app/inline.2b497be5ebd075f2dd9a.bundle.js","settings":{"confine":"/app/mychannel/frontend-web/public/client-app"},"stat":null,"fd":null}|0.008
2017-04-05 13:51:31.596|1491375091596:PMYCHAW902G:23311:j14hdzid:10193|10.195.161.26||GET|/main.942717d9f92c4aec0c0b.bundle.js|{"host":"mychannel.ais.co.th","user-agent":"Mozilla/5.0 (Windows NT 6.1; WOW64; rv:46.0) Gecko/20100101 Firefox/46.0","accept":"*/*","accept-language":"en-US,en;q=0.5","accept-encoding":"gzip, deflate, br","referer":"https://mychannel.ais.co.th/","cookie":"_uid25621=0525FEF6.3; AMCV_46FAEF9957D778167F000101%40AdobeOrg=-1176276602%7CMCIDTS%7C17247%7CMCMID%7C81690499000220467890554293072435529570%7CMCAAMLH-1490669813%7C3%7CMCAAMB-1490669813%7CNRX38WO0n5BH8Th-nqAG_A%7CMCOPTOUT-1490072213s%7CNONE%7CMCAID%7CNONE; s_nr=1490065019068-New; _ga=GA1.3.1221121616.1490065014; __utma=110453781.1221121616.1490065014.1490065026.1490065026.1; __utmz=110453781.1490065026.1.1.utmcsr=(direct)|utmccn=(direct)|utmcmd=(none); accessToken=eyJhbGciOiJIUzI1NiIsInR5cCI6IkpXVCJ9.eyJ1c2VybmFtZSI6IkNIQU5QSEVTIiwidGltZXN0YW1wIjoiMjAxNzA0MDQxNzMxIiwibG9jYXRpb25Db2RlIjoiMTAwNiIsImlhdCI6MTQ5MTMwMTg3MywiZXhwIjoxNDkxMzAxOTkzfQ.K4Oo4R-lB-0Fn_UOi-yBx-bo8WiOyN8BuWSCWhhTcIA; refreshToken=eyJhbGciOiJIUzI1NiIsInR5cCI6IkpXVCJ9.eyJ1c2VybmFtZSI6IkNIQU5QSEVTIiwidGltZXN0YW1wIjoiMjAxNzA0MDQxNzMxIiwibG9jYXRpb25Db2RlIjoiMTAwNiIsImlhdCI6MTQ5MTMwMTg3MywiZXhwIjoxNDkxMzAyNzczfQ.VBKYMY6kQjKRWRvAKaHKmLcLX-bhLbRGOjTIRI-uS00; mobileNo=0982565849","connection":"keep-alive","if-modified-since":"Wed, 29 Mar 2017 03:50:08 GMT","if-none-match":"\"ab9ea2a748863202422aa5492f30f82dbbe4549d-gzip\""}|||304|{"path":"/app/mychannel/frontend-web/public/client-app/main.942717d9f92c4aec0c0b.bundle.js","settings":{"confine":"/app/mychannel/frontend-web/public/client-app"},"stat":null,"fd":null}|0.003
2017-04-05 13:51:31.650|1491375091650:PMYCHAW902G:23311:j14hdzid:10194|10.195.161.26||GET|/favicon.ico|{"host":"mychannel.ais.co.th","user-agent":"Mozilla/5.0 (Windows NT 6.1; WOW64; rv:46.0) Gecko/20100101 Firefox/46.0","accept":"text/html,application/xhtml+xml,application/xml;q=0.9,*/*;q=0.8","accept-language":"en-US,en;q=0.5","accept-encoding":"gzip, deflate, br","cookie":"_uid25621=0525FEF6.3; AMCV_46FAEF9957D778167F000101%40AdobeOrg=-1176276602%7CMCIDTS%7C17247%7CMCMID%7C81690499000220467890554293072435529570%7CMCAAMLH-1490669813%7C3%7CMCAAMB-1490669813%7CNRX38WO0n5BH8Th-nqAG_A%7CMCOPTOUT-1490072213s%7CNONE%7CMCAID%7CNONE; s_nr=1490065019068-New; _ga=GA1.3.1221121616.1490065014; __utma=110453781.1221121616.1490065014.1490065026.1490065026.1; __utmz=110453781.1490065026.1.1.utmcsr=(direct)|utmccn=(direct)|utmcmd=(none); accessToken=eyJhbGciOiJIUzI1NiIsInR5cCI6IkpXVCJ9.eyJ1c2VybmFtZSI6IkNIQU5QSEVTIiwidGltZXN0YW1wIjoiMjAxNzA0MDQxNzMxIiwibG9jYXRpb25Db2RlIjoiMTAwNiIsImlhdCI6MTQ5MTMwMTg3MywiZXhwIjoxNDkxMzAxOTkzfQ.K4Oo4R-lB-0Fn_UOi-yBx-bo8WiOyN8BuWSCWhhTcIA; refreshToken=eyJhbGciOiJIUzI1NiIsInR5cCI6IkpXVCJ9.eyJ1c2VybmFtZSI6IkNIQU5QSEVTIiwidGltZXN0YW1wIjoiMjAxNzA0MDQxNzMxIiwibG9jYXRpb25Db2RlIjoiMTAwNiIsImlhdCI6MTQ5MTMwMTg3MywiZXhwIjoxNDkxMzAyNzczfQ.VBKYMY6kQjKRWRvAKaHKmLcLX-bhLbRGOjTIRI-uS00; mobileNo=0982565849","connection":"keep-alive"}|||200|{"path":"/app/mychannel/frontend-web/public/client-app/favicon.ico","settings":{"confine":"/app/mychannel/frontend-web/public/client-app"},"stat":null,"fd":null}|0.013
2017-04-05 13:51:31.736|1491375091736:PMYCHAW902G:23311:j14hdzid:10195|10.195.161.26||GET|/db_helvethaicaais_x_v3.2-webfont.eadf432c777807001bf0.woff|{"host":"mychannel.ais.co.th","user-agent":"Mozilla/5.0 (Windows NT 6.1; WOW64; rv:46.0) Gecko/20100101 Firefox/46.0","accept":"application/font-woff2;q=1.0,application/font-woff;q=0.9,*/*;q=0.8","accept-language":"en-US,en;q=0.5","accept-encoding":"identity","referer":"https://mychannel.ais.co.th/styles.8a14d4720907b950514b.bundle.css","cookie":"_uid25621=0525FEF6.3; AMCV_46FAEF9957D778167F000101%40AdobeOrg=-1176276602%7CMCIDTS%7C17247%7CMCMID%7C81690499000220467890554293072435529570%7CMCAAMLH-1490669813%7C3%7CMCAAMB-1490669813%7CNRX38WO0n5BH8Th-nqAG_A%7CMCOPTOUT-1490072213s%7CNONE%7CMCAID%7CNONE; s_nr=1490065019068-New; _ga=GA1.3.1221121616.1490065014; __utma=110453781.1221121616.1490065014.1490065026.1490065026.1; __utmz=110453781.1490065026.1.1.utmcsr=(direct)|utmccn=(direct)|utmcmd=(none); accessToken=eyJhbGciOiJIUzI1NiIsInR5cCI6IkpXVCJ9.eyJ1c2VybmFtZSI6IkNIQU5QSEVTIiwidGltZXN0YW1wIjoiMjAxNzA0MDQxNzMxIiwibG9jYXRpb25Db2RlIjoiMTAwNiIsImlhdCI6MTQ5MTMwMTg3MywiZXhwIjoxNDkxMzAxOTkzfQ.K4Oo4R-lB-0Fn_UOi-yBx-bo8WiOyN8BuWSCWhhTcIA; refreshToken=eyJhbGciOiJIUzI1NiIsInR5cCI6IkpXVCJ9.eyJ1c2VybmFtZSI6IkNIQU5QSEVTIiwidGltZXN0YW1wIjoiMjAxNzA0MDQxNzMxIiwibG9jYXRpb25Db2RlIjoiMTAwNiIsImlhdCI6MTQ5MTMwMTg3MywiZXhwIjoxNDkxMzAyNzczfQ.VBKYMY6kQjKRWRvAKaHKmLcLX-bhLbRGOjTIRI-uS00; mobileNo=0982565849","connection":"keep-alive"}|||200|{"path":"/app/mychannel/frontend-web/public/client-app/db_helvethaicaais_x_v3.2-webfont.eadf432c777807001bf0.woff","settings":{"confine":"/app/mychannel/frontend-web/public/client-app"},"stat":null,"fd":null}|0.004
2017-04-05 13:51:31.973|1491375091973:PMYCHAW902G:23311:j14hdzid:10196|10.195.161.26||GET|/assets/images/icon/icon-landing-person.png|{"host":"mychannel.ais.co.th","user-agent":"Mozilla/5.0 (Windows NT 6.1; WOW64; rv:46.0) Gecko/20100101 Firefox/46.0","accept":"image/png,image/*;q=0.8,*/*;q=0.5","accept-language":"en-US,en;q=0.5","accept-encoding":"gzip, deflate, br","referer":"https://mychannel.ais.co.th/","cookie":"_uid25621=0525FEF6.3; AMCV_46FAEF9957D778167F000101%40AdobeOrg=-1176276602%7CMCIDTS%7C17247%7CMCMID%7C81690499000220467890554293072435529570%7CMCAAMLH-1490669813%7C3%7CMCAAMB-1490669813%7CNRX38WO0n5BH8Th-nqAG_A%7CMCOPTOUT-1490072213s%7CNONE%7CMCAID%7CNONE; s_nr=1490065019068-New; _ga=GA1.3.1221121616.1490065014; __utma=110453781.1221121616.1490065014.1490065026.1490065026.1; __utmz=110453781.1490065026.1.1.utmcsr=(direct)|utmccn=(direct)|utmcmd=(none); accessToken=eyJhbGciOiJIUzI1NiIsInR5cCI6IkpXVCJ9.eyJ1c2VybmFtZSI6IkNIQU5QSEVTIiwidGltZXN0YW1wIjoiMjAxNzA0MDQxNzMxIiwibG9jYXRpb25Db2RlIjoiMTAwNiIsImlhdCI6MTQ5MTMwMTg3MywiZXhwIjoxNDkxMzAxOTkzfQ.K4Oo4R-lB-0Fn_UOi-yBx-bo8WiOyN8BuWSCWhhTcIA; refreshToken=eyJhbGciOiJIUzI1NiIsInR5cCI6IkpXVCJ9.eyJ1c2VybmFtZSI6IkNIQU5QSEVTIiwidGltZXN0YW1wIjoiMjAxNzA0MDQxNzMxIiwibG9jYXRpb25Db2RlIjoiMTAwNiIsImlhdCI6MTQ5MTMwMTg3MywiZXhwIjoxNDkxMzAyNzczfQ.VBKYMY6kQjKRWRvAKaHKmLcLX-bhLbRGOjTIRI-uS00; mobileNo=0982565849","connection":"keep-alive","if-modified-since":"Wed, 29 Mar 2017 03:50:57 GMT","if-none-match":"\"8c033eaffa8484da58d0a30e804b26acb9d67f77\""}|||304|{"path":"/app/mychannel/frontend-web/public/client-app/assets/images/icon/icon-landing-person.png","settings":{"confine":"/app/mychannel/frontend-web/public/client-app"},"stat":null,"fd":null}|0.01
2017-04-05 13:51:32.013|1491375092013:PMYCHAW902G:23311:j14hdzid:10197|10.195.161.26||GET|/assets/images/icon/icon-landing-love.png|{"host":"mychannel.ais.co.th","user-agent":"Mozilla/5.0 (Windows NT 6.1; WOW64; rv:46.0) Gecko/20100101 Firefox/46.0","accept":"image/png,image/*;q=0.8,*/*;q=0.5","accept-language":"en-US,en;q=0.5","accept-encoding":"gzip, deflate, br","referer":"https://mychannel.ais.co.th/","cookie":"_uid25621=0525FEF6.3; AMCV_46FAEF9957D778167F000101%40AdobeOrg=-1176276602%7CMCIDTS%7C17247%7CMCMID%7C81690499000220467890554293072435529570%7CMCAAMLH-1490669813%7C3%7CMCAAMB-1490669813%7CNRX38WO0n5BH8Th-nqAG_A%7CMCOPTOUT-1490072213s%7CNONE%7CMCAID%7CNONE; s_nr=1490065019068-New; _ga=GA1.3.1221121616.1490065014; __utma=110453781.1221121616.1490065014.1490065026.1490065026.1; __utmz=110453781.1490065026.1.1.utmcsr=(direct)|utmccn=(direct)|utmcmd=(none); accessToken=eyJhbGciOiJIUzI1NiIsInR5cCI6IkpXVCJ9.eyJ1c2VybmFtZSI6IkNIQU5QSEVTIiwidGltZXN0YW1wIjoiMjAxNzA0MDQxNzMxIiwibG9jYXRpb25Db2RlIjoiMTAwNiIsImlhdCI6MTQ5MTMwMTg3MywiZXhwIjoxNDkxMzAxOTkzfQ.K4Oo4R-lB-0Fn_UOi-yBx-bo8WiOyN8BuWSCWhhTcIA; refreshToken=eyJhbGciOiJIUzI1NiIsInR5cCI6IkpXVCJ9.eyJ1c2VybmFtZSI6IkNIQU5QSEVTIiwidGltZXN0YW1wIjoiMjAxNzA0MDQxNzMxIiwibG9jYXRpb25Db2RlIjoiMTAwNiIsImlhdCI6MTQ5MTMwMTg3MywiZXhwIjoxNDkxMzAyNzczfQ.VBKYMY6kQjKRWRvAKaHKmLcLX-bhLbRGOjTIRI-uS00; mobileNo=0982565849","connection":"keep-alive","if-modified-since":"Wed, 29 Mar 2017 03:50:57 GMT","if-none-match":"\"b0203d040bf8ecaea123edeb88d806011f8fa2e1\""}|||304|{"path":"/app/mychannel/frontend-web/public/client-app/assets/images/icon/icon-landing-love.png","settings":{"confine":"/app/mychannel/frontend-web/public/client-app"},"stat":null,"fd":null}|0.006
2017-04-05 13:51:33.752|1491375093752:PMYCHAW902G:23311:j14hdzid:10198|10.195.161.26||GET|/customer-portal|{"host":"mychannel.ais.co.th","user-agent":"Mozilla/5.0 (Windows NT 6.1; WOW64; rv:46.0) Gecko/20100101 Firefox/46.0","accept":"text/html,application/xhtml+xml,application/xml;q=0.9,*/*;q=0.8","accept-language":"en-US,en;q=0.5","accept-encoding":"gzip, deflate, br","referer":"https://mychannel.ais.co.th/","cookie":"_uid25621=0525FEF6.3; AMCV_46FAEF9957D778167F000101%40AdobeOrg=-1176276602%7CMCIDTS%7C17247%7CMCMID%7C81690499000220467890554293072435529570%7CMCAAMLH-1490669813%7C3%7CMCAAMB-1490669813%7CNRX38WO0n5BH8Th-nqAG_A%7CMCOPTOUT-1490072213s%7CNONE%7CMCAID%7CNONE; s_nr=1490065019068-New; _ga=GA1.3.1221121616.1490065014; __utma=110453781.1221121616.1490065014.1490065026.1490065026.1; __utmz=110453781.1490065026.1.1.utmcsr=(direct)|utmccn=(direct)|utmcmd=(none); accessToken=eyJhbGciOiJIUzI1NiIsInR5cCI6IkpXVCJ9.eyJ1c2VybmFtZSI6IkNIQU5QSEVTIiwidGltZXN0YW1wIjoiMjAxNzA0MDQxNzMxIiwibG9jYXRpb25Db2RlIjoiMTAwNiIsImlhdCI6MTQ5MTMwMTg3MywiZXhwIjoxNDkxMzAxOTkzfQ.K4Oo4R-lB-0Fn_UOi-yBx-bo8WiOyN8BuWSCWhhTcIA; refreshToken=eyJhbGciOiJIUzI1NiIsInR5cCI6IkpXVCJ9.eyJ1c2VybmFtZSI6IkNIQU5QSEVTIiwidGltZXN0YW1wIjoiMjAxNzA0MDQxNzMxIiwibG9jYXRpb25Db2RlIjoiMTAwNiIsImlhdCI6MTQ5MTMwMTg3MywiZXhwIjoxNDkxMzAyNzczfQ.VBKYMY6kQjKRWRvAKaHKmLcLX-bhLbRGOjTIRI-uS00; mobileNo=0982565849","connection":"keep-alive"}|||302||0.007
2017-04-05 13:51:33.818|1491375093818:PMYCHAW902G:23311:j14hdzid:10199|10.195.161.26||GET|/customer-portal/|{"host":"mychannel.ais.co.th","user-agent":"Mozilla/5.0 (Windows NT 6.1; WOW64; rv:46.0) Gecko/20100101 Firefox/46.0","accept":"text/html,application/xhtml+xml,application/xml;q=0.9,*/*;q=0.8","accept-language":"en-US,en;q=0.5","accept-encoding":"gzip, deflate, br","referer":"https://mychannel.ais.co.th/","cookie":"_uid25621=0525FEF6.3; AMCV_46FAEF9957D778167F000101%40AdobeOrg=-1176276602%7CMCIDTS%7C17247%7CMCMID%7C81690499000220467890554293072435529570%7CMCAAMLH-1490669813%7C3%7CMCAAMB-1490669813%7CNRX38WO0n5BH8Th-nqAG_A%7CMCOPTOUT-1490072213s%7CNONE%7CMCAID%7CNONE; s_nr=1490065019068-New; _ga=GA1.3.1221121616.1490065014; __utma=110453781.1221121616.1490065014.1490065026.1490065026.1; __utmz=110453781.1490065026.1.1.utmcsr=(direct)|utmccn=(direct)|utmcmd=(none); accessToken=eyJhbGciOiJIUzI1NiIsInR5cCI6IkpXVCJ9.eyJ1c2VybmFtZSI6IkNIQU5QSEVTIiwidGltZXN0YW1wIjoiMjAxNzA0MDQxNzMxIiwibG9jYXRpb25Db2RlIjoiMTAwNiIsImlhdCI6MTQ5MTMwMTg3MywiZXhwIjoxNDkxMzAxOTkzfQ.K4Oo4R-lB-0Fn_UOi-yBx-bo8WiOyN8BuWSCWhhTcIA; refreshToken=eyJhbGciOiJIUzI1NiIsInR5cCI6IkpXVCJ9.eyJ1c2VybmFtZSI6IkNIQU5QSEVTIiwidGltZXN0YW1wIjoiMjAxNzA0MDQxNzMxIiwibG9jYXRpb25Db2RlIjoiMTAwNiIsImlhdCI6MTQ5MTMwMTg3MywiZXhwIjoxNDkxMzAyNzczfQ.VBKYMY6kQjKRWRvAKaHKmLcLX-bhLbRGOjTIRI-uS00; mobileNo=0982565849","connection":"keep-alive","if-modified-since":"Wed, 29 Mar 2017 03:50:09 GMT","if-none-match":"\"89e1b50837c5c151ed10197a7c6623b64b0fa530-gzip\""}|||304|{"path":"/app/mychannel/frontend-web/public/client-customer-portal/index.html","settings":{"confine":"/app/mychannel/frontend-web/public/client-customer-portal"},"stat":null,"fd":null}|0.005
2017-04-05 13:51:33.954|1491375093954:PMYCHAW902G:23311:j14hdzid:10200|10.195.161.26||GET|/customer-portal/styles.aed3af2c28dbae396718.bundle.css|{"host":"mychannel.ais.co.th","user-agent":"Mozilla/5.0 (Windows NT 6.1; WOW64; rv:46.0) Gecko/20100101 Firefox/46.0","accept":"text/css,*/*;q=0.1","accept-language":"en-US,en;q=0.5","accept-encoding":"gzip, deflate, br","referer":"https://mychannel.ais.co.th/customer-portal/","cookie":"_uid25621=0525FEF6.3; AMCV_46FAEF9957D778167F000101%40AdobeOrg=-1176276602%7CMCIDTS%7C17247%7CMCMID%7C81690499000220467890554293072435529570%7CMCAAMLH-1490669813%7C3%7CMCAAMB-1490669813%7CNRX38WO0n5BH8Th-nqAG_A%7CMCOPTOUT-1490072213s%7CNONE%7CMCAID%7CNONE; s_nr=1490065019068-New; _ga=GA1.3.1221121616.1490065014; __utma=110453781.1221121616.1490065014.1490065026.1490065026.1; __utmz=110453781.1490065026.1.1.utmcsr=(direct)|utmccn=(direct)|utmcmd=(none); accessToken=eyJhbGciOiJIUzI1NiIsInR5cCI6IkpXVCJ9.eyJ1c2VybmFtZSI6IkNIQU5QSEVTIiwidGltZXN0YW1wIjoiMjAxNzA0MDQxNzMxIiwibG9jYXRpb25Db2RlIjoiMTAwNiIsImlhdCI6MTQ5MTMwMTg3MywiZXhwIjoxNDkxMzAxOTkzfQ.K4Oo4R-lB-0Fn_UOi-yBx-bo8WiOyN8BuWSCWhhTcIA; refreshToken=eyJhbGciOiJIUzI1NiIsInR5cCI6IkpXVCJ9.eyJ1c2VybmFtZSI6IkNIQU5QSEVTIiwidGltZXN0YW1wIjoiMjAxNzA0MDQxNzMxIiwibG9jYXRpb25Db2RlIjoiMTAwNiIsImlhdCI6MTQ5MTMwMTg3MywiZXhwIjoxNDkxMzAyNzczfQ.VBKYMY6kQjKRWRvAKaHKmLcLX-bhLbRGOjTIRI-uS00; mobileNo=0982565849","connection":"keep-alive"}|||200|{"path":"/app/mychannel/frontend-web/public/client-customer-portal/styles.aed3af2c28dbae396718.bundle.css","settings":{"confine":"/app/mychannel/frontend-web/public/client-customer-portal"},"stat":null,"fd":null}|0.009
2017-04-05 13:51:34.015|1491375094015:PMYCHAW902G:23311:j14hdzid:10201|10.195.161.26||GET|/customer-portal/polyfills.33c6381b31ba97fee5bf.bundle.js|{"host":"mychannel.ais.co.th","user-agent":"Mozilla/5.0 (Windows NT 6.1; WOW64; rv:46.0) Gecko/20100101 Firefox/46.0","accept":"*/*","accept-language":"en-US,en;q=0.5","accept-encoding":"gzip, deflate, br","referer":"https://mychannel.ais.co.th/customer-portal/","cookie":"_uid25621=0525FEF6.3; AMCV_46FAEF9957D778167F000101%40AdobeOrg=-1176276602%7CMCIDTS%7C17247%7CMCMID%7C81690499000220467890554293072435529570%7CMCAAMLH-1490669813%7C3%7CMCAAMB-1490669813%7CNRX38WO0n5BH8Th-nqAG_A%7CMCOPTOUT-1490072213s%7CNONE%7CMCAID%7CNONE; s_nr=1490065019068-New; _ga=GA1.3.1221121616.1490065014; __utma=110453781.1221121616.1490065014.1490065026.1490065026.1; __utmz=110453781.1490065026.1.1.utmcsr=(direct)|utmccn=(direct)|utmcmd=(none); accessToken=eyJhbGciOiJIUzI1NiIsInR5cCI6IkpXVCJ9.eyJ1c2VybmFtZSI6IkNIQU5QSEVTIiwidGltZXN0YW1wIjoiMjAxNzA0MDQxNzMxIiwibG9jYXRpb25Db2RlIjoiMTAwNiIsImlhdCI6MTQ5MTMwMTg3MywiZXhwIjoxNDkxMzAxOTkzfQ.K4Oo4R-lB-0Fn_UOi-yBx-bo8WiOyN8BuWSCWhhTcIA; refreshToken=eyJhbGciOiJIUzI1NiIsInR5cCI6IkpXVCJ9.eyJ1c2VybmFtZSI6IkNIQU5QSEVTIiwidGltZXN0YW1wIjoiMjAxNzA0MDQxNzMxIiwibG9jYXRpb25Db2RlIjoiMTAwNiIsImlhdCI6MTQ5MTMwMTg3MywiZXhwIjoxNDkxMzAyNzczfQ.VBKYMY6kQjKRWRvAKaHKmLcLX-bhLbRGOjTIRI-uS00; mobileNo=0982565849","connection":"keep-alive"}|||200|{"path":"/app/mychannel/frontend-web/public/client-customer-portal/polyfills.33c6381b31ba97fee5bf.bundle.js","settings":{"confine":"/app/mychannel/frontend-web/public/client-customer-portal"},"stat":null,"fd":null}|0.01
2017-04-05 13:51:34.126|1491375094126:PMYCHAW902G:23311:j14hdzid:10202|10.195.161.26||GET|/customer-portal/vendor.efa0fdf6c3ae2758fb0f.bundle.js|{"host":"mychannel.ais.co.th","user-agent":"Mozilla/5.0 (Windows NT 6.1; WOW64; rv:46.0) Gecko/20100101 Firefox/46.0","accept":"*/*","accept-language":"en-US,en;q=0.5","accept-encoding":"gzip, deflate, br","referer":"https://mychannel.ais.co.th/customer-portal/","cookie":"_uid25621=0525FEF6.3; AMCV_46FAEF9957D778167F000101%40AdobeOrg=-1176276602%7CMCIDTS%7C17247%7CMCMID%7C81690499000220467890554293072435529570%7CMCAAMLH-1490669813%7C3%7CMCAAMB-1490669813%7CNRX38WO0n5BH8Th-nqAG_A%7CMCOPTOUT-1490072213s%7CNONE%7CMCAID%7CNONE; s_nr=1490065019068-New; _ga=GA1.3.1221121616.1490065014; __utma=110453781.1221121616.1490065014.1490065026.1490065026.1; __utmz=110453781.1490065026.1.1.utmcsr=(direct)|utmccn=(direct)|utmcmd=(none); accessToken=eyJhbGciOiJIUzI1NiIsInR5cCI6IkpXVCJ9.eyJ1c2VybmFtZSI6IkNIQU5QSEVTIiwidGltZXN0YW1wIjoiMjAxNzA0MDQxNzMxIiwibG9jYXRpb25Db2RlIjoiMTAwNiIsImlhdCI6MTQ5MTMwMTg3MywiZXhwIjoxNDkxMzAxOTkzfQ.K4Oo4R-lB-0Fn_UOi-yBx-bo8WiOyN8BuWSCWhhTcIA; refreshToken=eyJhbGciOiJIUzI1NiIsInR5cCI6IkpXVCJ9.eyJ1c2VybmFtZSI6IkNIQU5QSEVTIiwidGltZXN0YW1wIjoiMjAxNzA0MDQxNzMxIiwibG9jYXRpb25Db2RlIjoiMTAwNiIsImlhdCI6MTQ5MTMwMTg3MywiZXhwIjoxNDkxMzAyNzczfQ.VBKYMY6kQjKRWRvAKaHKmLcLX-bhLbRGOjTIRI-uS00; mobileNo=0982565849","connection":"keep-alive"}|||200|{"path":"/app/mychannel/frontend-web/public/client-customer-portal/vendor.efa0fdf6c3ae2758fb0f.bundle.js","settings":{"confine":"/app/mychannel/frontend-web/public/client-customer-portal"},"stat":null,"fd":null}|0.055
2017-04-05 13:51:34.189|1491375094189:PMYCHAW902G:23311:j14hdzid:10203|10.195.161.26||GET|/customer-portal/main.4abaee9285fd23db3d06.bundle.js|{"host":"mychannel.ais.co.th","user-agent":"Mozilla/5.0 (Windows NT 6.1; WOW64; rv:46.0) Gecko/20100101 Firefox/46.0","accept":"*/*","accept-language":"en-US,en;q=0.5","accept-encoding":"gzip, deflate, br","referer":"https://mychannel.ais.co.th/customer-portal/","cookie":"_uid25621=0525FEF6.3; AMCV_46FAEF9957D778167F000101%40AdobeOrg=-1176276602%7CMCIDTS%7C17247%7CMCMID%7C81690499000220467890554293072435529570%7CMCAAMLH-1490669813%7C3%7CMCAAMB-1490669813%7CNRX38WO0n5BH8Th-nqAG_A%7CMCOPTOUT-1490072213s%7CNONE%7CMCAID%7CNONE; s_nr=1490065019068-New; _ga=GA1.3.1221121616.1490065014; __utma=110453781.1221121616.1490065014.1490065026.1490065026.1; __utmz=110453781.1490065026.1.1.utmcsr=(direct)|utmccn=(direct)|utmcmd=(none); accessToken=eyJhbGciOiJIUzI1NiIsInR5cCI6IkpXVCJ9.eyJ1c2VybmFtZSI6IkNIQU5QSEVTIiwidGltZXN0YW1wIjoiMjAxNzA0MDQxNzMxIiwibG9jYXRpb25Db2RlIjoiMTAwNiIsImlhdCI6MTQ5MTMwMTg3MywiZXhwIjoxNDkxMzAxOTkzfQ.K4Oo4R-lB-0Fn_UOi-yBx-bo8WiOyN8BuWSCWhhTcIA; refreshToken=eyJhbGciOiJIUzI1NiIsInR5cCI6IkpXVCJ9.eyJ1c2VybmFtZSI6IkNIQU5QSEVTIiwidGltZXN0YW1wIjoiMjAxNzA0MDQxNzMxIiwibG9jYXRpb25Db2RlIjoiMTAwNiIsImlhdCI6MTQ5MTMwMTg3MywiZXhwIjoxNDkxMzAyNzczfQ.VBKYMY6kQjKRWRvAKaHKmLcLX-bhLbRGOjTIRI-uS00; mobileNo=0982565849","connection":"keep-alive","if-modified-since":"Wed, 29 Mar 2017 03:50:10 GMT","if-none-match":"\"3f923a5bca93cb47fc26e35aa1a3b118cf0dd464-gzip\""}|||304|{"path":"/app/mychannel/frontend-web/public/client-customer-portal/main.4abaee9285fd23db3d06.bundle.js","settings":{"confine":"/app/mychannel/frontend-web/public/client-customer-portal"},"stat":null,"fd":null}|0.002
2017-04-05 13:51:34.469|1491375094469:PMYCHAW902G:23311:j14hdzid:10204|10.195.161.26||GET|/customer-portal/0.bc81d97b42b8dcb6f4ea.chunk.js|{"host":"mychannel.ais.co.th","user-agent":"Mozilla/5.0 (Windows NT 6.1; WOW64; rv:46.0) Gecko/20100101 Firefox/46.0","accept":"*/*","accept-language":"en-US,en;q=0.5","accept-encoding":"gzip, deflate, br","referer":"https://mychannel.ais.co.th/customer-portal/","cookie":"_uid25621=0525FEF6.3; AMCV_46FAEF9957D778167F000101%40AdobeOrg=-1176276602%7CMCIDTS%7C17247%7CMCMID%7C81690499000220467890554293072435529570%7CMCAAMLH-1490669813%7C3%7CMCAAMB-1490669813%7CNRX38WO0n5BH8Th-nqAG_A%7CMCOPTOUT-1490072213s%7CNONE%7CMCAID%7CNONE; s_nr=1490065019068-New; _ga=GA1.3.1221121616.1490065014; __utma=110453781.1221121616.1490065014.1490065026.1490065026.1; __utmz=110453781.1490065026.1.1.utmcsr=(direct)|utmccn=(direct)|utmcmd=(none); accessToken=eyJhbGciOiJIUzI1NiIsInR5cCI6IkpXVCJ9.eyJ1c2VybmFtZSI6IkNIQU5QSEVTIiwidGltZXN0YW1wIjoiMjAxNzA0MDQxNzMxIiwibG9jYXRpb25Db2RlIjoiMTAwNiIsImlhdCI6MTQ5MTMwMTg3MywiZXhwIjoxNDkxMzAxOTkzfQ.K4Oo4R-lB-0Fn_UOi-yBx-bo8WiOyN8BuWSCWhhTcIA; refreshToken=eyJhbGciOiJIUzI1NiIsInR5cCI6IkpXVCJ9.eyJ1c2VybmFtZSI6IkNIQU5QSEVTIiwidGltZXN0YW1wIjoiMjAxNzA0MDQxNzMxIiwibG9jYXRpb25Db2RlIjoiMTAwNiIsImlhdCI6MTQ5MTMwMTg3MywiZXhwIjoxNDkxMzAyNzczfQ.VBKYMY6kQjKRWRvAKaHKmLcLX-bhLbRGOjTIRI-uS00; mobileNo=0982565849","connection":"keep-alive","if-modified-since":"Wed, 29 Mar 2017 03:50:09 GMT","if-none-match":"\"4c5536b79a8078e741766333463e022119a8d12d-gzip\""}|||304|{"path":"/app/mychannel/frontend-web/public/client-customer-portal/0.bc81d97b42b8dcb6f4ea.chunk.js","settings":{"confine":"/app/mychannel/frontend-web/public/client-customer-portal"},"stat":null,"fd":null}|0.004
2017-04-05 13:51:34.517|1491375094517:PMYCHAW902G:23311:j14hdzid:10205|10.195.161.26||GET|/customer-portal/assets/images/icon/icon-arrow-left.png|{"host":"mychannel.ais.co.th","user-agent":"Mozilla/5.0 (Windows NT 6.1; WOW64; rv:46.0) Gecko/20100101 Firefox/46.0","accept":"image/png,image/*;q=0.8,*/*;q=0.5","accept-language":"en-US,en;q=0.5","accept-encoding":"gzip, deflate, br","referer":"https://mychannel.ais.co.th/customer-portal/","cookie":"_uid25621=0525FEF6.3; AMCV_46FAEF9957D778167F000101%40AdobeOrg=-1176276602%7CMCIDTS%7C17247%7CMCMID%7C81690499000220467890554293072435529570%7CMCAAMLH-1490669813%7C3%7CMCAAMB-1490669813%7CNRX38WO0n5BH8Th-nqAG_A%7CMCOPTOUT-1490072213s%7CNONE%7CMCAID%7CNONE; s_nr=1490065019068-New; _ga=GA1.3.1221121616.1490065014; __utma=110453781.1221121616.1490065014.1490065026.1490065026.1; __utmz=110453781.1490065026.1.1.utmcsr=(direct)|utmccn=(direct)|utmcmd=(none); accessToken=eyJhbGciOiJIUzI1NiIsInR5cCI6IkpXVCJ9.eyJ1c2VybmFtZSI6IkNIQU5QSEVTIiwidGltZXN0YW1wIjoiMjAxNzA0MDQxNzMxIiwibG9jYXRpb25Db2RlIjoiMTAwNiIsImlhdCI6MTQ5MTMwMTg3MywiZXhwIjoxNDkxMzAxOTkzfQ.K4Oo4R-lB-0Fn_UOi-yBx-bo8WiOyN8BuWSCWhhTcIA; refreshToken=eyJhbGciOiJIUzI1NiIsInR5cCI6IkpXVCJ9.eyJ1c2VybmFtZSI6IkNIQU5QSEVTIiwidGltZXN0YW1wIjoiMjAxNzA0MDQxNzMxIiwibG9jYXRpb25Db2RlIjoiMTAwNiIsImlhdCI6MTQ5MTMwMTg3MywiZXhwIjoxNDkxMzAyNzczfQ.VBKYMY6kQjKRWRvAKaHKmLcLX-bhLbRGOjTIRI-uS00; mobileNo=0982565849","connection":"keep-alive"}|||200|{"path":"/app/mychannel/frontend-web/public/client-customer-portal/assets/images/icon/icon-arrow-left.png","settings":{"confine":"/app/mychannel/frontend-web/public/client-customer-portal"},"stat":null,"fd":null}|0.004
2017-04-05 13:51:35.511|1491375095511:PMYCHAW902G:23311:j14hdzid:10206|10.195.161.26||POST|/api/auth/refreshToken|{"host":"mychannel.ais.co.th","user-agent":"Mozilla/5.0 (Windows NT 6.1; WOW64; rv:46.0) Gecko/20100101 Firefox/46.0","accept":"application/json, text/plain, */*","accept-language":"en-US,en;q=0.5","accept-encoding":"gzip, deflate, br","content-type":"text/plain","x-authorization":"Bearer eyJhbGciOiJIUzI1NiIsInR5cCI6IkpXVCJ9.eyJ1c2VybmFtZSI6IkNIQU5QSEVTIiwidGltZXN0YW1wIjoiMjAxNzA0MDQxNzMxIiwibG9jYXRpb25Db2RlIjoiMTAwNiIsImlhdCI6MTQ5MTMwMTg3MywiZXhwIjoxNDkxMzAyNzczfQ.VBKYMY6kQjKRWRvAKaHKmLcLX-bhLbRGOjTIRI-uS00","referer":"https://mychannel.ais.co.th/customer-portal/","content-length":"2","cookie":"_uid25621=0525FEF6.3; AMCV_46FAEF9957D778167F000101%40AdobeOrg=-1176276602%7CMCIDTS%7C17247%7CMCMID%7C81690499000220467890554293072435529570%7CMCAAMLH-1490669813%7C3%7CMCAAMB-1490669813%7CNRX38WO0n5BH8Th-nqAG_A%7CMCOPTOUT-1490072213s%7CNONE%7CMCAID%7CNONE; s_nr=1490065019068-New; _ga=GA1.3.1221121616.1490065014; __utma=110453781.1221121616.1490065014.1490065026.1490065026.1; __utmz=110453781.1490065026.1.1.utmcsr=(direct)|utmccn=(direct)|utmcmd=(none); accessToken=eyJhbGciOiJIUzI1NiIsInR5cCI6IkpXVCJ9.eyJ1c2VybmFtZSI6IkNIQU5QSEVTIiwidGltZXN0YW1wIjoiMjAxNzA0MDQxNzMxIiwibG9jYXRpb25Db2RlIjoiMTAwNiIsImlhdCI6MTQ5MTMwMTg3MywiZXhwIjoxNDkxMzAxOTkzfQ.K4Oo4R-lB-0Fn_UOi-yBx-bo8WiOyN8BuWSCWhhTcIA; refreshToken=eyJhbGciOiJIUzI1NiIsInR5cCI6IkpXVCJ9.eyJ1c2VybmFtZSI6IkNIQU5QSEVTIiwidGltZXN0YW1wIjoiMjAxNzA0MDQxNzMxIiwibG9jYXRpb25Db2RlIjoiMTAwNiIsImlhdCI6MTQ5MTMwMTg3MywiZXhwIjoxNDkxMzAyNzczfQ.VBKYMY6kQjKRWRvAKaHKmLcLX-bhLbRGOjTIRI-uS00; mobileNo=0982565849","connection":"keep-alive"}||"{}"|401||0.029
2017-04-05 13:51:44.398|1491375104398:PMYCHAW902G:23311:j14hdzid:10207|10.195.161.26||GET|/|{"host":"mychannel.ais.co.th","user-agent":"Mozilla/5.0 (Windows NT 6.1; WOW64; rv:46.0) Gecko/20100101 Firefox/46.0","accept":"text/html,application/xhtml+xml,application/xml;q=0.9,*/*;q=0.8","accept-language":"en-US,en;q=0.5","accept-encoding":"gzip, deflate, br","cookie":"_uid25621=0525FEF6.3; AMCV_46FAEF9957D778167F000101%40AdobeOrg=-1176276602%7CMCIDTS%7C17247%7CMCMID%7C81690499000220467890554293072435529570%7CMCAAMLH-1490669813%7C3%7CMCAAMB-1490669813%7CNRX38WO0n5BH8Th-nqAG_A%7CMCOPTOUT-1490072213s%7CNONE%7CMCAID%7CNONE; s_nr=1490065019068-New; _ga=GA1.3.1221121616.1490065014; __utma=110453781.1221121616.1490065014.1490065026.1490065026.1; __utmz=110453781.1490065026.1.1.utmcsr=(direct)|utmccn=(direct)|utmcmd=(none); accessToken=eyJhbGciOiJIUzI1NiIsInR5cCI6IkpXVCJ9.eyJ1c2VybmFtZSI6IkNIQU5QSEVTIiwidGltZXN0YW1wIjoiMjAxNzA0MDQxNzMxIiwibG9jYXRpb25Db2RlIjoiMTAwNiIsImlhdCI6MTQ5MTMwMTg3MywiZXhwIjoxNDkxMzAxOTkzfQ.K4Oo4R-lB-0Fn_UOi-yBx-bo8WiOyN8BuWSCWhhTcIA; refreshToken=eyJhbGciOiJIUzI1NiIsInR5cCI6IkpXVCJ9.eyJ1c2VybmFtZSI6IkNIQU5QSEVTIiwidGltZXN0YW1wIjoiMjAxNzA0MDQxNzMxIiwibG9jYXRpb25Db2RlIjoiMTAwNiIsImlhdCI6MTQ5MTMwMTg3MywiZXhwIjoxNDkxMzAyNzczfQ.VBKYMY6kQjKRWRvAKaHKmLcLX-bhLbRGOjTIRI-uS00; mobileNo=0982565849","connection":"keep-alive","if-modified-since":"Wed, 29 Mar 2017 03:51:50 GMT","if-none-match":"\"eb718579f854047659fed567bef6e227c887b231-gzip\""}|||304|{"path":"/app/mychannel/frontend-web/public/client-app/index.html","settings":{"confine":"/app/mychannel/frontend-web/public/client-app"},"stat":null,"fd":null}|0.005
2017-04-05 13:51:44.421|1491375104421:PMYCHAW902G:23311:j14hdzid:10208|10.195.161.26||GET|/styles.8a14d4720907b950514b.bundle.css|{"host":"mychannel.ais.co.th","user-agent":"Mozilla/5.0 (Windows NT 6.1; WOW64; rv:46.0) Gecko/20100101 Firefox/46.0","accept":"text/css,*/*;q=0.1","accept-language":"en-US,en;q=0.5","accept-encoding":"gzip, deflate, br","referer":"https://mychannel.ais.co.th/","cookie":"_uid25621=0525FEF6.3; AMCV_46FAEF9957D778167F000101%40AdobeOrg=-1176276602%7CMCIDTS%7C17247%7CMCMID%7C81690499000220467890554293072435529570%7CMCAAMLH-1490669813%7C3%7CMCAAMB-1490669813%7CNRX38WO0n5BH8Th-nqAG_A%7CMCOPTOUT-1490072213s%7CNONE%7CMCAID%7CNONE; s_nr=1490065019068-New; _ga=GA1.3.1221121616.1490065014; __utma=110453781.1221121616.1490065014.1490065026.1490065026.1; __utmz=110453781.1490065026.1.1.utmcsr=(direct)|utmccn=(direct)|utmcmd=(none); accessToken=eyJhbGciOiJIUzI1NiIsInR5cCI6IkpXVCJ9.eyJ1c2VybmFtZSI6IkNIQU5QSEVTIiwidGltZXN0YW1wIjoiMjAxNzA0MDQxNzMxIiwibG9jYXRpb25Db2RlIjoiMTAwNiIsImlhdCI6MTQ5MTMwMTg3MywiZXhwIjoxNDkxMzAxOTkzfQ.K4Oo4R-lB-0Fn_UOi-yBx-bo8WiOyN8BuWSCWhhTcIA; refreshToken=eyJhbGciOiJIUzI1NiIsInR5cCI6IkpXVCJ9.eyJ1c2VybmFtZSI6IkNIQU5QSEVTIiwidGltZXN0YW1wIjoiMjAxNzA0MDQxNzMxIiwibG9jYXRpb25Db2RlIjoiMTAwNiIsImlhdCI6MTQ5MTMwMTg3MywiZXhwIjoxNDkxMzAyNzczfQ.VBKYMY6kQjKRWRvAKaHKmLcLX-bhLbRGOjTIRI-uS00; mobileNo=0982565849","connection":"keep-alive"}|||200|{"path":"/app/mychannel/frontend-web/public/client-app/styles.8a14d4720907b950514b.bundle.css","settings":{"confine":"/app/mychannel/frontend-web/public/client-app"},"stat":null,"fd":null}|0.006
2017-04-05 13:51:44.437|1491375104437:PMYCHAW902G:23311:j14hdzid:10209|10.195.161.26||GET|/main.942717d9f92c4aec0c0b.bundle.js|{"host":"mychannel.ais.co.th","user-agent":"Mozilla/5.0 (Windows NT 6.1; WOW64; rv:46.0) Gecko/20100101 Firefox/46.0","accept":"*/*","accept-language":"en-US,en;q=0.5","accept-encoding":"gzip, deflate, br","referer":"https://mychannel.ais.co.th/","cookie":"_uid25621=0525FEF6.3; AMCV_46FAEF9957D778167F000101%40AdobeOrg=-1176276602%7CMCIDTS%7C17247%7CMCMID%7C81690499000220467890554293072435529570%7CMCAAMLH-1490669813%7C3%7CMCAAMB-1490669813%7CNRX38WO0n5BH8Th-nqAG_A%7CMCOPTOUT-1490072213s%7CNONE%7CMCAID%7CNONE; s_nr=1490065019068-New; _ga=GA1.3.1221121616.1490065014; __utma=110453781.1221121616.1490065014.1490065026.1490065026.1; __utmz=110453781.1490065026.1.1.utmcsr=(direct)|utmccn=(direct)|utmcmd=(none); accessToken=eyJhbGciOiJIUzI1NiIsInR5cCI6IkpXVCJ9.eyJ1c2VybmFtZSI6IkNIQU5QSEVTIiwidGltZXN0YW1wIjoiMjAxNzA0MDQxNzMxIiwibG9jYXRpb25Db2RlIjoiMTAwNiIsImlhdCI6MTQ5MTMwMTg3MywiZXhwIjoxNDkxMzAxOTkzfQ.K4Oo4R-lB-0Fn_UOi-yBx-bo8WiOyN8BuWSCWhhTcIA; refreshToken=eyJhbGciOiJIUzI1NiIsInR5cCI6IkpXVCJ9.eyJ1c2VybmFtZSI6IkNIQU5QSEVTIiwidGltZXN0YW1wIjoiMjAxNzA0MDQxNzMxIiwibG9jYXRpb25Db2RlIjoiMTAwNiIsImlhdCI6MTQ5MTMwMTg3MywiZXhwIjoxNDkxMzAyNzczfQ.VBKYMY6kQjKRWRvAKaHKmLcLX-bhLbRGOjTIRI-uS00; mobileNo=0982565849","connection":"keep-alive","if-modified-since":"Wed, 29 Mar 2017 03:50:08 GMT","if-none-match":"\"ab9ea2a748863202422aa5492f30f82dbbe4549d-gzip\""}|||304|{"path":"/app/mychannel/frontend-web/public/client-app/main.942717d9f92c4aec0c0b.bundle.js","settings":{"confine":"/app/mychannel/frontend-web/public/client-app"},"stat":null,"fd":null}|0.002
2017-04-05 13:51:44.444|1491375104444:PMYCHAW902G:23327:j14hdzmw:10177|10.195.161.26||GET|/vendor.79ff024b38332f992a1a.bundle.js|{"host":"mychannel.ais.co.th","user-agent":"Mozilla/5.0 (Windows NT 6.1; WOW64; rv:46.0) Gecko/20100101 Firefox/46.0","accept":"*/*","accept-language":"en-US,en;q=0.5","accept-encoding":"gzip, deflate, br","referer":"https://mychannel.ais.co.th/","cookie":"_uid25621=0525FEF6.3; AMCV_46FAEF9957D778167F000101%40AdobeOrg=-1176276602%7CMCIDTS%7C17247%7CMCMID%7C81690499000220467890554293072435529570%7CMCAAMLH-1490669813%7C3%7CMCAAMB-1490669813%7CNRX38WO0n5BH8Th-nqAG_A%7CMCOPTOUT-1490072213s%7CNONE%7CMCAID%7CNONE; s_nr=1490065019068-New; _ga=GA1.3.1221121616.1490065014; __utma=110453781.1221121616.1490065014.1490065026.1490065026.1; __utmz=110453781.1490065026.1.1.utmcsr=(direct)|utmccn=(direct)|utmcmd=(none); accessToken=eyJhbGciOiJIUzI1NiIsInR5cCI6IkpXVCJ9.eyJ1c2VybmFtZSI6IkNIQU5QSEVTIiwidGltZXN0YW1wIjoiMjAxNzA0MDQxNzMxIiwibG9jYXRpb25Db2RlIjoiMTAwNiIsImlhdCI6MTQ5MTMwMTg3MywiZXhwIjoxNDkxMzAxOTkzfQ.K4Oo4R-lB-0Fn_UOi-yBx-bo8WiOyN8BuWSCWhhTcIA; refreshToken=eyJhbGciOiJIUzI1NiIsInR5cCI6IkpXVCJ9.eyJ1c2VybmFtZSI6IkNIQU5QSEVTIiwidGltZXN0YW1wIjoiMjAxNzA0MDQxNzMxIiwibG9jYXRpb25Db2RlIjoiMTAwNiIsImlhdCI6MTQ5MTMwMTg3MywiZXhwIjoxNDkxMzAyNzczfQ.VBKYMY6kQjKRWRvAKaHKmLcLX-bhLbRGOjTIRI-uS00; mobileNo=0982565849","connection":"keep-alive"}|||200|{"path":"/app/mychannel/frontend-web/public/client-app/vendor.79ff024b38332f992a1a.bundle.js","settings":{"confine":"/app/mychannel/frontend-web/public/client-app"},"stat":null,"fd":null}|0.027
2017-04-05 13:51:44.599|1491375104599:PMYCHAW902G:23311:j14hdzid:10210|10.195.161.26||GET|/assets/images/icon/icon-landing-person.png|{"host":"mychannel.ais.co.th","user-agent":"Mozilla/5.0 (Windows NT 6.1; WOW64; rv:46.0) Gecko/20100101 Firefox/46.0","accept":"image/png,image/*;q=0.8,*/*;q=0.5","accept-language":"en-US,en;q=0.5","accept-encoding":"gzip, deflate, br","referer":"https://mychannel.ais.co.th/","cookie":"_uid25621=0525FEF6.3; AMCV_46FAEF9957D778167F000101%40AdobeOrg=-1176276602%7CMCIDTS%7C17247%7CMCMID%7C81690499000220467890554293072435529570%7CMCAAMLH-1490669813%7C3%7CMCAAMB-1490669813%7CNRX38WO0n5BH8Th-nqAG_A%7CMCOPTOUT-1490072213s%7CNONE%7CMCAID%7CNONE; s_nr=1490065019068-New; _ga=GA1.3.1221121616.1490065014; __utma=110453781.1221121616.1490065014.1490065026.1490065026.1; __utmz=110453781.1490065026.1.1.utmcsr=(direct)|utmccn=(direct)|utmcmd=(none); accessToken=eyJhbGciOiJIUzI1NiIsInR5cCI6IkpXVCJ9.eyJ1c2VybmFtZSI6IkNIQU5QSEVTIiwidGltZXN0YW1wIjoiMjAxNzA0MDQxNzMxIiwibG9jYXRpb25Db2RlIjoiMTAwNiIsImlhdCI6MTQ5MTMwMTg3MywiZXhwIjoxNDkxMzAxOTkzfQ.K4Oo4R-lB-0Fn_UOi-yBx-bo8WiOyN8BuWSCWhhTcIA; refreshToken=eyJhbGciOiJIUzI1NiIsInR5cCI6IkpXVCJ9.eyJ1c2VybmFtZSI6IkNIQU5QSEVTIiwidGltZXN0YW1wIjoiMjAxNzA0MDQxNzMxIiwibG9jYXRpb25Db2RlIjoiMTAwNiIsImlhdCI6MTQ5MTMwMTg3MywiZXhwIjoxNDkxMzAyNzczfQ.VBKYMY6kQjKRWRvAKaHKmLcLX-bhLbRGOjTIRI-uS00; mobileNo=0982565849","connection":"keep-alive","if-modified-since":"Wed, 29 Mar 2017 03:50:57 GMT","if-none-match":"\"8c033eaffa8484da58d0a30e804b26acb9d67f77\""}|||304|{"path":"/app/mychannel/frontend-web/public/client-app/assets/images/icon/icon-landing-person.png","settings":{"confine":"/app/mychannel/frontend-web/public/client-app"},"stat":null,"fd":null}|0.002
2017-04-05 13:51:44.611|1491375104611:PMYCHAW902G:23311:j14hdzid:10211|10.195.161.26||GET|/assets/images/icon/icon-landing-cart.png|{"host":"mychannel.ais.co.th","user-agent":"Mozilla/5.0 (Windows NT 6.1; WOW64; rv:46.0) Gecko/20100101 Firefox/46.0","accept":"image/png,image/*;q=0.8,*/*;q=0.5","accept-language":"en-US,en;q=0.5","accept-encoding":"gzip, deflate, br","referer":"https://mychannel.ais.co.th/","cookie":"_uid25621=0525FEF6.3; AMCV_46FAEF9957D778167F000101%40AdobeOrg=-1176276602%7CMCIDTS%7C17247%7CMCMID%7C81690499000220467890554293072435529570%7CMCAAMLH-1490669813%7C3%7CMCAAMB-1490669813%7CNRX38WO0n5BH8Th-nqAG_A%7CMCOPTOUT-1490072213s%7CNONE%7CMCAID%7CNONE; s_nr=1490065019068-New; _ga=GA1.3.1221121616.1490065014; __utma=110453781.1221121616.1490065014.1490065026.1490065026.1; __utmz=110453781.1490065026.1.1.utmcsr=(direct)|utmccn=(direct)|utmcmd=(none); accessToken=eyJhbGciOiJIUzI1NiIsInR5cCI6IkpXVCJ9.eyJ1c2VybmFtZSI6IkNIQU5QSEVTIiwidGltZXN0YW1wIjoiMjAxNzA0MDQxNzMxIiwibG9jYXRpb25Db2RlIjoiMTAwNiIsImlhdCI6MTQ5MTMwMTg3MywiZXhwIjoxNDkxMzAxOTkzfQ.K4Oo4R-lB-0Fn_UOi-yBx-bo8WiOyN8BuWSCWhhTcIA; refreshToken=eyJhbGciOiJIUzI1NiIsInR5cCI6IkpXVCJ9.eyJ1c2VybmFtZSI6IkNIQU5QSEVTIiwidGltZXN0YW1wIjoiMjAxNzA0MDQxNzMxIiwibG9jYXRpb25Db2RlIjoiMTAwNiIsImlhdCI6MTQ5MTMwMTg3MywiZXhwIjoxNDkxMzAyNzczfQ.VBKYMY6kQjKRWRvAKaHKmLcLX-bhLbRGOjTIRI-uS00; mobileNo=0982565849","connection":"keep-alive"}|||200|{"path":"/app/mychannel/frontend-web/public/client-app/assets/images/icon/icon-landing-cart.png","settings":{"confine":"/app/mychannel/frontend-web/public/client-app"},"stat":null,"fd":null}|0.004
2017-04-05 13:51:44.613|1491375104613:PMYCHAW902G:23327:j14hdzmw:10178|10.195.161.26||GET|/assets/images/icon/icon-landing-love.png|{"host":"mychannel.ais.co.th","user-agent":"Mozilla/5.0 (Windows NT 6.1; WOW64; rv:46.0) Gecko/20100101 Firefox/46.0","accept":"image/png,image/*;q=0.8,*/*;q=0.5","accept-language":"en-US,en;q=0.5","accept-encoding":"gzip, deflate, br","referer":"https://mychannel.ais.co.th/","cookie":"_uid25621=0525FEF6.3; AMCV_46FAEF9957D778167F000101%40AdobeOrg=-1176276602%7CMCIDTS%7C17247%7CMCMID%7C81690499000220467890554293072435529570%7CMCAAMLH-1490669813%7C3%7CMCAAMB-1490669813%7CNRX38WO0n5BH8Th-nqAG_A%7CMCOPTOUT-1490072213s%7CNONE%7CMCAID%7CNONE; s_nr=1490065019068-New; _ga=GA1.3.1221121616.1490065014; __utma=110453781.1221121616.1490065014.1490065026.1490065026.1; __utmz=110453781.1490065026.1.1.utmcsr=(direct)|utmccn=(direct)|utmcmd=(none); accessToken=eyJhbGciOiJIUzI1NiIsInR5cCI6IkpXVCJ9.eyJ1c2VybmFtZSI6IkNIQU5QSEVTIiwidGltZXN0YW1wIjoiMjAxNzA0MDQxNzMxIiwibG9jYXRpb25Db2RlIjoiMTAwNiIsImlhdCI6MTQ5MTMwMTg3MywiZXhwIjoxNDkxMzAxOTkzfQ.K4Oo4R-lB-0Fn_UOi-yBx-bo8WiOyN8BuWSCWhhTcIA; refreshToken=eyJhbGciOiJIUzI1NiIsInR5cCI6IkpXVCJ9.eyJ1c2VybmFtZSI6IkNIQU5QSEVTIiwidGltZXN0YW1wIjoiMjAxNzA0MDQxNzMxIiwibG9jYXRpb25Db2RlIjoiMTAwNiIsImlhdCI6MTQ5MTMwMTg3MywiZXhwIjoxNDkxMzAyNzczfQ.VBKYMY6kQjKRWRvAKaHKmLcLX-bhLbRGOjTIRI-uS00; mobileNo=0982565849","connection":"keep-alive","if-modified-since":"Wed, 29 Mar 2017 03:50:57 GMT","if-none-match":"\"b0203d040bf8ecaea123edeb88d806011f8fa2e1\""}|||304|{"path":"/app/mychannel/frontend-web/public/client-app/assets/images/icon/icon-landing-love.png","settings":{"confine":"/app/mychannel/frontend-web/public/client-app"},"stat":null,"fd":null}|0.005
2017-04-05 13:51:52.011|1491375112011:PMYCHAW902G:23311:j14hdzid:10212|10.195.161.26||GET|/customer-portal/inline.fbcaba5f911e10de2eed.bundle.js|{"host":"mychannel.ais.co.th","user-agent":"Mozilla/5.0 (Windows NT 6.1; WOW64; rv:46.0) Gecko/20100101 Firefox/46.0","accept":"*/*","accept-language":"en-US,en;q=0.5","accept-encoding":"gzip, deflate, br","referer":"https://mychannel.ais.co.th/customer-portal/","cookie":"_uid25621=0525FEF6.3; AMCV_46FAEF9957D778167F000101%40AdobeOrg=-1176276602%7CMCIDTS%7C17247%7CMCMID%7C81690499000220467890554293072435529570%7CMCAAMLH-1490669813%7C3%7CMCAAMB-1490669813%7CNRX38WO0n5BH8Th-nqAG_A%7CMCOPTOUT-1490072213s%7CNONE%7CMCAID%7CNONE; s_nr=1490065019068-New; _ga=GA1.3.1221121616.1490065014; __utma=110453781.1221121616.1490065014.1490065026.1490065026.1; __utmz=110453781.1490065026.1.1.utmcsr=(direct)|utmccn=(direct)|utmcmd=(none); accessToken=eyJhbGciOiJIUzI1NiIsInR5cCI6IkpXVCJ9.eyJ1c2VybmFtZSI6IkNIQU5QSEVTIiwidGltZXN0YW1wIjoiMjAxNzA0MDQxNzMxIiwibG9jYXRpb25Db2RlIjoiMTAwNiIsImlhdCI6MTQ5MTMwMTg3MywiZXhwIjoxNDkxMzAxOTkzfQ.K4Oo4R-lB-0Fn_UOi-yBx-bo8WiOyN8BuWSCWhhTcIA; refreshToken=eyJhbGciOiJIUzI1NiIsInR5cCI6IkpXVCJ9.eyJ1c2VybmFtZSI6IkNIQU5QSEVTIiwidGltZXN0YW1wIjoiMjAxNzA0MDQxNzMxIiwibG9jYXRpb25Db2RlIjoiMTAwNiIsImlhdCI6MTQ5MTMwMTg3MywiZXhwIjoxNDkxMzAyNzczfQ.VBKYMY6kQjKRWRvAKaHKmLcLX-bhLbRGOjTIRI-uS00; mobileNo=0982565849","connection":"keep-alive","if-modified-since":"Wed, 29 Mar 2017 03:51:51 GMT","if-none-match":"\"3b6c0681ec869faa380104c4387058440e488d7b-gzip\""}|||304|{"path":"/app/mychannel/frontend-web/public/client-customer-portal/inline.fbcaba5f911e10de2eed.bundle.js","settings":{"confine":"/app/mychannel/frontend-web/public/client-customer-portal"},"stat":null,"fd":null}|0.004
2017-04-05 13:51:52.011|1491375112011:PMYCHAW902G:23327:j14hdzmw:10179|10.195.161.26||GET|/customer-portal/polyfills.33c6381b31ba97fee5bf.bundle.js|{"host":"mychannel.ais.co.th","user-agent":"Mozilla/5.0 (Windows NT 6.1; WOW64; rv:46.0) Gecko/20100101 Firefox/46.0","accept":"*/*","accept-language":"en-US,en;q=0.5","accept-encoding":"gzip, deflate, br","referer":"https://mychannel.ais.co.th/customer-portal/","cookie":"_uid25621=0525FEF6.3; AMCV_46FAEF9957D778167F000101%40AdobeOrg=-1176276602%7CMCIDTS%7C17247%7CMCMID%7C81690499000220467890554293072435529570%7CMCAAMLH-1490669813%7C3%7CMCAAMB-1490669813%7CNRX38WO0n5BH8Th-nqAG_A%7CMCOPTOUT-1490072213s%7CNONE%7CMCAID%7CNONE; s_nr=1490065019068-New; _ga=GA1.3.1221121616.1490065014; __utma=110453781.1221121616.1490065014.1490065026.1490065026.1; __utmz=110453781.1490065026.1.1.utmcsr=(direct)|utmccn=(direct)|utmcmd=(none); accessToken=eyJhbGciOiJIUzI1NiIsInR5cCI6IkpXVCJ9.eyJ1c2VybmFtZSI6IkNIQU5QSEVTIiwidGltZXN0YW1wIjoiMjAxNzA0MDQxNzMxIiwibG9jYXRpb25Db2RlIjoiMTAwNiIsImlhdCI6MTQ5MTMwMTg3MywiZXhwIjoxNDkxMzAxOTkzfQ.K4Oo4R-lB-0Fn_UOi-yBx-bo8WiOyN8BuWSCWhhTcIA; refreshToken=eyJhbGciOiJIUzI1NiIsInR5cCI6IkpXVCJ9.eyJ1c2VybmFtZSI6IkNIQU5QSEVTIiwidGltZXN0YW1wIjoiMjAxNzA0MDQxNzMxIiwibG9jYXRpb25Db2RlIjoiMTAwNiIsImlhdCI6MTQ5MTMwMTg3MywiZXhwIjoxNDkxMzAyNzczfQ.VBKYMY6kQjKRWRvAKaHKmLcLX-bhLbRGOjTIRI-uS00; mobileNo=0982565849","connection":"keep-alive","if-modified-since":"Wed, 29 Mar 2017 03:50:10 GMT","if-none-match":"\"710850cd2890db5444bf31d9a7f8eb55f9eb6f4e-gzip\""}|||304|{"path":"/app/mychannel/frontend-web/public/client-customer-portal/polyfills.33c6381b31ba97fee5bf.bundle.js","settings":{"confine":"/app/mychannel/frontend-web/public/client-customer-portal"},"stat":null,"fd":null}|0.012
2017-04-05 13:51:52.025|1491375112025:PMYCHAW902G:23311:j14hdzid:10213|10.195.161.26||GET|/customer-portal/favicon.ico|{"host":"mychannel.ais.co.th","user-agent":"Mozilla/5.0 (Windows NT 6.1; WOW64; rv:46.0) Gecko/20100101 Firefox/46.0","accept":"text/html,application/xhtml+xml,application/xml;q=0.9,*/*;q=0.8","accept-language":"en-US,en;q=0.5","accept-encoding":"gzip, deflate, br","cookie":"_uid25621=0525FEF6.3; AMCV_46FAEF9957D778167F000101%40AdobeOrg=-1176276602%7CMCIDTS%7C17247%7CMCMID%7C81690499000220467890554293072435529570%7CMCAAMLH-1490669813%7C3%7CMCAAMB-1490669813%7CNRX38WO0n5BH8Th-nqAG_A%7CMCOPTOUT-1490072213s%7CNONE%7CMCAID%7CNONE; s_nr=1490065019068-New; _ga=GA1.3.1221121616.1490065014; __utma=110453781.1221121616.1490065014.1490065026.1490065026.1; __utmz=110453781.1490065026.1.1.utmcsr=(direct)|utmccn=(direct)|utmcmd=(none); accessToken=eyJhbGciOiJIUzI1NiIsInR5cCI6IkpXVCJ9.eyJ1c2VybmFtZSI6IkNIQU5QSEVTIiwidGltZXN0YW1wIjoiMjAxNzA0MDQxNzMxIiwibG9jYXRpb25Db2RlIjoiMTAwNiIsImlhdCI6MTQ5MTMwMTg3MywiZXhwIjoxNDkxMzAxOTkzfQ.K4Oo4R-lB-0Fn_UOi-yBx-bo8WiOyN8BuWSCWhhTcIA; refreshToken=eyJhbGciOiJIUzI1NiIsInR5cCI6IkpXVCJ9.eyJ1c2VybmFtZSI6IkNIQU5QSEVTIiwidGltZXN0YW1wIjoiMjAxNzA0MDQxNzMxIiwibG9jYXRpb25Db2RlIjoiMTAwNiIsImlhdCI6MTQ5MTMwMTg3MywiZXhwIjoxNDkxMzAyNzczfQ.VBKYMY6kQjKRWRvAKaHKmLcLX-bhLbRGOjTIRI-uS00; mobileNo=0982565849","connection":"keep-alive","if-modified-since":"Wed, 29 Mar 2017 03:51:51 GMT","if-none-match":"\"57bffb976c81668993e97f5b0183ee3775a79fa8-gzip\""}|||304|{"path":"/app/mychannel/frontend-web/public/client-customer-portal/favicon.ico","settings":{"confine":"/app/mychannel/frontend-web/public/client-customer-portal"},"stat":null,"fd":null}|0.003
2017-04-05 13:51:52.046|1491375112046:PMYCHAW902G:23327:j14hdzmw:10180|10.195.161.26||GET|/customer-portal/main.4abaee9285fd23db3d06.bundle.js|{"host":"mychannel.ais.co.th","user-agent":"Mozilla/5.0 (Windows NT 6.1; WOW64; rv:46.0) Gecko/20100101 Firefox/46.0","accept":"*/*","accept-language":"en-US,en;q=0.5","accept-encoding":"gzip, deflate, br","referer":"https://mychannel.ais.co.th/customer-portal/","cookie":"_uid25621=0525FEF6.3; AMCV_46FAEF9957D778167F000101%40AdobeOrg=-1176276602%7CMCIDTS%7C17247%7CMCMID%7C81690499000220467890554293072435529570%7CMCAAMLH-1490669813%7C3%7CMCAAMB-1490669813%7CNRX38WO0n5BH8Th-nqAG_A%7CMCOPTOUT-1490072213s%7CNONE%7CMCAID%7CNONE; s_nr=1490065019068-New; _ga=GA1.3.1221121616.1490065014; __utma=110453781.1221121616.1490065014.1490065026.1490065026.1; __utmz=110453781.1490065026.1.1.utmcsr=(direct)|utmccn=(direct)|utmcmd=(none); accessToken=eyJhbGciOiJIUzI1NiIsInR5cCI6IkpXVCJ9.eyJ1c2VybmFtZSI6IkNIQU5QSEVTIiwidGltZXN0YW1wIjoiMjAxNzA0MDQxNzMxIiwibG9jYXRpb25Db2RlIjoiMTAwNiIsImlhdCI6MTQ5MTMwMTg3MywiZXhwIjoxNDkxMzAxOTkzfQ.K4Oo4R-lB-0Fn_UOi-yBx-bo8WiOyN8BuWSCWhhTcIA; refreshToken=eyJhbGciOiJIUzI1NiIsInR5cCI6IkpXVCJ9.eyJ1c2VybmFtZSI6IkNIQU5QSEVTIiwidGltZXN0YW1wIjoiMjAxNzA0MDQxNzMxIiwibG9jYXRpb25Db2RlIjoiMTAwNiIsImlhdCI6MTQ5MTMwMTg3MywiZXhwIjoxNDkxMzAyNzczfQ.VBKYMY6kQjKRWRvAKaHKmLcLX-bhLbRGOjTIRI-uS00; mobileNo=0982565849","connection":"keep-alive","if-modified-since":"Wed, 29 Mar 2017 03:50:10 GMT","if-none-match":"\"3f923a5bca93cb47fc26e35aa1a3b118cf0dd464-gzip\""}|||304|{"path":"/app/mychannel/frontend-web/public/client-customer-portal/main.4abaee9285fd23db3d06.bundle.js","settings":{"confine":"/app/mychannel/frontend-web/public/client-customer-portal"},"stat":null,"fd":null}|0.003
2017-04-05 13:51:52.439|1491375112439:PMYCHAW902G:23311:j14hdzid:10214|10.195.161.26||GET|/customer-portal/assets/images/icon/icon-arrow-left.png|{"host":"mychannel.ais.co.th","user-agent":"Mozilla/5.0 (Windows NT 6.1; WOW64; rv:46.0) Gecko/20100101 Firefox/46.0","accept":"image/png,image/*;q=0.8,*/*;q=0.5","accept-language":"en-US,en;q=0.5","accept-encoding":"gzip, deflate, br","referer":"https://mychannel.ais.co.th/customer-portal/","cookie":"_uid25621=0525FEF6.3; AMCV_46FAEF9957D778167F000101%40AdobeOrg=-1176276602%7CMCIDTS%7C17247%7CMCMID%7C81690499000220467890554293072435529570%7CMCAAMLH-1490669813%7C3%7CMCAAMB-1490669813%7CNRX38WO0n5BH8Th-nqAG_A%7CMCOPTOUT-1490072213s%7CNONE%7CMCAID%7CNONE; s_nr=1490065019068-New; _ga=GA1.3.1221121616.1490065014; __utma=110453781.1221121616.1490065014.1490065026.1490065026.1; __utmz=110453781.1490065026.1.1.utmcsr=(direct)|utmccn=(direct)|utmcmd=(none); accessToken=eyJhbGciOiJIUzI1NiIsInR5cCI6IkpXVCJ9.eyJ1c2VybmFtZSI6IkNIQU5QSEVTIiwidGltZXN0YW1wIjoiMjAxNzA0MDQxNzMxIiwibG9jYXRpb25Db2RlIjoiMTAwNiIsImlhdCI6MTQ5MTMwMTg3MywiZXhwIjoxNDkxMzAxOTkzfQ.K4Oo4R-lB-0Fn_UOi-yBx-bo8WiOyN8BuWSCWhhTcIA; refreshToken=eyJhbGciOiJIUzI1NiIsInR5cCI6IkpXVCJ9.eyJ1c2VybmFtZSI6IkNIQU5QSEVTIiwidGltZXN0YW1wIjoiMjAxNzA0MDQxNzMxIiwibG9jYXRpb25Db2RlIjoiMTAwNiIsImlhdCI6MTQ5MTMwMTg3MywiZXhwIjoxNDkxMzAyNzczfQ.VBKYMY6kQjKRWRvAKaHKmLcLX-bhLbRGOjTIRI-uS00; mobileNo=0982565849","connection":"keep-alive","if-modified-since":"Wed, 29 Mar 2017 03:50:59 GMT","if-none-match":"\"69ca4cc589836399f33749aae73075e694ccd7d0\""}|||304|{"path":"/app/mychannel/frontend-web/public/client-customer-portal/assets/images/icon/icon-arrow-left.png","settings":{"confine":"/app/mychannel/frontend-web/public/client-customer-portal"},"stat":null,"fd":null}|0.002
2017-04-05 13:52:12.026|1491375132026:PMYCHAW902G:23311:j14hdzid:10215|10.195.161.26||GET|/|{"host":"mychannel.ais.co.th","user-agent":"Mozilla/5.0 (Windows NT 6.1; WOW64; rv:46.0) Gecko/20100101 Firefox/46.0","accept":"text/html,application/xhtml+xml,application/xml;q=0.9,*/*;q=0.8","accept-language":"en-US,en;q=0.5","accept-encoding":"gzip, deflate, br","referer":"https://mychannel.ais.co.th/api/auth/login?tokenID=NmfVB2Z93iwwGs%2FN0LTCeU0cO%2FLrm9dUzgmHpgpOv00%3D","cookie":"_uid25621=0525FEF6.3; AMCV_46FAEF9957D778167F000101%40AdobeOrg=-1176276602%7CMCIDTS%7C17247%7CMCMID%7C81690499000220467890554293072435529570%7CMCAAMLH-1490669813%7C3%7CMCAAMB-1490669813%7CNRX38WO0n5BH8Th-nqAG_A%7CMCOPTOUT-1490072213s%7CNONE%7CMCAID%7CNONE; s_nr=1490065019068-New; _ga=GA1.3.1221121616.1490065014; __utma=110453781.1221121616.1490065014.1490065026.1490065026.1; __utmz=110453781.1490065026.1.1.utmcsr=(direct)|utmccn=(direct)|utmcmd=(none); accessToken=eyJhbGciOiJIUzI1NiIsInR5cCI6IkpXVCJ9.eyJ1c2VybmFtZSI6IlNVTklUSElQIiwidGltZXN0YW1wIjoiMjAxNzA0MDUxMzUyIiwibG9jYXRpb25Db2RlIjoiMTEwMCIsImlhdCI6MTQ5MTM3NTEzNSwiZXhwIjoxNDkxMzc1MjU1fQ.kGYkh6N3IrCHL4rMclF-Wfd0f-9vNKqCnJLyzbflwFE; refreshToken=eyJhbGciOiJIUzI1NiIsInR5cCI6IkpXVCJ9.eyJ1c2VybmFtZSI6IlNVTklUSElQIiwidGltZXN0YW1wIjoiMjAxNzA0MDUxMzUyIiwibG9jYXRpb25Db2RlIjoiMTEwMCIsImlhdCI6MTQ5MTM3NTEzNSwiZXhwIjoxNDkxMzc2MDM1fQ.1KExrX-OudhdNId-3GJHM0ZayIXGt78Ql7lJ0TXKbCg; mobileNo=0982565849","connection":"keep-alive"}|||200|{"path":"/app/mychannel/frontend-web/public/client-app/index.html","settings":{"confine":"/app/mychannel/frontend-web/public/client-app"},"stat":null,"fd":null}|0.012
2017-04-05 13:52:12.072|1491375132072:PMYCHAW902G:23311:j14hdzid:10216|10.195.161.26||GET|/inline.2b497be5ebd075f2dd9a.bundle.js|{"host":"mychannel.ais.co.th","user-agent":"Mozilla/5.0 (Windows NT 6.1; WOW64; rv:46.0) Gecko/20100101 Firefox/46.0","accept":"*/*","accept-language":"en-US,en;q=0.5","accept-encoding":"gzip, deflate, br","referer":"https://mychannel.ais.co.th/","cookie":"_uid25621=0525FEF6.3; AMCV_46FAEF9957D778167F000101%40AdobeOrg=-1176276602%7CMCIDTS%7C17247%7CMCMID%7C81690499000220467890554293072435529570%7CMCAAMLH-1490669813%7C3%7CMCAAMB-1490669813%7CNRX38WO0n5BH8Th-nqAG_A%7CMCOPTOUT-1490072213s%7CNONE%7CMCAID%7CNONE; s_nr=1490065019068-New; _ga=GA1.3.1221121616.1490065014; __utma=110453781.1221121616.1490065014.1490065026.1490065026.1; __utmz=110453781.1490065026.1.1.utmcsr=(direct)|utmccn=(direct)|utmcmd=(none); accessToken=eyJhbGciOiJIUzI1NiIsInR5cCI6IkpXVCJ9.eyJ1c2VybmFtZSI6IlNVTklUSElQIiwidGltZXN0YW1wIjoiMjAxNzA0MDUxMzUyIiwibG9jYXRpb25Db2RlIjoiMTEwMCIsImlhdCI6MTQ5MTM3NTEzNSwiZXhwIjoxNDkxMzc1MjU1fQ.kGYkh6N3IrCHL4rMclF-Wfd0f-9vNKqCnJLyzbflwFE; refreshToken=eyJhbGciOiJIUzI1NiIsInR5cCI6IkpXVCJ9.eyJ1c2VybmFtZSI6IlNVTklUSElQIiwidGltZXN0YW1wIjoiMjAxNzA0MDUxMzUyIiwibG9jYXRpb25Db2RlIjoiMTEwMCIsImlhdCI6MTQ5MTM3NTEzNSwiZXhwIjoxNDkxMzc2MDM1fQ.1KExrX-OudhdNId-3GJHM0ZayIXGt78Ql7lJ0TXKbCg; mobileNo=0982565849","connection":"keep-alive"}|||200|{"path":"/app/mychannel/frontend-web/public/client-app/inline.2b497be5ebd075f2dd9a.bundle.js","settings":{"confine":"/app/mychannel/frontend-web/public/client-app"},"stat":null,"fd":null}|0.006
2017-04-05 13:52:12.077|1491375132077:PMYCHAW902G:23327:j14hdzmw:10181|10.195.161.26||GET|/vendor.79ff024b38332f992a1a.bundle.js|{"host":"mychannel.ais.co.th","user-agent":"Mozilla/5.0 (Windows NT 6.1; WOW64; rv:46.0) Gecko/20100101 Firefox/46.0","accept":"*/*","accept-language":"en-US,en;q=0.5","accept-encoding":"gzip, deflate, br","referer":"https://mychannel.ais.co.th/","cookie":"_uid25621=0525FEF6.3; AMCV_46FAEF9957D778167F000101%40AdobeOrg=-1176276602%7CMCIDTS%7C17247%7CMCMID%7C81690499000220467890554293072435529570%7CMCAAMLH-1490669813%7C3%7CMCAAMB-1490669813%7CNRX38WO0n5BH8Th-nqAG_A%7CMCOPTOUT-1490072213s%7CNONE%7CMCAID%7CNONE; s_nr=1490065019068-New; _ga=GA1.3.1221121616.1490065014; __utma=110453781.1221121616.1490065014.1490065026.1490065026.1; __utmz=110453781.1490065026.1.1.utmcsr=(direct)|utmccn=(direct)|utmcmd=(none); accessToken=eyJhbGciOiJIUzI1NiIsInR5cCI6IkpXVCJ9.eyJ1c2VybmFtZSI6IlNVTklUSElQIiwidGltZXN0YW1wIjoiMjAxNzA0MDUxMzUyIiwibG9jYXRpb25Db2RlIjoiMTEwMCIsImlhdCI6MTQ5MTM3NTEzNSwiZXhwIjoxNDkxMzc1MjU1fQ.kGYkh6N3IrCHL4rMclF-Wfd0f-9vNKqCnJLyzbflwFE; refreshToken=eyJhbGciOiJIUzI1NiIsInR5cCI6IkpXVCJ9.eyJ1c2VybmFtZSI6IlNVTklUSElQIiwidGltZXN0YW1wIjoiMjAxNzA0MDUxMzUyIiwibG9jYXRpb25Db2RlIjoiMTEwMCIsImlhdCI6MTQ5MTM3NTEzNSwiZXhwIjoxNDkxMzc2MDM1fQ.1KExrX-OudhdNId-3GJHM0ZayIXGt78Ql7lJ0TXKbCg; mobileNo=0982565849","connection":"keep-alive","if-modified-since":"Wed, 29 Mar 2017 03:50:09 GMT","if-none-match":"\"afcad7c89e25d6178afe0133718bffda49a0d61f-gzip\""}|||304|{"path":"/app/mychannel/frontend-web/public/client-app/vendor.79ff024b38332f992a1a.bundle.js","settings":{"confine":"/app/mychannel/frontend-web/public/client-app"},"stat":null,"fd":null}|0.012
2017-04-05 13:52:12.084|1491375132084:PMYCHAW902G:23327:j14hdzmw:10182|10.195.161.26||GET|/main.942717d9f92c4aec0c0b.bundle.js|{"host":"mychannel.ais.co.th","user-agent":"Mozilla/5.0 (Windows NT 6.1; WOW64; rv:46.0) Gecko/20100101 Firefox/46.0","accept":"*/*","accept-language":"en-US,en;q=0.5","accept-encoding":"gzip, deflate, br","referer":"https://mychannel.ais.co.th/","cookie":"_uid25621=0525FEF6.3; AMCV_46FAEF9957D778167F000101%40AdobeOrg=-1176276602%7CMCIDTS%7C17247%7CMCMID%7C81690499000220467890554293072435529570%7CMCAAMLH-1490669813%7C3%7CMCAAMB-1490669813%7CNRX38WO0n5BH8Th-nqAG_A%7CMCOPTOUT-1490072213s%7CNONE%7CMCAID%7CNONE; s_nr=1490065019068-New; _ga=GA1.3.1221121616.1490065014; __utma=110453781.1221121616.1490065014.1490065026.1490065026.1; __utmz=110453781.1490065026.1.1.utmcsr=(direct)|utmccn=(direct)|utmcmd=(none); accessToken=eyJhbGciOiJIUzI1NiIsInR5cCI6IkpXVCJ9.eyJ1c2VybmFtZSI6IlNVTklUSElQIiwidGltZXN0YW1wIjoiMjAxNzA0MDUxMzUyIiwibG9jYXRpb25Db2RlIjoiMTEwMCIsImlhdCI6MTQ5MTM3NTEzNSwiZXhwIjoxNDkxMzc1MjU1fQ.kGYkh6N3IrCHL4rMclF-Wfd0f-9vNKqCnJLyzbflwFE; refreshToken=eyJhbGciOiJIUzI1NiIsInR5cCI6IkpXVCJ9.eyJ1c2VybmFtZSI6IlNVTklUSElQIiwidGltZXN0YW1wIjoiMjAxNzA0MDUxMzUyIiwibG9jYXRpb25Db2RlIjoiMTEwMCIsImlhdCI6MTQ5MTM3NTEzNSwiZXhwIjoxNDkxMzc2MDM1fQ.1KExrX-OudhdNId-3GJHM0ZayIXGt78Ql7lJ0TXKbCg; mobileNo=0982565849","connection":"keep-alive","if-modified-since":"Wed, 29 Mar 2017 03:50:08 GMT","if-none-match":"\"ab9ea2a748863202422aa5492f30f82dbbe4549d-gzip\""}|||304|{"path":"/app/mychannel/frontend-web/public/client-app/main.942717d9f92c4aec0c0b.bundle.js","settings":{"confine":"/app/mychannel/frontend-web/public/client-app"},"stat":null,"fd":null}|0.009
2017-04-05 13:52:12.377|1491375132377:PMYCHAW902G:23311:j14hdzid:10217|10.195.161.26||GET|/assets/images/icon/icon-landing-cart.png|{"host":"mychannel.ais.co.th","user-agent":"Mozilla/5.0 (Windows NT 6.1; WOW64; rv:46.0) Gecko/20100101 Firefox/46.0","accept":"image/png,image/*;q=0.8,*/*;q=0.5","accept-language":"en-US,en;q=0.5","accept-encoding":"gzip, deflate, br","referer":"https://mychannel.ais.co.th/","cookie":"_uid25621=0525FEF6.3; AMCV_46FAEF9957D778167F000101%40AdobeOrg=-1176276602%7CMCIDTS%7C17247%7CMCMID%7C81690499000220467890554293072435529570%7CMCAAMLH-1490669813%7C3%7CMCAAMB-1490669813%7CNRX38WO0n5BH8Th-nqAG_A%7CMCOPTOUT-1490072213s%7CNONE%7CMCAID%7CNONE; s_nr=1490065019068-New; _ga=GA1.3.1221121616.1490065014; __utma=110453781.1221121616.1490065014.1490065026.1490065026.1; __utmz=110453781.1490065026.1.1.utmcsr=(direct)|utmccn=(direct)|utmcmd=(none); accessToken=eyJhbGciOiJIUzI1NiIsInR5cCI6IkpXVCJ9.eyJ1c2VybmFtZSI6IlNVTklUSElQIiwidGltZXN0YW1wIjoiMjAxNzA0MDUxMzUyIiwibG9jYXRpb25Db2RlIjoiMTEwMCIsImlhdCI6MTQ5MTM3NTEzNSwiZXhwIjoxNDkxMzc1MjU1fQ.kGYkh6N3IrCHL4rMclF-Wfd0f-9vNKqCnJLyzbflwFE; refreshToken=eyJhbGciOiJIUzI1NiIsInR5cCI6IkpXVCJ9.eyJ1c2VybmFtZSI6IlNVTklUSElQIiwidGltZXN0YW1wIjoiMjAxNzA0MDUxMzUyIiwibG9jYXRpb25Db2RlIjoiMTEwMCIsImlhdCI6MTQ5MTM3NTEzNSwiZXhwIjoxNDkxMzc2MDM1fQ.1KExrX-OudhdNId-3GJHM0ZayIXGt78Ql7lJ0TXKbCg; mobileNo=0982565849","connection":"keep-alive","if-modified-since":"Wed, 29 Mar 2017 03:50:57 GMT","if-none-match":"\"f067778c51865483f583cf87ad6da15234b6f4b2\""}|||304|{"path":"/app/mychannel/frontend-web/public/client-app/assets/images/icon/icon-landing-cart.png","settings":{"confine":"/app/mychannel/frontend-web/public/client-app"},"stat":null,"fd":null}|0.005
2017-04-05 13:52:12.386|1491375132386:PMYCHAW902G:23327:j14hdzmw:10183|10.195.161.26||GET|/assets/images/landing.jpg|{"host":"mychannel.ais.co.th","user-agent":"Mozilla/5.0 (Windows NT 6.1; WOW64; rv:46.0) Gecko/20100101 Firefox/46.0","accept":"image/png,image/*;q=0.8,*/*;q=0.5","accept-language":"en-US,en;q=0.5","accept-encoding":"gzip, deflate, br","referer":"https://mychannel.ais.co.th/","cookie":"_uid25621=0525FEF6.3; AMCV_46FAEF9957D778167F000101%40AdobeOrg=-1176276602%7CMCIDTS%7C17247%7CMCMID%7C81690499000220467890554293072435529570%7CMCAAMLH-1490669813%7C3%7CMCAAMB-1490669813%7CNRX38WO0n5BH8Th-nqAG_A%7CMCOPTOUT-1490072213s%7CNONE%7CMCAID%7CNONE; s_nr=1490065019068-New; _ga=GA1.3.1221121616.1490065014; __utma=110453781.1221121616.1490065014.1490065026.1490065026.1; __utmz=110453781.1490065026.1.1.utmcsr=(direct)|utmccn=(direct)|utmcmd=(none); accessToken=eyJhbGciOiJIUzI1NiIsInR5cCI6IkpXVCJ9.eyJ1c2VybmFtZSI6IlNVTklUSElQIiwidGltZXN0YW1wIjoiMjAxNzA0MDUxMzUyIiwibG9jYXRpb25Db2RlIjoiMTEwMCIsImlhdCI6MTQ5MTM3NTEzNSwiZXhwIjoxNDkxMzc1MjU1fQ.kGYkh6N3IrCHL4rMclF-Wfd0f-9vNKqCnJLyzbflwFE; refreshToken=eyJhbGciOiJIUzI1NiIsInR5cCI6IkpXVCJ9.eyJ1c2VybmFtZSI6IlNVTklUSElQIiwidGltZXN0YW1wIjoiMjAxNzA0MDUxMzUyIiwibG9jYXRpb25Db2RlIjoiMTEwMCIsImlhdCI6MTQ5MTM3NTEzNSwiZXhwIjoxNDkxMzc2MDM1fQ.1KExrX-OudhdNId-3GJHM0ZayIXGt78Ql7lJ0TXKbCg; mobileNo=0982565849","connection":"keep-alive","if-modified-since":"Wed, 29 Mar 2017 03:52:25 GMT","if-none-match":"\"2ccb8b8db89cc1886c18d601cc48b9ffd570ee18\""}|||304|{"path":"/app/mychannel/frontend-web/public/client-app/assets/images/landing.jpg","settings":{"confine":"/app/mychannel/frontend-web/public/client-app"},"stat":null,"fd":null}|0.005
2017-04-05 13:52:15.274|1491375135274:PMYCHAW902G:23311:j14hdzid:10218|10.195.161.26||GET|/customer-portal/inline.fbcaba5f911e10de2eed.bundle.js|{"host":"mychannel.ais.co.th","user-agent":"Mozilla/5.0 (Windows NT 6.1; WOW64; rv:46.0) Gecko/20100101 Firefox/46.0","accept":"*/*","accept-language":"en-US,en;q=0.5","accept-encoding":"gzip, deflate, br","referer":"https://mychannel.ais.co.th/customer-portal/","cookie":"_uid25621=0525FEF6.3; AMCV_46FAEF9957D778167F000101%40AdobeOrg=-1176276602%7CMCIDTS%7C17247%7CMCMID%7C81690499000220467890554293072435529570%7CMCAAMLH-1490669813%7C3%7CMCAAMB-1490669813%7CNRX38WO0n5BH8Th-nqAG_A%7CMCOPTOUT-1490072213s%7CNONE%7CMCAID%7CNONE; s_nr=1490065019068-New; _ga=GA1.3.1221121616.1490065014; __utma=110453781.1221121616.1490065014.1490065026.1490065026.1; __utmz=110453781.1490065026.1.1.utmcsr=(direct)|utmccn=(direct)|utmcmd=(none); accessToken=eyJhbGciOiJIUzI1NiIsInR5cCI6IkpXVCJ9.eyJ1c2VybmFtZSI6IlNVTklUSElQIiwidGltZXN0YW1wIjoiMjAxNzA0MDUxMzUyIiwibG9jYXRpb25Db2RlIjoiMTEwMCIsImlhdCI6MTQ5MTM3NTEzNSwiZXhwIjoxNDkxMzc1MjU1fQ.kGYkh6N3IrCHL4rMclF-Wfd0f-9vNKqCnJLyzbflwFE; refreshToken=eyJhbGciOiJIUzI1NiIsInR5cCI6IkpXVCJ9.eyJ1c2VybmFtZSI6IlNVTklUSElQIiwidGltZXN0YW1wIjoiMjAxNzA0MDUxMzUyIiwibG9jYXRpb25Db2RlIjoiMTEwMCIsImlhdCI6MTQ5MTM3NTEzNSwiZXhwIjoxNDkxMzc2MDM1fQ.1KExrX-OudhdNId-3GJHM0ZayIXGt78Ql7lJ0TXKbCg; mobileNo=0982565849","connection":"keep-alive"}|||200|{"path":"/app/mychannel/frontend-web/public/client-customer-portal/inline.fbcaba5f911e10de2eed.bundle.js","settings":{"confine":"/app/mychannel/frontend-web/public/client-customer-portal"},"stat":null,"fd":null}|0.005
2017-04-05 13:52:15.278|1491375135278:PMYCHAW902G:23327:j14hdzmw:10184|10.195.161.26||GET|/customer-portal/scripts.ae44f0deb89bb3359516.bundle.js|{"host":"mychannel.ais.co.th","user-agent":"Mozilla/5.0 (Windows NT 6.1; WOW64; rv:46.0) Gecko/20100101 Firefox/46.0","accept":"*/*","accept-language":"en-US,en;q=0.5","accept-encoding":"gzip, deflate, br","referer":"https://mychannel.ais.co.th/customer-portal/","cookie":"_uid25621=0525FEF6.3; AMCV_46FAEF9957D778167F000101%40AdobeOrg=-1176276602%7CMCIDTS%7C17247%7CMCMID%7C81690499000220467890554293072435529570%7CMCAAMLH-1490669813%7C3%7CMCAAMB-1490669813%7CNRX38WO0n5BH8Th-nqAG_A%7CMCOPTOUT-1490072213s%7CNONE%7CMCAID%7CNONE; s_nr=1490065019068-New; _ga=GA1.3.1221121616.1490065014; __utma=110453781.1221121616.1490065014.1490065026.1490065026.1; __utmz=110453781.1490065026.1.1.utmcsr=(direct)|utmccn=(direct)|utmcmd=(none); accessToken=eyJhbGciOiJIUzI1NiIsInR5cCI6IkpXVCJ9.eyJ1c2VybmFtZSI6IlNVTklUSElQIiwidGltZXN0YW1wIjoiMjAxNzA0MDUxMzUyIiwibG9jYXRpb25Db2RlIjoiMTEwMCIsImlhdCI6MTQ5MTM3NTEzNSwiZXhwIjoxNDkxMzc1MjU1fQ.kGYkh6N3IrCHL4rMclF-Wfd0f-9vNKqCnJLyzbflwFE; refreshToken=eyJhbGciOiJIUzI1NiIsInR5cCI6IkpXVCJ9.eyJ1c2VybmFtZSI6IlNVTklUSElQIiwidGltZXN0YW1wIjoiMjAxNzA0MDUxMzUyIiwibG9jYXRpb25Db2RlIjoiMTEwMCIsImlhdCI6MTQ5MTM3NTEzNSwiZXhwIjoxNDkxMzc2MDM1fQ.1KExrX-OudhdNId-3GJHM0ZayIXGt78Ql7lJ0TXKbCg; mobileNo=0982565849","connection":"keep-alive","if-modified-since":"Wed, 29 Mar 2017 03:51:51 GMT","if-none-match":"\"e31634bda38592fba3a82468c98c99bc2fa1f6f5-gzip\""}|||304|{"path":"/app/mychannel/frontend-web/public/client-customer-portal/scripts.ae44f0deb89bb3359516.bundle.js","settings":{"confine":"/app/mychannel/frontend-web/public/client-customer-portal"},"stat":null,"fd":null}|0.008
2017-04-05 13:52:15.287|1491375135287:PMYCHAW902G:23311:j14hdzid:10219|10.195.161.26||GET|/customer-portal/main.4abaee9285fd23db3d06.bundle.js|{"host":"mychannel.ais.co.th","user-agent":"Mozilla/5.0 (Windows NT 6.1; WOW64; rv:46.0) Gecko/20100101 Firefox/46.0","accept":"*/*","accept-language":"en-US,en;q=0.5","accept-encoding":"gzip, deflate, br","referer":"https://mychannel.ais.co.th/customer-portal/","cookie":"_uid25621=0525FEF6.3; AMCV_46FAEF9957D778167F000101%40AdobeOrg=-1176276602%7CMCIDTS%7C17247%7CMCMID%7C81690499000220467890554293072435529570%7CMCAAMLH-1490669813%7C3%7CMCAAMB-1490669813%7CNRX38WO0n5BH8Th-nqAG_A%7CMCOPTOUT-1490072213s%7CNONE%7CMCAID%7CNONE; s_nr=1490065019068-New; _ga=GA1.3.1221121616.1490065014; __utma=110453781.1221121616.1490065014.1490065026.1490065026.1; __utmz=110453781.1490065026.1.1.utmcsr=(direct)|utmccn=(direct)|utmcmd=(none); accessToken=eyJhbGciOiJIUzI1NiIsInR5cCI6IkpXVCJ9.eyJ1c2VybmFtZSI6IlNVTklUSElQIiwidGltZXN0YW1wIjoiMjAxNzA0MDUxMzUyIiwibG9jYXRpb25Db2RlIjoiMTEwMCIsImlhdCI6MTQ5MTM3NTEzNSwiZXhwIjoxNDkxMzc1MjU1fQ.kGYkh6N3IrCHL4rMclF-Wfd0f-9vNKqCnJLyzbflwFE; refreshToken=eyJhbGciOiJIUzI1NiIsInR5cCI6IkpXVCJ9.eyJ1c2VybmFtZSI6IlNVTklUSElQIiwidGltZXN0YW1wIjoiMjAxNzA0MDUxMzUyIiwibG9jYXRpb25Db2RlIjoiMTEwMCIsImlhdCI6MTQ5MTM3NTEzNSwiZXhwIjoxNDkxMzc2MDM1fQ.1KExrX-OudhdNId-3GJHM0ZayIXGt78Ql7lJ0TXKbCg; mobileNo=0982565849","connection":"keep-alive","if-modified-since":"Wed, 29 Mar 2017 03:50:10 GMT","if-none-match":"\"3f923a5bca93cb47fc26e35aa1a3b118cf0dd464-gzip\""}|||304|{"path":"/app/mychannel/frontend-web/public/client-customer-portal/main.4abaee9285fd23db3d06.bundle.js","settings":{"confine":"/app/mychannel/frontend-web/public/client-customer-portal"},"stat":null,"fd":null}|0.002
2017-04-05 13:52:15.282|1491375135282:PMYCHAW902G:23327:j14hdzmw:10185|10.195.161.26||GET|/customer-portal/vendor.efa0fdf6c3ae2758fb0f.bundle.js|{"host":"mychannel.ais.co.th","user-agent":"Mozilla/5.0 (Windows NT 6.1; WOW64; rv:46.0) Gecko/20100101 Firefox/46.0","accept":"*/*","accept-language":"en-US,en;q=0.5","accept-encoding":"gzip, deflate, br","referer":"https://mychannel.ais.co.th/customer-portal/","cookie":"_uid25621=0525FEF6.3; AMCV_46FAEF9957D778167F000101%40AdobeOrg=-1176276602%7CMCIDTS%7C17247%7CMCMID%7C81690499000220467890554293072435529570%7CMCAAMLH-1490669813%7C3%7CMCAAMB-1490669813%7CNRX38WO0n5BH8Th-nqAG_A%7CMCOPTOUT-1490072213s%7CNONE%7CMCAID%7CNONE; s_nr=1490065019068-New; _ga=GA1.3.1221121616.1490065014; __utma=110453781.1221121616.1490065014.1490065026.1490065026.1; __utmz=110453781.1490065026.1.1.utmcsr=(direct)|utmccn=(direct)|utmcmd=(none); accessToken=eyJhbGciOiJIUzI1NiIsInR5cCI6IkpXVCJ9.eyJ1c2VybmFtZSI6IlNVTklUSElQIiwidGltZXN0YW1wIjoiMjAxNzA0MDUxMzUyIiwibG9jYXRpb25Db2RlIjoiMTEwMCIsImlhdCI6MTQ5MTM3NTEzNSwiZXhwIjoxNDkxMzc1MjU1fQ.kGYkh6N3IrCHL4rMclF-Wfd0f-9vNKqCnJLyzbflwFE; refreshToken=eyJhbGciOiJIUzI1NiIsInR5cCI6IkpXVCJ9.eyJ1c2VybmFtZSI6IlNVTklUSElQIiwidGltZXN0YW1wIjoiMjAxNzA0MDUxMzUyIiwibG9jYXRpb25Db2RlIjoiMTEwMCIsImlhdCI6MTQ5MTM3NTEzNSwiZXhwIjoxNDkxMzc2MDM1fQ.1KExrX-OudhdNId-3GJHM0ZayIXGt78Ql7lJ0TXKbCg; mobileNo=0982565849","connection":"keep-alive"}|||200|{"path":"/app/mychannel/frontend-web/public/client-customer-portal/vendor.efa0fdf6c3ae2758fb0f.bundle.js","settings":{"confine":"/app/mychannel/frontend-web/public/client-customer-portal"},"stat":null,"fd":null}|0.05
2017-04-05 13:52:15.627|1491375135627:PMYCHAW902G:23311:j14hdzid:10220|10.195.161.26||GET|/customer-portal/assets/images/icon/icon-arrow-left.png|{"host":"mychannel.ais.co.th","user-agent":"Mozilla/5.0 (Windows NT 6.1; WOW64; rv:46.0) Gecko/20100101 Firefox/46.0","accept":"image/png,image/*;q=0.8,*/*;q=0.5","accept-language":"en-US,en;q=0.5","accept-encoding":"gzip, deflate, br","referer":"https://mychannel.ais.co.th/customer-portal/","cookie":"_uid25621=0525FEF6.3; AMCV_46FAEF9957D778167F000101%40AdobeOrg=-1176276602%7CMCIDTS%7C17247%7CMCMID%7C81690499000220467890554293072435529570%7CMCAAMLH-1490669813%7C3%7CMCAAMB-1490669813%7CNRX38WO0n5BH8Th-nqAG_A%7CMCOPTOUT-1490072213s%7CNONE%7CMCAID%7CNONE; s_nr=1490065019068-New; _ga=GA1.3.1221121616.1490065014; __utma=110453781.1221121616.1490065014.1490065026.1490065026.1; __utmz=110453781.1490065026.1.1.utmcsr=(direct)|utmccn=(direct)|utmcmd=(none); accessToken=eyJhbGciOiJIUzI1NiIsInR5cCI6IkpXVCJ9.eyJ1c2VybmFtZSI6IlNVTklUSElQIiwidGltZXN0YW1wIjoiMjAxNzA0MDUxMzUyIiwibG9jYXRpb25Db2RlIjoiMTEwMCIsImlhdCI6MTQ5MTM3NTEzNSwiZXhwIjoxNDkxMzc1MjU1fQ.kGYkh6N3IrCHL4rMclF-Wfd0f-9vNKqCnJLyzbflwFE; refreshToken=eyJhbGciOiJIUzI1NiIsInR5cCI6IkpXVCJ9.eyJ1c2VybmFtZSI6IlNVTklUSElQIiwidGltZXN0YW1wIjoiMjAxNzA0MDUxMzUyIiwibG9jYXRpb25Db2RlIjoiMTEwMCIsImlhdCI6MTQ5MTM3NTEzNSwiZXhwIjoxNDkxMzc2MDM1fQ.1KExrX-OudhdNId-3GJHM0ZayIXGt78Ql7lJ0TXKbCg; mobileNo=0982565849","connection":"keep-alive","if-modified-since":"Wed, 29 Mar 2017 03:50:59 GMT","if-none-match":"\"69ca4cc589836399f33749aae73075e694ccd7d0\""}|||304|{"path":"/app/mychannel/frontend-web/public/client-customer-portal/assets/images/icon/icon-arrow-left.png","settings":{"confine":"/app/mychannel/frontend-web/public/client-customer-portal"},"stat":null,"fd":null}|0.004
