-|-|-|-|-|-|-|-|-|-|-|-|
2017-04-04 14:06:30.965|1491289590965:PMYCHAW901G:5818:j0w9ivtt:11527|10.239.223.141||GET|/customer-portal/|{"host":"10.195.208.89:8443","user-agent":"Mozilla/5.0 (Windows NT 6.1; rv:46.0) Gecko/20100101 Firefox/46.0","accept":"text/html,application/xhtml+xml,application/xml;q=0.9,*/*;q=0.8","accept-language":"en-US,en;q=0.5","accept-encoding":"gzip, deflate, br","connection":"keep-alive","if-modified-since":"Wed, 29 Mar 2017 03:51:51 GMT","if-none-match":"\"89e1b50837c5c151ed10197a7c6623b64b0fa530-gzip\""}|||304|{"path":"/app/mychannel/frontend-web/public/client-customer-portal/index.html","settings":{"confine":"/app/mychannel/frontend-web/public/client-customer-portal"},"stat":null,"fd":null}|0.009
2017-04-04 14:06:31.157|1491289591157:PMYCHAW901G:5818:j0w9ivtt:11528|10.239.223.141||GET|/customer-portal/styles.aed3af2c28dbae396718.bundle.css|{"host":"10.195.208.89:8443","user-agent":"Mozilla/5.0 (Windows NT 6.1; rv:46.0) Gecko/20100101 Firefox/46.0","accept":"text/css,*/*;q=0.1","accept-language":"en-US,en;q=0.5","accept-encoding":"gzip, deflate, br","referer":"https://10.195.208.89:8443/customer-portal/","connection":"keep-alive","if-modified-since":"Wed, 29 Mar 2017 03:51:51 GMT","if-none-match":"\"05b9a8f1c9e45b0ec853e20de37307114afe5e8d-gzip\""}|||304|{"path":"/app/mychannel/frontend-web/public/client-customer-portal/styles.aed3af2c28dbae396718.bundle.css","settings":{"confine":"/app/mychannel/frontend-web/public/client-customer-portal"},"stat":null,"fd":null}|0.003
2017-04-04 14:06:31.270|1491289591270:PMYCHAW901G:5818:j0w9ivtt:11529|10.239.223.141||GET|/customer-portal/polyfills.33c6381b31ba97fee5bf.bundle.js|{"host":"10.195.208.89:8443","user-agent":"Mozilla/5.0 (Windows NT 6.1; rv:46.0) Gecko/20100101 Firefox/46.0","accept":"*/*","accept-language":"en-US,en;q=0.5","accept-encoding":"gzip, deflate, br","referer":"https://10.195.208.89:8443/customer-portal/","connection":"keep-alive","if-modified-since":"Wed, 29 Mar 2017 03:51:51 GMT","if-none-match":"\"710850cd2890db5444bf31d9a7f8eb55f9eb6f4e-gzip\""}|||304|{"path":"/app/mychannel/frontend-web/public/client-customer-portal/polyfills.33c6381b31ba97fee5bf.bundle.js","settings":{"confine":"/app/mychannel/frontend-web/public/client-customer-portal"},"stat":null,"fd":null}|0.003
2017-04-04 14:06:31.326|1491289591326:PMYCHAW901G:5818:j0w9ivtt:11530|10.239.223.141||GET|/customer-portal/favicon.ico|{"host":"10.195.208.89:8443","user-agent":"Mozilla/5.0 (Windows NT 6.1; rv:46.0) Gecko/20100101 Firefox/46.0","accept":"text/html,application/xhtml+xml,application/xml;q=0.9,*/*;q=0.8","accept-language":"en-US,en;q=0.5","accept-encoding":"gzip, deflate, br","connection":"keep-alive","if-modified-since":"Wed, 29 Mar 2017 03:51:51 GMT","if-none-match":"\"57bffb976c81668993e97f5b0183ee3775a79fa8-gzip\""}|||304|{"path":"/app/mychannel/frontend-web/public/client-customer-portal/favicon.ico","settings":{"confine":"/app/mychannel/frontend-web/public/client-customer-portal"},"stat":null,"fd":null}|0.003
2017-04-04 14:06:31.338|1491289591338:PMYCHAW901G:5818:j0w9ivtt:11531|10.239.223.141||GET|/customer-portal/favicon.ico|{"host":"10.195.208.89:8443","user-agent":"Mozilla/5.0 (Windows NT 6.1; rv:46.0) Gecko/20100101 Firefox/46.0","accept":"text/html,application/xhtml+xml,application/xml;q=0.9,*/*;q=0.8","accept-language":"en-US,en;q=0.5","accept-encoding":"gzip, deflate, br","connection":"keep-alive","if-modified-since":"Wed, 29 Mar 2017 03:51:51 GMT","if-none-match":"\"57bffb976c81668993e97f5b0183ee3775a79fa8-gzip\""}|||304|{"path":"/app/mychannel/frontend-web/public/client-customer-portal/favicon.ico","settings":{"confine":"/app/mychannel/frontend-web/public/client-customer-portal"},"stat":null,"fd":null}|0.002
2017-04-04 14:06:31.360|1491289591360:PMYCHAW901G:5818:j0w9ivtt:11532|10.239.223.141||GET|/customer-portal/inline.fbcaba5f911e10de2eed.bundle.js|{"host":"10.195.208.89:8443","user-agent":"Mozilla/5.0 (Windows NT 6.1; rv:46.0) Gecko/20100101 Firefox/46.0","accept":"*/*","accept-language":"en-US,en;q=0.5","accept-encoding":"gzip, deflate, br","referer":"https://10.195.208.89:8443/customer-portal/","connection":"keep-alive","if-modified-since":"Wed, 29 Mar 2017 03:51:51 GMT","if-none-match":"\"3b6c0681ec869faa380104c4387058440e488d7b-gzip\""}|||304|{"path":"/app/mychannel/frontend-web/public/client-customer-portal/inline.fbcaba5f911e10de2eed.bundle.js","settings":{"confine":"/app/mychannel/frontend-web/public/client-customer-portal"},"stat":null,"fd":null}|0.004
2017-04-04 14:06:31.375|1491289591375:PMYCHAW901G:5818:j0w9ivtt:11533|10.239.223.141||GET|/customer-portal/scripts.ae44f0deb89bb3359516.bundle.js|{"host":"10.195.208.89:8443","user-agent":"Mozilla/5.0 (Windows NT 6.1; rv:46.0) Gecko/20100101 Firefox/46.0","accept":"*/*","accept-language":"en-US,en;q=0.5","accept-encoding":"gzip, deflate, br","referer":"https://10.195.208.89:8443/customer-portal/","connection":"keep-alive","if-modified-since":"Wed, 29 Mar 2017 03:51:51 GMT","if-none-match":"\"e31634bda38592fba3a82468c98c99bc2fa1f6f5-gzip\""}|||304|{"path":"/app/mychannel/frontend-web/public/client-customer-portal/scripts.ae44f0deb89bb3359516.bundle.js","settings":{"confine":"/app/mychannel/frontend-web/public/client-customer-portal"},"stat":null,"fd":null}|0.003
2017-04-04 14:06:31.398|1491289591398:PMYCHAW901G:5818:j0w9ivtt:11534|10.239.223.141||GET|/customer-portal/vendor.efa0fdf6c3ae2758fb0f.bundle.js|{"host":"10.195.208.89:8443","user-agent":"Mozilla/5.0 (Windows NT 6.1; rv:46.0) Gecko/20100101 Firefox/46.0","accept":"*/*","accept-language":"en-US,en;q=0.5","accept-encoding":"gzip, deflate, br","referer":"https://10.195.208.89:8443/customer-portal/","connection":"keep-alive","if-modified-since":"Wed, 29 Mar 2017 03:51:52 GMT","if-none-match":"\"f2b4fe616d24a61293a3aecd4bfa590068f1ac59-gzip\""}|||304|{"path":"/app/mychannel/frontend-web/public/client-customer-portal/vendor.efa0fdf6c3ae2758fb0f.bundle.js","settings":{"confine":"/app/mychannel/frontend-web/public/client-customer-portal"},"stat":null,"fd":null}|0.002
2017-04-04 14:06:31.410|1491289591410:PMYCHAW901G:5818:j0w9ivtt:11535|10.239.223.141||GET|/customer-portal/main.4abaee9285fd23db3d06.bundle.js|{"host":"10.195.208.89:8443","user-agent":"Mozilla/5.0 (Windows NT 6.1; rv:46.0) Gecko/20100101 Firefox/46.0","accept":"*/*","accept-language":"en-US,en;q=0.5","accept-encoding":"gzip, deflate, br","referer":"https://10.195.208.89:8443/customer-portal/","connection":"keep-alive","if-modified-since":"Wed, 29 Mar 2017 03:51:51 GMT","if-none-match":"\"3f923a5bca93cb47fc26e35aa1a3b118cf0dd464-gzip\""}|||304|{"path":"/app/mychannel/frontend-web/public/client-customer-portal/main.4abaee9285fd23db3d06.bundle.js","settings":{"confine":"/app/mychannel/frontend-web/public/client-customer-portal"},"stat":null,"fd":null}|0.002
2017-04-04 14:06:31.675|1491289591675:PMYCHAW901G:5818:j0w9ivtt:11536|10.239.223.141||GET|/customer-portal/db_helvethaicaais_x_v3.2-webfont.eadf432c777807001bf0.woff|{"host":"10.195.208.89:8443","user-agent":"Mozilla/5.0 (Windows NT 6.1; rv:46.0) Gecko/20100101 Firefox/46.0","accept":"application/font-woff2;q=1.0,application/font-woff;q=0.9,*/*;q=0.8","accept-language":"en-US,en;q=0.5","accept-encoding":"identity","referer":"https://10.195.208.89:8443/customer-portal/styles.aed3af2c28dbae396718.bundle.css","connection":"keep-alive","if-modified-since":"Wed, 29 Mar 2017 03:51:51 GMT","if-none-match":"\"65d36184b2946d8e2b280a7841c28aabc54ab3d8\""}|||304|{"path":"/app/mychannel/frontend-web/public/client-customer-portal/db_helvethaicaais_x_v3.2-webfont.eadf432c777807001bf0.woff","settings":{"confine":"/app/mychannel/frontend-web/public/client-customer-portal"},"stat":null,"fd":null}|0.003
2017-04-04 14:06:32.431|1491289592431:PMYCHAW901G:5812:j0w9ivr3:11473|10.239.223.141||GET|/customer-portal/0.bc81d97b42b8dcb6f4ea.chunk.js|{"host":"10.195.208.89:8443","user-agent":"Mozilla/5.0 (Windows NT 6.1; rv:46.0) Gecko/20100101 Firefox/46.0","accept":"*/*","accept-language":"en-US,en;q=0.5","accept-encoding":"gzip, deflate, br","referer":"https://10.195.208.89:8443/customer-portal/","connection":"keep-alive","if-modified-since":"Wed, 29 Mar 2017 03:51:50 GMT","if-none-match":"\"4c5536b79a8078e741766333463e022119a8d12d-gzip\""}|||304|{"path":"/app/mychannel/frontend-web/public/client-customer-portal/0.bc81d97b42b8dcb6f4ea.chunk.js","settings":{"confine":"/app/mychannel/frontend-web/public/client-customer-portal"},"stat":null,"fd":null}|0.007
2017-04-04 14:06:32.577|1491289592577:PMYCHAW901G:5818:j0w9ivtt:11537|10.239.223.141||GET|/customer-portal/assets/images/icon/icon-ais-logo.png|{"host":"10.195.208.89:8443","user-agent":"Mozilla/5.0 (Windows NT 6.1; rv:46.0) Gecko/20100101 Firefox/46.0","accept":"image/png,image/*;q=0.8,*/*;q=0.5","accept-language":"en-US,en;q=0.5","accept-encoding":"gzip, deflate, br","referer":"https://10.195.208.89:8443/customer-portal/","connection":"keep-alive","if-modified-since":"Wed, 29 Mar 2017 03:52:38 GMT","if-none-match":"\"cc9f850d62173656ab54a3ba82cfb24752b59856\""}|||304|{"path":"/app/mychannel/frontend-web/public/client-customer-portal/assets/images/icon/icon-ais-logo.png","settings":{"confine":"/app/mychannel/frontend-web/public/client-customer-portal"},"stat":null,"fd":null}|0.003
2017-04-04 14:06:32.607|1491289592607:PMYCHAW901G:5812:j0w9ivr3:11474|10.239.223.141||GET|/customer-portal/assets/images/icon/icon-arrow-left.png|{"host":"10.195.208.89:8443","user-agent":"Mozilla/5.0 (Windows NT 6.1; rv:46.0) Gecko/20100101 Firefox/46.0","accept":"image/png,image/*;q=0.8,*/*;q=0.5","accept-language":"en-US,en;q=0.5","accept-encoding":"gzip, deflate, br","referer":"https://10.195.208.89:8443/customer-portal/","connection":"keep-alive","if-modified-since":"Wed, 29 Mar 2017 03:52:38 GMT","if-none-match":"\"69ca4cc589836399f33749aae73075e694ccd7d0\""}|||304|{"path":"/app/mychannel/frontend-web/public/client-customer-portal/assets/images/icon/icon-arrow-left.png","settings":{"confine":"/app/mychannel/frontend-web/public/client-customer-portal"},"stat":null,"fd":null}|0.005
