-|-|-|-|-|-|-|-|-|-|-|-|
2017-04-11 09:57:50.012|1491879470012:PMYCHAW901G:5866:j14u3rwj:10050|10.195.161.26||GET|/customer-portal|{"host":"mychannel.ais.co.th","user-agent":"Mozilla/5.0 (Windows NT 6.1; rv:46.0) Gecko/20100101 Firefox/46.0","accept":"text/html,application/xhtml+xml,application/xml;q=0.9,*/*;q=0.8","accept-language":"en-US,en;q=0.5","accept-encoding":"gzip, deflate, br","cookie":"__utma=110453781.1131721198.1430117861.1490783892.1490783892.1; __utmz=110453781.1490783892.1.1.utmcsr=search.ais.co.th|utmccn=(referral)|utmcmd=referral|utmcct=/; _uid25621=072DB3EC.451; _ga=GA1.3.1131721198.1430117861; AMCV_46FAEF9957D778167F000101%40AdobeOrg=-1176276602%7CMCIDTS%7C17255%7CMCMID%7C80100217200417277171028837534126541095%7CMCAAMLH-1491377086%7C3%7CMCAAMB-1491388578%7CNRX38WO0n5BH8Th-nqAG_A%7CMCOPTOUT-1490790978s%7CNONE%7CMCAID%7CNONE; s_nr=1490783895079-Repeat; mbox=PC#3ea9959f24a24f628e47431f85a7a30e.24_11#1491993489|session#f171c336b79743ff96a23faf3ea300a4#1490785749|check#true#1490783949","connection":"keep-alive"}|||302||0.031
2017-04-11 09:57:50.290|1491879470290:PMYCHAW901G:5866:j14u3rwj:10051|10.195.161.26||GET|/customer-portal/|{"host":"mychannel.ais.co.th","user-agent":"Mozilla/5.0 (Windows NT 6.1; rv:46.0) Gecko/20100101 Firefox/46.0","accept":"text/html,application/xhtml+xml,application/xml;q=0.9,*/*;q=0.8","accept-language":"en-US,en;q=0.5","accept-encoding":"gzip, deflate, br","cookie":"__utma=110453781.1131721198.1430117861.1490783892.1490783892.1; __utmz=110453781.1490783892.1.1.utmcsr=search.ais.co.th|utmccn=(referral)|utmcmd=referral|utmcct=/; _uid25621=072DB3EC.451; _ga=GA1.3.1131721198.1430117861; AMCV_46FAEF9957D778167F000101%40AdobeOrg=-1176276602%7CMCIDTS%7C17255%7CMCMID%7C80100217200417277171028837534126541095%7CMCAAMLH-1491377086%7C3%7CMCAAMB-1491388578%7CNRX38WO0n5BH8Th-nqAG_A%7CMCOPTOUT-1490790978s%7CNONE%7CMCAID%7CNONE; s_nr=1490783895079-Repeat; mbox=PC#3ea9959f24a24f628e47431f85a7a30e.24_11#1491993489|session#f171c336b79743ff96a23faf3ea300a4#1490785749|check#true#1490783949","connection":"keep-alive","if-modified-since":"Wed, 29 Mar 2017 03:50:09 GMT","if-none-match":"\"89e1b50837c5c151ed10197a7c6623b64b0fa530-gzip\""}|||304|{"path":"/app/mychannel/frontend-web/public/client-customer-portal/index.html","settings":{"confine":"/app/mychannel/frontend-web/public/client-customer-portal"},"stat":null,"fd":null}|0.012
2017-04-11 09:57:50.385|1491879470385:PMYCHAW901G:5866:j14u3rwj:10052|10.195.161.26||GET|/customer-portal/inline.fbcaba5f911e10de2eed.bundle.js|{"host":"mychannel.ais.co.th","user-agent":"Mozilla/5.0 (Windows NT 6.1; rv:46.0) Gecko/20100101 Firefox/46.0","accept":"*/*","accept-language":"en-US,en;q=0.5","accept-encoding":"gzip, deflate, br","referer":"https://mychannel.ais.co.th/customer-portal/","cookie":"__utma=110453781.1131721198.1430117861.1490783892.1490783892.1; __utmz=110453781.1490783892.1.1.utmcsr=search.ais.co.th|utmccn=(referral)|utmcmd=referral|utmcct=/; _uid25621=072DB3EC.451; _ga=GA1.3.1131721198.1430117861; AMCV_46FAEF9957D778167F000101%40AdobeOrg=-1176276602%7CMCIDTS%7C17255%7CMCMID%7C80100217200417277171028837534126541095%7CMCAAMLH-1491377086%7C3%7CMCAAMB-1491388578%7CNRX38WO0n5BH8Th-nqAG_A%7CMCOPTOUT-1490790978s%7CNONE%7CMCAID%7CNONE; s_nr=1490783895079-Repeat; mbox=PC#3ea9959f24a24f628e47431f85a7a30e.24_11#1491993489|session#f171c336b79743ff96a23faf3ea300a4#1490785749|check#true#1490783949","connection":"keep-alive"}|||200|{"path":"/app/mychannel/frontend-web/public/client-customer-portal/inline.fbcaba5f911e10de2eed.bundle.js","settings":{"confine":"/app/mychannel/frontend-web/public/client-customer-portal"},"stat":null,"fd":null}|0.012
2017-04-11 09:57:50.497|1491879470497:PMYCHAW901G:5866:j14u3rwj:10054|10.195.161.26||GET|/customer-portal/styles.aed3af2c28dbae396718.bundle.css|{"host":"mychannel.ais.co.th","user-agent":"Mozilla/5.0 (Windows NT 6.1; rv:46.0) Gecko/20100101 Firefox/46.0","accept":"text/css,*/*;q=0.1","accept-language":"en-US,en;q=0.5","accept-encoding":"gzip, deflate, br","referer":"https://mychannel.ais.co.th/customer-portal/","cookie":"__utma=110453781.1131721198.1430117861.1490783892.1490783892.1; __utmz=110453781.1490783892.1.1.utmcsr=search.ais.co.th|utmccn=(referral)|utmcmd=referral|utmcct=/; _uid25621=072DB3EC.451; _ga=GA1.3.1131721198.1430117861; AMCV_46FAEF9957D778167F000101%40AdobeOrg=-1176276602%7CMCIDTS%7C17255%7CMCMID%7C80100217200417277171028837534126541095%7CMCAAMLH-1491377086%7C3%7CMCAAMB-1491388578%7CNRX38WO0n5BH8Th-nqAG_A%7CMCOPTOUT-1490790978s%7CNONE%7CMCAID%7CNONE; s_nr=1490783895079-Repeat; mbox=PC#3ea9959f24a24f628e47431f85a7a30e.24_11#1491993489|session#f171c336b79743ff96a23faf3ea300a4#1490785749|check#true#1490783949","connection":"keep-alive","if-modified-since":"Wed, 29 Mar 2017 03:50:10 GMT","if-none-match":"\"05b9a8f1c9e45b0ec853e20de37307114afe5e8d-gzip\""}|||304|{"path":"/app/mychannel/frontend-web/public/client-customer-portal/styles.aed3af2c28dbae396718.bundle.css","settings":{"confine":"/app/mychannel/frontend-web/public/client-customer-portal"},"stat":null,"fd":null}|0.004
2017-04-11 09:57:50.473|1491879470473:PMYCHAW901G:5850:j14u3rwi:10097|10.195.161.26||GET|/customer-portal/polyfills.33c6381b31ba97fee5bf.bundle.js|{"host":"mychannel.ais.co.th","user-agent":"Mozilla/5.0 (Windows NT 6.1; rv:46.0) Gecko/20100101 Firefox/46.0","accept":"*/*","accept-language":"en-US,en;q=0.5","accept-encoding":"gzip, deflate, br","referer":"https://mychannel.ais.co.th/customer-portal/","cookie":"__utma=110453781.1131721198.1430117861.1490783892.1490783892.1; __utmz=110453781.1490783892.1.1.utmcsr=search.ais.co.th|utmccn=(referral)|utmcmd=referral|utmcct=/; _uid25621=072DB3EC.451; _ga=GA1.3.1131721198.1430117861; AMCV_46FAEF9957D778167F000101%40AdobeOrg=-1176276602%7CMCIDTS%7C17255%7CMCMID%7C80100217200417277171028837534126541095%7CMCAAMLH-1491377086%7C3%7CMCAAMB-1491388578%7CNRX38WO0n5BH8Th-nqAG_A%7CMCOPTOUT-1490790978s%7CNONE%7CMCAID%7CNONE; s_nr=1490783895079-Repeat; mbox=PC#3ea9959f24a24f628e47431f85a7a30e.24_11#1491993489|session#f171c336b79743ff96a23faf3ea300a4#1490785749|check#true#1490783949","connection":"keep-alive"}|||200|{"path":"/app/mychannel/frontend-web/public/client-customer-portal/polyfills.33c6381b31ba97fee5bf.bundle.js","settings":{"confine":"/app/mychannel/frontend-web/public/client-customer-portal"},"stat":null,"fd":null}|0.049
2017-04-11 09:57:50.465|1491879470465:PMYCHAW901G:5866:j14u3rwj:10053|10.195.161.26||GET|/customer-portal/vendor.efa0fdf6c3ae2758fb0f.bundle.js|{"host":"mychannel.ais.co.th","user-agent":"Mozilla/5.0 (Windows NT 6.1; rv:46.0) Gecko/20100101 Firefox/46.0","accept":"*/*","accept-language":"en-US,en;q=0.5","accept-encoding":"gzip, deflate, br","referer":"https://mychannel.ais.co.th/customer-portal/","cookie":"__utma=110453781.1131721198.1430117861.1490783892.1490783892.1; __utmz=110453781.1490783892.1.1.utmcsr=search.ais.co.th|utmccn=(referral)|utmcmd=referral|utmcct=/; _uid25621=072DB3EC.451; _ga=GA1.3.1131721198.1430117861; AMCV_46FAEF9957D778167F000101%40AdobeOrg=-1176276602%7CMCIDTS%7C17255%7CMCMID%7C80100217200417277171028837534126541095%7CMCAAMLH-1491377086%7C3%7CMCAAMB-1491388578%7CNRX38WO0n5BH8Th-nqAG_A%7CMCOPTOUT-1490790978s%7CNONE%7CMCAID%7CNONE; s_nr=1490783895079-Repeat; mbox=PC#3ea9959f24a24f628e47431f85a7a30e.24_11#1491993489|session#f171c336b79743ff96a23faf3ea300a4#1490785749|check#true#1490783949","connection":"keep-alive"}|||200|{"path":"/app/mychannel/frontend-web/public/client-customer-portal/vendor.efa0fdf6c3ae2758fb0f.bundle.js","settings":{"confine":"/app/mychannel/frontend-web/public/client-customer-portal"},"stat":null,"fd":null}|0.076
2017-04-11 09:57:51.620|1491879471620:PMYCHAW901G:5866:j14u3rwj:10055|10.195.161.26||GET|/customer-portal/favicon.ico|{"host":"mychannel.ais.co.th","user-agent":"Mozilla/5.0 (Windows NT 6.1; rv:46.0) Gecko/20100101 Firefox/46.0","accept":"text/html,application/xhtml+xml,application/xml;q=0.9,*/*;q=0.8","accept-language":"en-US,en;q=0.5","accept-encoding":"gzip, deflate, br","cookie":"__utma=110453781.1131721198.1430117861.1490783892.1490783892.1; __utmz=110453781.1490783892.1.1.utmcsr=search.ais.co.th|utmccn=(referral)|utmcmd=referral|utmcct=/; _uid25621=072DB3EC.451; _ga=GA1.3.1131721198.1430117861; AMCV_46FAEF9957D778167F000101%40AdobeOrg=-1176276602%7CMCIDTS%7C17255%7CMCMID%7C80100217200417277171028837534126541095%7CMCAAMLH-1491377086%7C3%7CMCAAMB-1491388578%7CNRX38WO0n5BH8Th-nqAG_A%7CMCOPTOUT-1490790978s%7CNONE%7CMCAID%7CNONE; s_nr=1490783895079-Repeat; mbox=PC#3ea9959f24a24f628e47431f85a7a30e.24_11#1491993489|session#f171c336b79743ff96a23faf3ea300a4#1490785749|check#true#1490783949","connection":"keep-alive","if-modified-since":"Wed, 29 Mar 2017 03:50:09 GMT","if-none-match":"\"57bffb976c81668993e97f5b0183ee3775a79fa8-gzip\""}|||304|{"path":"/app/mychannel/frontend-web/public/client-customer-portal/favicon.ico","settings":{"confine":"/app/mychannel/frontend-web/public/client-customer-portal"},"stat":null,"fd":null}|0.007
2017-04-11 09:57:51.622|1491879471622:PMYCHAW901G:5866:j14u3rwj:10056|10.195.161.26||GET|/customer-portal/main.4abaee9285fd23db3d06.bundle.js|{"host":"mychannel.ais.co.th","user-agent":"Mozilla/5.0 (Windows NT 6.1; rv:46.0) Gecko/20100101 Firefox/46.0","accept":"*/*","accept-language":"en-US,en;q=0.5","accept-encoding":"gzip, deflate, br","referer":"https://mychannel.ais.co.th/customer-portal/","cookie":"__utma=110453781.1131721198.1430117861.1490783892.1490783892.1; __utmz=110453781.1490783892.1.1.utmcsr=search.ais.co.th|utmccn=(referral)|utmcmd=referral|utmcct=/; _uid25621=072DB3EC.451; _ga=GA1.3.1131721198.1430117861; AMCV_46FAEF9957D778167F000101%40AdobeOrg=-1176276602%7CMCIDTS%7C17255%7CMCMID%7C80100217200417277171028837534126541095%7CMCAAMLH-1491377086%7C3%7CMCAAMB-1491388578%7CNRX38WO0n5BH8Th-nqAG_A%7CMCOPTOUT-1490790978s%7CNONE%7CMCAID%7CNONE; s_nr=1490783895079-Repeat; mbox=PC#3ea9959f24a24f628e47431f85a7a30e.24_11#1491993489|session#f171c336b79743ff96a23faf3ea300a4#1490785749|check#true#1490783949","connection":"keep-alive","if-modified-since":"Wed, 29 Mar 2017 03:50:10 GMT","if-none-match":"\"3f923a5bca93cb47fc26e35aa1a3b118cf0dd464-gzip\""}|||304|{"path":"/app/mychannel/frontend-web/public/client-customer-portal/main.4abaee9285fd23db3d06.bundle.js","settings":{"confine":"/app/mychannel/frontend-web/public/client-customer-portal"},"stat":null,"fd":null}|0.007
2017-04-11 09:57:51.623|1491879471623:PMYCHAW901G:5850:j14u3rwi:10098|10.195.161.26||GET|/customer-portal/scripts.ae44f0deb89bb3359516.bundle.js|{"host":"mychannel.ais.co.th","user-agent":"Mozilla/5.0 (Windows NT 6.1; rv:46.0) Gecko/20100101 Firefox/46.0","accept":"*/*","accept-language":"en-US,en;q=0.5","accept-encoding":"gzip, deflate, br","referer":"https://mychannel.ais.co.th/customer-portal/","cookie":"__utma=110453781.1131721198.1430117861.1490783892.1490783892.1; __utmz=110453781.1490783892.1.1.utmcsr=search.ais.co.th|utmccn=(referral)|utmcmd=referral|utmcct=/; _uid25621=072DB3EC.451; _ga=GA1.3.1131721198.1430117861; AMCV_46FAEF9957D778167F000101%40AdobeOrg=-1176276602%7CMCIDTS%7C17255%7CMCMID%7C80100217200417277171028837534126541095%7CMCAAMLH-1491377086%7C3%7CMCAAMB-1491388578%7CNRX38WO0n5BH8Th-nqAG_A%7CMCOPTOUT-1490790978s%7CNONE%7CMCAID%7CNONE; s_nr=1490783895079-Repeat; mbox=PC#3ea9959f24a24f628e47431f85a7a30e.24_11#1491993489|session#f171c336b79743ff96a23faf3ea300a4#1490785749|check#true#1490783949","connection":"keep-alive","if-modified-since":"Wed, 29 Mar 2017 03:50:10 GMT","if-none-match":"\"e31634bda38592fba3a82468c98c99bc2fa1f6f5-gzip\""}|||304|{"path":"/app/mychannel/frontend-web/public/client-customer-portal/scripts.ae44f0deb89bb3359516.bundle.js","settings":{"confine":"/app/mychannel/frontend-web/public/client-customer-portal"},"stat":null,"fd":null}|0.008
2017-04-11 09:57:51.757|1491879471757:PMYCHAW901G:5866:j14u3rwj:10057|10.195.161.26||GET|/customer-portal/favicon.ico|{"host":"mychannel.ais.co.th","user-agent":"Mozilla/5.0 (Windows NT 6.1; rv:46.0) Gecko/20100101 Firefox/46.0","accept":"text/html,application/xhtml+xml,application/xml;q=0.9,*/*;q=0.8","accept-language":"en-US,en;q=0.5","accept-encoding":"gzip, deflate, br","cookie":"__utma=110453781.1131721198.1430117861.1490783892.1490783892.1; __utmz=110453781.1490783892.1.1.utmcsr=search.ais.co.th|utmccn=(referral)|utmcmd=referral|utmcct=/; _uid25621=072DB3EC.451; _ga=GA1.3.1131721198.1430117861; AMCV_46FAEF9957D778167F000101%40AdobeOrg=-1176276602%7CMCIDTS%7C17255%7CMCMID%7C80100217200417277171028837534126541095%7CMCAAMLH-1491377086%7C3%7CMCAAMB-1491388578%7CNRX38WO0n5BH8Th-nqAG_A%7CMCOPTOUT-1490790978s%7CNONE%7CMCAID%7CNONE; s_nr=1490783895079-Repeat; mbox=PC#3ea9959f24a24f628e47431f85a7a30e.24_11#1491993489|session#f171c336b79743ff96a23faf3ea300a4#1490785749|check#true#1490783949","connection":"keep-alive"}|||200|{"path":"/app/mychannel/frontend-web/public/client-customer-portal/favicon.ico","settings":{"confine":"/app/mychannel/frontend-web/public/client-customer-portal"},"stat":null,"fd":null}|0.007
2017-04-11 09:57:52.815|1491879472815:PMYCHAW901G:5866:j14u3rwj:10058|10.195.161.26||GET|/customer-portal/0.bc81d97b42b8dcb6f4ea.chunk.js|{"host":"mychannel.ais.co.th","user-agent":"Mozilla/5.0 (Windows NT 6.1; rv:46.0) Gecko/20100101 Firefox/46.0","accept":"*/*","accept-language":"en-US,en;q=0.5","accept-encoding":"gzip, deflate, br","referer":"https://mychannel.ais.co.th/customer-portal/","cookie":"__utma=110453781.1131721198.1430117861.1490783892.1490783892.1; __utmz=110453781.1490783892.1.1.utmcsr=search.ais.co.th|utmccn=(referral)|utmcmd=referral|utmcct=/; _uid25621=072DB3EC.451; _ga=GA1.3.1131721198.1430117861; AMCV_46FAEF9957D778167F000101%40AdobeOrg=-1176276602%7CMCIDTS%7C17255%7CMCMID%7C80100217200417277171028837534126541095%7CMCAAMLH-1491377086%7C3%7CMCAAMB-1491388578%7CNRX38WO0n5BH8Th-nqAG_A%7CMCOPTOUT-1490790978s%7CNONE%7CMCAID%7CNONE; s_nr=1490783895079-Repeat; mbox=PC#3ea9959f24a24f628e47431f85a7a30e.24_11#1491993489|session#f171c336b79743ff96a23faf3ea300a4#1490785749|check#true#1490783949","connection":"keep-alive","if-modified-since":"Wed, 29 Mar 2017 03:50:09 GMT","if-none-match":"\"4c5536b79a8078e741766333463e022119a8d12d-gzip\""}|||304|{"path":"/app/mychannel/frontend-web/public/client-customer-portal/0.bc81d97b42b8dcb6f4ea.chunk.js","settings":{"confine":"/app/mychannel/frontend-web/public/client-customer-portal"},"stat":null,"fd":null}|0.003
2017-04-11 09:57:53.238|1491879473238:PMYCHAW901G:5866:j14u3rwj:10059|10.195.161.26||GET|/customer-portal/assets/images/icon/icon-ais-logo.png|{"host":"mychannel.ais.co.th","user-agent":"Mozilla/5.0 (Windows NT 6.1; rv:46.0) Gecko/20100101 Firefox/46.0","accept":"image/png,image/*;q=0.8,*/*;q=0.5","accept-language":"en-US,en;q=0.5","accept-encoding":"gzip, deflate, br","referer":"https://mychannel.ais.co.th/customer-portal/","cookie":"__utma=110453781.1131721198.1430117861.1490783892.1490783892.1; __utmz=110453781.1490783892.1.1.utmcsr=search.ais.co.th|utmccn=(referral)|utmcmd=referral|utmcct=/; _uid25621=072DB3EC.451; _ga=GA1.3.1131721198.1430117861; AMCV_46FAEF9957D778167F000101%40AdobeOrg=-1176276602%7CMCIDTS%7C17255%7CMCMID%7C80100217200417277171028837534126541095%7CMCAAMLH-1491377086%7C3%7CMCAAMB-1491388578%7CNRX38WO0n5BH8Th-nqAG_A%7CMCOPTOUT-1490790978s%7CNONE%7CMCAID%7CNONE; s_nr=1490783895079-Repeat; mbox=PC#3ea9959f24a24f628e47431f85a7a30e.24_11#1491993489|session#f171c336b79743ff96a23faf3ea300a4#1490785749|check#true#1490783949","connection":"keep-alive","if-modified-since":"Wed, 29 Mar 2017 03:50:59 GMT","if-none-match":"\"cc9f850d62173656ab54a3ba82cfb24752b59856\""}|||304|{"path":"/app/mychannel/frontend-web/public/client-customer-portal/assets/images/icon/icon-ais-logo.png","settings":{"confine":"/app/mychannel/frontend-web/public/client-customer-portal"},"stat":null,"fd":null}|0.002
2017-04-11 09:57:53.242|1491879473242:PMYCHAW901G:5850:j14u3rwi:10099|10.195.161.26||GET|/customer-portal/assets/images/icon/icon-arrow-left.png|{"host":"mychannel.ais.co.th","user-agent":"Mozilla/5.0 (Windows NT 6.1; rv:46.0) Gecko/20100101 Firefox/46.0","accept":"image/png,image/*;q=0.8,*/*;q=0.5","accept-language":"en-US,en;q=0.5","accept-encoding":"gzip, deflate, br","referer":"https://mychannel.ais.co.th/customer-portal/","cookie":"__utma=110453781.1131721198.1430117861.1490783892.1490783892.1; __utmz=110453781.1490783892.1.1.utmcsr=search.ais.co.th|utmccn=(referral)|utmcmd=referral|utmcct=/; _uid25621=072DB3EC.451; _ga=GA1.3.1131721198.1430117861; AMCV_46FAEF9957D778167F000101%40AdobeOrg=-1176276602%7CMCIDTS%7C17255%7CMCMID%7C80100217200417277171028837534126541095%7CMCAAMLH-1491377086%7C3%7CMCAAMB-1491388578%7CNRX38WO0n5BH8Th-nqAG_A%7CMCOPTOUT-1490790978s%7CNONE%7CMCAID%7CNONE; s_nr=1490783895079-Repeat; mbox=PC#3ea9959f24a24f628e47431f85a7a30e.24_11#1491993489|session#f171c336b79743ff96a23faf3ea300a4#1490785749|check#true#1490783949","connection":"keep-alive","if-modified-since":"Wed, 29 Mar 2017 03:50:59 GMT","if-none-match":"\"69ca4cc589836399f33749aae73075e694ccd7d0\""}|||304|{"path":"/app/mychannel/frontend-web/public/client-customer-portal/assets/images/icon/icon-arrow-left.png","settings":{"confine":"/app/mychannel/frontend-web/public/client-customer-portal"},"stat":null,"fd":null}|0.004
2017-04-11 09:57:53.365|1491879473365:PMYCHAW901G:5866:j14u3rwj:10060|10.195.161.26||GET|/customer-portal/favicon.ico|{"host":"mychannel.ais.co.th","user-agent":"Mozilla/5.0 (Windows NT 6.1; rv:46.0) Gecko/20100101 Firefox/46.0","accept":"image/png,image/*;q=0.8,*/*;q=0.5","accept-language":"en-US,en;q=0.5","accept-encoding":"gzip, deflate, br","cookie":"__utma=110453781.1131721198.1430117861.1490783892.1490783892.1; __utmz=110453781.1490783892.1.1.utmcsr=search.ais.co.th|utmccn=(referral)|utmcmd=referral|utmcct=/; _uid25621=072DB3EC.451; _ga=GA1.3.1131721198.1430117861; AMCV_46FAEF9957D778167F000101%40AdobeOrg=-1176276602%7CMCIDTS%7C17255%7CMCMID%7C80100217200417277171028837534126541095%7CMCAAMLH-1491377086%7C3%7CMCAAMB-1491388578%7CNRX38WO0n5BH8Th-nqAG_A%7CMCOPTOUT-1490790978s%7CNONE%7CMCAID%7CNONE; s_nr=1490783895079-Repeat; mbox=PC#3ea9959f24a24f628e47431f85a7a30e.24_11#1491993489|session#f171c336b79743ff96a23faf3ea300a4#1490785749|check#true#1490783949","connection":"keep-alive"}|||200|{"path":"/app/mychannel/frontend-web/public/client-customer-portal/favicon.ico","settings":{"confine":"/app/mychannel/frontend-web/public/client-customer-portal"},"stat":null,"fd":null}|0.004
2017-04-11 09:57:57.531|1491879477531:PMYCHAW901G:5866:j14u3rwj:10061|10.195.161.26||POST|/api/auth/refreshToken|{"host":"mychannel.ais.co.th","user-agent":"Mozilla/5.0 (Windows NT 6.1; rv:46.0) Gecko/20100101 Firefox/46.0","accept":"application/json, text/plain, */*","accept-language":"en-US,en;q=0.5","accept-encoding":"gzip, deflate, br","content-type":"text/plain","x-authorization":"Bearer undefined","referer":"https://mychannel.ais.co.th/customer-portal/","content-length":"2","cookie":"__utma=110453781.1131721198.1430117861.1490783892.1490783892.1; __utmz=110453781.1490783892.1.1.utmcsr=search.ais.co.th|utmccn=(referral)|utmcmd=referral|utmcct=/; _uid25621=072DB3EC.451; _ga=GA1.3.1131721198.1430117861; AMCV_46FAEF9957D778167F000101%40AdobeOrg=-1176276602%7CMCIDTS%7C17255%7CMCMID%7C80100217200417277171028837534126541095%7CMCAAMLH-1491377086%7C3%7CMCAAMB-1491388578%7CNRX38WO0n5BH8Th-nqAG_A%7CMCOPTOUT-1490790978s%7CNONE%7CMCAID%7CNONE; s_nr=1490783895079-Repeat; mbox=PC#3ea9959f24a24f628e47431f85a7a30e.24_11#1491993489|session#f171c336b79743ff96a23faf3ea300a4#1490785749|check#true#1490783949","connection":"keep-alive"}||"{}"|401||0.089
