-|-|-|-|-|-|-|-|-|-|-|-|-|-|
2017-04-05 14:21:53.000|1491376913618:PMYCHAW901G:23249:j14hecqb:10127|10.195.161.26|201704051421536213601|GET|http://10.198.40.23:8443/api/auth/aisToken|{"x-api-request-id":"201704051421536213601","x-authorization":"Bearer eyJhbGciOiJIUzI1NiIsInR5cCI6IkpXVCJ9.eyJ1c2VybmFtZSI6IkNIQU5QSEVTIiwidGltZXN0YW1wIjoiMjAxNzA0MDUxNDIwIiwibG9jYXRpb25Db2RlIjoiMTAwNiIsImlhdCI6MTQ5MTM3NjgxNiwiZXhwIjoxNDkxMzc2OTM2fQ.UgowveR_rGN7bDnEXoOgXg2Q46ve3w_08Mm4tENJ_WA"}|||200|{"resultCode":"20000","resultDescription":"Success","developerMessage":"Success","data":{"token":"tjHoZ6FgbX4JoSAqneKF3LOdD6nn1zZZPFLUk0PgxEY="}}|33||null
2017-04-05 14:25:38.000|1491377138523:PMYCHAW901G:23265:j14hecrd:10128|10.195.161.26|201704051425385260236|GET|http://10.198.40.23:8443/api/auth/login?tokenID=tjHoZ6FgbX4JoSAqneKF3MmnP7KPvickamU5brt4070%3D|{"x-api-request-id":"201704051425385260236"}|||200|{"resultCode":"20000","resultDescription":"Success","developerMessage":"Success","data":{"accessToken":"eyJhbGciOiJIUzI1NiIsInR5cCI6IkpXVCJ9.eyJ1c2VybmFtZSI6IkNIQU5QSEVTIiwidGltZXN0YW1wIjoiMjAxNzA0MDUxNDI1IiwibG9jYXRpb25Db2RlIjoiMTAwNiIsImlhdCI6MTQ5MTM3NzE0MSwiZXhwIjoxNDkxMzc3MjYxfQ.ad-jmfJtAMVDzUmYw_H3FE8F3RDcYHq6FU8E1rd0uB0","refreshToken":"eyJhbGciOiJIUzI1NiIsInR5cCI6IkpXVCJ9.eyJ1c2VybmFtZSI6IkNIQU5QSEVTIiwidGltZXN0YW1wIjoiMjAxNzA0MDUxNDI1IiwibG9jYXRpb25Db2RlIjoiMTAwNiIsImlhdCI6MTQ5MTM3NzE0MSwiZXhwIjoxNDkxMzc4MDQxfQ.F497ZKX0GpbV4DJdb7Cll5U7iseYE5A2kaZ1ljPK6yE"}}|23||null
2017-04-05 14:28:48.000|1491377328429:PMYCHAW901G:23265:j14hecrd:10148|10.195.161.26|201704051428484334151|POST|http://10.198.40.23:8443/api/auth/refreshToken|{"x-api-request-id":"201704051428484334151","x-authorization":"Bearer eyJhbGciOiJIUzI1NiIsInR5cCI6IkpXVCJ9.eyJ1c2VybmFtZSI6IkNIQU5QSEVTIiwidGltZXN0YW1wIjoiMjAxNzA0MDUxNDI1IiwibG9jYXRpb25Db2RlIjoiMTAwNiIsImlhdCI6MTQ5MTM3NzE0MSwiZXhwIjoxNDkxMzc4MDQxfQ.F497ZKX0GpbV4DJdb7Cll5U7iseYE5A2kaZ1ljPK6yE"}||"{}"|200|{"resultCode":"20000","resultDescription":"Success","developerMessage":"Success","data":{"accessToken":"eyJhbGciOiJIUzI1NiIsInR5cCI6IkpXVCJ9.eyJ1c2VybmFtZSI6IkNIQU5QSEVTIiwidGltZXN0YW1wIjoiMjAxNzA0MDUxNDI1IiwibG9jYXRpb25Db2RlIjoiMTAwNiIsImlhdCI6MTQ5MTM3NzMzMSwiZXhwIjoxNDkxMzc3NDUxfQ.Rkec7bmevYtMvwYFefNMizfjsKu0THi49TfCUYTiANg","refreshToken":"eyJhbGciOiJIUzI1NiIsInR5cCI6IkpXVCJ9.eyJ1c2VybmFtZSI6IkNIQU5QSEVTIiwidGltZXN0YW1wIjoiMjAxNzA0MDUxNDI1IiwibG9jYXRpb25Db2RlIjoiMTAwNiIsImlhdCI6MTQ5MTM3NzMzMSwiZXhwIjoxNDkxMzc4MjMxfQ.B7KMm7LUKKAD-oGSnDUXp6GDb7NiPbtUpWMuDGwfnrA"}}|29||null
