-|-|-|-|-|-|-|-|-|-|-|-|-|-|
2017-04-03 11:46:59.000|1491194819773:PMYCHAW901G:5818:j0w9ivtt:10575|10.195.161.26|201704031146597792574|POST|http://10.198.40.23:8443/api/auth/refreshToken|{"x-api-request-id":"201704031146597792574","x-authorization":"Bearer eyJhbGciOiJIUzI1NiIsInR5cCI6IkpXVCJ9.eyJ1c2VybmFtZSI6IkNIQU5QSEVTIiwidGltZXN0YW1wIjoiMjAxNzA0MDMxMTQyIiwibG9jYXRpb25Db2RlIjoiMTAwNiIsImlhdCI6MTQ5MTE5NDU1NywiZXhwIjoxNDkxMTk1NDU3fQ.bjKy43RTyltP_l71VCdNPasTtobIDC-xFxq8gs6rIfo"}||"{}"|200|{"resultCode":"20000","resultDescription":"Success","developerMessage":"Success","data":{"accessToken":"eyJhbGciOiJIUzI1NiIsInR5cCI6IkpXVCJ9.eyJ1c2VybmFtZSI6IkNIQU5QSEVTIiwidGltZXN0YW1wIjoiMjAxNzA0MDMxMTQyIiwibG9jYXRpb25Db2RlIjoiMTAwNiIsImlhdCI6MTQ5MTE5NDgyMSwiZXhwIjoxNDkxMTk0OTQxfQ.w6divYZn3XuqJ6MQz96dYVnYRxr1xZ5Z_UWoq_IYe2w","refreshToken":"eyJhbGciOiJIUzI1NiIsInR5cCI6IkpXVCJ9.eyJ1c2VybmFtZSI6IkNIQU5QSEVTIiwidGltZXN0YW1wIjoiMjAxNzA0MDMxMTQyIiwibG9jYXRpb25Db2RlIjoiMTAwNiIsImlhdCI6MTQ5MTE5NDgyMSwiZXhwIjoxNDkxMTk1NzIxfQ.jtNjyxbsdVz110thPi64qxEk5-eNLx2cfMH1HISAuUE"}}|26||null
2017-04-03 11:46:59.000|1491194819895:PMYCHAW901G:5818:j0w9ivtt:10576|10.195.161.26|201704031146598962578|GET|http://10.198.40.23:8443/api/auth/aisToken|{"x-api-request-id":"201704031146598962578","x-authorization":"Bearer eyJhbGciOiJIUzI1NiIsInR5cCI6IkpXVCJ9.eyJ1c2VybmFtZSI6IkNIQU5QSEVTIiwidGltZXN0YW1wIjoiMjAxNzA0MDMxMTQyIiwibG9jYXRpb25Db2RlIjoiMTAwNiIsImlhdCI6MTQ5MTE5NDgyMSwiZXhwIjoxNDkxMTk0OTQxfQ.w6divYZn3XuqJ6MQz96dYVnYRxr1xZ5Z_UWoq_IYe2w"}|||200|{"resultCode":"20000","resultDescription":"Success","developerMessage":"Success","data":{"token":"tjHoZ6FgbX4JoSAqneKF3C2RLij9lG9VssFfQdJE+Kw="}}|17||null
2017-04-03 11:47:35.000|1491194855803:PMYCHAW901G:5818:j0w9ivtt:10578|10.195.161.26|201704031147358067766|GET|http://10.198.40.23:8443/api/auth/login?tokenID=tjHoZ6FgbX4JoSAqneKF3C2RLij9lG9VssFfQdJE%2BKw%3D|{"x-api-request-id":"201704031147358067766"}|||200|{"resultCode":"20000","resultDescription":"Success","developerMessage":"Success","data":{"accessToken":"eyJhbGciOiJIUzI1NiIsInR5cCI6IkpXVCJ9.eyJ1c2VybmFtZSI6IkNIQU5QSEVTIiwidGltZXN0YW1wIjoiMjAxNzA0MDMxMTQ3IiwibG9jYXRpb25Db2RlIjoiMTAwNiIsImlhdCI6MTQ5MTE5NDg1NywiZXhwIjoxNDkxMTk0OTc3fQ.uhvRDqJriwfHbcZysdobfF5FcoOhiJRxfePQ6t04jHY","refreshToken":"eyJhbGciOiJIUzI1NiIsInR5cCI6IkpXVCJ9.eyJ1c2VybmFtZSI6IkNIQU5QSEVTIiwidGltZXN0YW1wIjoiMjAxNzA0MDMxMTQ3IiwibG9jYXRpb25Db2RlIjoiMTAwNiIsImlhdCI6MTQ5MTE5NDg1NywiZXhwIjoxNDkxMTk1NzU3fQ.bVFgWLOfy2b_HHn_AsiG29wUUFFGNainuqq3wBFzzPc"}}|18||null
2017-04-03 11:51:37.000|1491195097956:PMYCHAW901G:5818:j0w9ivtt:10607|10.195.161.26|201704031151379571750|GET|http://10.198.40.23:8443/api/auth/login?tokenID=tjHoZ6FgbX4JoSAqneKF3L5Nru%2BJxM3e4arEI%2BEtPtw%3D|{"x-api-request-id":"201704031151379571750"}|||200|{"resultCode":"20000","resultDescription":"Success","developerMessage":"Success","data":{"accessToken":"eyJhbGciOiJIUzI1NiIsInR5cCI6IkpXVCJ9.eyJ1c2VybmFtZSI6IkNIQU5QSEVTIiwidGltZXN0YW1wIjoiMjAxNzA0MDMxMTUxIiwibG9jYXRpb25Db2RlIjoiMTAwNiIsImlhdCI6MTQ5MTE5NTEwMCwiZXhwIjoxNDkxMTk1MjIwfQ.cLVO-YJvAG4Bbag9tCl1yGa2E5C5x56ahG8FHwvCwVw","refreshToken":"eyJhbGciOiJIUzI1NiIsInR5cCI6IkpXVCJ9.eyJ1c2VybmFtZSI6IkNIQU5QSEVTIiwidGltZXN0YW1wIjoiMjAxNzA0MDMxMTUxIiwibG9jYXRpb25Db2RlIjoiMTAwNiIsImlhdCI6MTQ5MTE5NTEwMCwiZXhwIjoxNDkxMTk2MDAwfQ.m3vsULcHWP1d0oJAISTx3DYoOEgMoVrL9wzy9g7NKJY"}}|16||null
2017-04-03 11:51:46.000|1491195106290:PMYCHAW901G:5818:j0w9ivtt:10626|10.195.161.26|201704031151462929231|GET|http://10.198.40.23:8443/api/auth/aisToken|{"x-api-request-id":"201704031151462929231","x-authorization":"Bearer eyJhbGciOiJIUzI1NiIsInR5cCI6IkpXVCJ9.eyJ1c2VybmFtZSI6IkNIQU5QSEVTIiwidGltZXN0YW1wIjoiMjAxNzA0MDMxMTUxIiwibG9jYXRpb25Db2RlIjoiMTAwNiIsImlhdCI6MTQ5MTE5NTEwMCwiZXhwIjoxNDkxMTk1MjIwfQ.cLVO-YJvAG4Bbag9tCl1yGa2E5C5x56ahG8FHwvCwVw"}|||200|{"resultCode":"20000","resultDescription":"Success","developerMessage":"Success","data":{"token":"tjHoZ6FgbX4JoSAqneKF3L5Nru+JxM3e4arEI+EtPtw="}}|25||null
2017-04-03 11:52:05.000|1491195125208:PMYCHAW901G:5818:j0w9ivtt:10627|10.195.161.26|201704031152052158207|GET|http://10.198.40.23:8443/api/auth/login?tokenID=tjHoZ6FgbX4JoSAqneKF3IhrkYd3YDCR%2F7j4dOL4Kpo%3D|{"x-api-request-id":"201704031152052158207"}|||200|{"resultCode":"20000","resultDescription":"Success","developerMessage":"Success","data":{"accessToken":"eyJhbGciOiJIUzI1NiIsInR5cCI6IkpXVCJ9.eyJ1c2VybmFtZSI6IkNIQU5QSEVTIiwidGltZXN0YW1wIjoiMjAxNzA0MDMxMTUyIiwibG9jYXRpb25Db2RlIjoiMTAwNiIsImlhdCI6MTQ5MTE5NTEyNywiZXhwIjoxNDkxMTk1MjQ3fQ.l97oVEh1E81SyLILvwRnPuOWLBnQZTtqYe4hvF4mr3U","refreshToken":"eyJhbGciOiJIUzI1NiIsInR5cCI6IkpXVCJ9.eyJ1c2VybmFtZSI6IkNIQU5QSEVTIiwidGltZXN0YW1wIjoiMjAxNzA0MDMxMTUyIiwibG9jYXRpb25Db2RlIjoiMTAwNiIsImlhdCI6MTQ5MTE5NTEyNywiZXhwIjoxNDkxMTk2MDI3fQ.uKukCsNfInT48IjfQRFXDjd_EQpSelZE7RbVg1QSq60"}}|16||null
2017-04-03 11:53:26.000|1491195206807:PMYCHAW901G:5812:j0w9ivr3:10628|10.195.161.26|201704031153268088120|GET|http://10.198.40.23:8443/api/auth/aisToken|{"x-api-request-id":"201704031153268088120","x-authorization":"Bearer eyJhbGciOiJIUzI1NiIsInR5cCI6IkpXVCJ9.eyJ1c2VybmFtZSI6IkNIQU5QSEVTIiwidGltZXN0YW1wIjoiMjAxNzA0MDMxMTUzIiwibG9jYXRpb25Db2RlIjoiMTAwNiIsImlhdCI6MTQ5MTE5NTE5MywiZXhwIjoxNDkxMTk1MzEzfQ.xfzeWTk5mjgYDSACMpV5gu8rFxB6-6zn_4s7fk5stj0"}|||200|{"resultCode":"20000","resultDescription":"Success","developerMessage":"Success","data":{"token":"tjHoZ6FgbX4JoSAqneKF3IL7O/Kxi2p9JH6I6RxTJbM="}}|21||null
