-|-|-|-|-|-|-|-|-|-|-|-|-|-|
2017-04-05 16:25:41.775|1491384341667:PMYCHNA901G:12211:j14hcn7o:10023|10.195.208.88|201704051625381132174|POST|/ssb/profile/getNetworkType|{"x-ssb-origin":"myChannel","x-ssb-service-origin":"mychannel-customer-portal","x-ssb-order-channel":"WEB","x-ssb-version":"v1","Host":"10.196.64.38","x-ssb-transaction-id":"201704051625381132174"}||{"msisdn":"66982818298"}|200|{"resultCode":"20000","developerMessage":"Ntype Match Success.","detail":{"networkType":"3BO","mobileLocation":"BOS","spName":"awn","chargeMode":"0","groupCode":"R","corperateType":"THA","subNetworkType":"Post-paid","cosId":"600001","cbpId":"805","scpId":"705","mobileStatus":"Active","state":"1"}}|75||null
2017-04-05 16:25:43.416|1491384341667:PMYCHNA901G:12211:j14hcn7o:10023|10.195.208.88|201704051625381132174|POST|/ssb/profile/customerprofile/query|{"x-ssb-origin":"myChannel","x-ssb-service-origin":"mychannel-customer-portal","x-ssb-order-channel":"WEB","x-ssb-version":"v1","Host":"10.196.64.38","x-ssb-transaction-id":"201704051625381132174"}||{"user":{"userIdType":"0","userIdData":"66982818298"},"optionGetCustomerInfo":"1","optionQueryPersonalInfo":[{"option":"1"}]}|200|{"resultCode":"20000","developerMessage":"Success","detail":{"networkType":"3BO","mobileLocation":"BOS","spName":"awn","chargeMode":"0","groupCode":"R","corperateType":"THA","subNetworkType":"Post-paid","cosId":"600001","cbpId":"805","scpId":"705"},"personalInfomation":{"opt_1":{"idCardNo":"3200100209761","mobileNo":"0982818298","customerAccount":"จันทร์เพ็ญ แซ่เจี้ย","customerAccountRowId":"1-7ZK9-239","mobileSegment":"Classic","registerDt":"07/08/2014 11:47:43","email":"chanphes@ais.co.th","mobileStatus":"Active","networkType":"3G","isBOSSystem":"Yes","houseTelNo":"022719300","caAccountNo":"8002999757","caAccountTitle":"นางสาว","invoicingCompany":"AWN","billAccountName":"คุณจันทร์เพ็ญ แซ่เจี้ย","customerType":"Res","gprsStartDate":"07/08/2014 11:47:44","genDer":"F","customerSubType":"THA","billAccountTitle":"นางสาว","birthDay":"16/07/1978","billingSystem":"BOS","officeTelNo":"0812558100","baAccountNo":"31400008177746","mobileStatusReason":"071-Waive ค่าต่อสัญญาณ","billCycle":"Cycle 4-3/11","idCardType":"ID_CARD","chargeType":"Post-paid","gprsType":"Volume-Based","baRegisterDt":"07/08/2014"}},"aisassetgetcustomerinfo":{"customerInfoList":[{"out_birthDate":"07/16/1978","out_contClass":"General","out_accntTypeCode":"Customer","out_networkType":"3G","out_networkServType":"Post-paid","out_ivrPassword":"615879842 1619920593","out_custGroupAcc":"8002999757","out_crmSegment":"Gold","out_accntCat":"Residential","out_accntSubCat":"Thai Citizen","out_mobileStatus":"Active","out_custGroupAccBA":"31400008177746","out_MobileSegment":"Classic","out_Province":"ชลบุรี","out_contName":"จันทร์เพ็ญ แซ่เจี้ย","out_idCardNumber":"3200100209761","out_secretPassword":"Y","out_churnScore":"Low","out_caBlacklist":"Green","out_registerDate":"08/07/2014","out_segmentExpired":"02/28/2018 23:59:59","out_preferredLanguage":"THA","out_accountNum":"8002999757","out_mobileRegion":"CENTRAL-C301","out_CAName":"จันทร์เพ็ญ แซ่เจี้ย","out_CAIDCardNo":"3200100209761","out_MobileSegmentEffDT":"03/01/2017 00:00:00","out_CLV_Segment":"Normal_109","out_contTitle":"นางสาว","out_contEmail":"chanphes@ais.co.th","out_AssetID":"1-DDAL0QT","out_Picture_URL":"http://www.ccp.ais.co.th/CCPWeb/LogoPictureServlet?level1=081&level2=0819458&filename=0819458208_1-8R26-15.jpg","out_URL_Date":"07/10/2014 00:00:00","out_ContactId":"1-8R26-15","out_Billing_System":"BOS","out_AmendmentReason":"Arpu - Normal","outParam2":"นางสาว"}],"outErrorMessage":"Success"}}|1631||null
2017-04-05 16:26:32.019|1491384391954:PMYCHNA901G:12211:j14hcn7o:10025|10.195.208.89|201704051626287765767|POST|/ssb/profile/getNetworkType|{"x-ssb-origin":"myChannel","x-ssb-service-origin":"mychannel-customer-portal","x-ssb-order-channel":"WEB","x-ssb-version":"v1","Host":"10.196.64.38","x-ssb-transaction-id":"201704051626287765767"}||{"msisdn":"66982818298"}|200|{"resultCode":"20000","developerMessage":"Ntype Match Success.","detail":{"networkType":"3BO","mobileLocation":"BOS","spName":"awn","chargeMode":"0","groupCode":"R","corperateType":"THA","subNetworkType":"Post-paid","cosId":"600001","cbpId":"805","scpId":"705","mobileStatus":"Active","state":"1"}}|55||null
2017-04-05 16:26:32.142|1491384391954:PMYCHNA901G:12211:j14hcn7o:10025|10.195.208.89|201704051626287765767|POST|/ssb/profile/customerprofileaccount/query|{"x-ssb-origin":"myChannel","x-ssb-service-origin":"mychannel-customer-portal","x-ssb-order-channel":"WEB","x-ssb-version":"v1","Host":"10.196.64.38","x-ssb-transaction-id":"201704051626287765767"}||{"user":{"userIdType":"0","userIdData":"66982818298"},"optionQueryPersonalInfo":[{"option":"1"}]}|200|{"resultCode":"20000","developerMessage":"Success","detail":{"networkType":"3BO","mobileLocation":"BOS","spName":"awn","chargeMode":"0","groupCode":"R","corperateType":"THA","subNetworkType":"Post-paid","cosId":"600001","cbpId":"805","scpId":"705"},"personalInfomation":{"opt_1":{"idCardNo":"3200100209761","mobileNo":"0982818298","customerAccount":"จันทร์เพ็ญ แซ่เจี้ย","customerAccountRowId":"1-7ZK9-239","mobileSegment":"Classic","registerDt":"07/08/2014 11:47:43","email":"chanphes@ais.co.th","mobileStatus":"Active","networkType":"3G","isBOSSystem":"Yes","houseTelNo":"022719300","caAccountNo":"8002999757","caAccountTitle":"นางสาว","invoicingCompany":"AWN","billAccountName":"คุณจันทร์เพ็ญ แซ่เจี้ย","customerType":"Res","gprsStartDate":"07/08/2014 11:47:44","genDer":"F","customerSubType":"THA","billAccountTitle":"นางสาว","birthDay":"16/07/1978","billingSystem":"BOS","officeTelNo":"0812558100","baAccountNo":"31400008177746","mobileStatusReason":"071-Waive ค่าต่อสัญญาณ","billCycle":"Cycle 4-3/11","idCardType":"ID_CARD","chargeType":"Post-paid","gprsType":"Volume-Based","baRegisterDt":"07/08/2014"}}}|118||null
2017-04-05 16:26:34.273|1491384394211:PMYCHNA901G:12211:j14hcn7o:10026|10.195.208.89|201704051626310348212|POST|/ssb/profile/getNetworkType|{"x-ssb-origin":"myChannel","x-ssb-service-origin":"mychannel-customer-portal","x-ssb-order-channel":"WEB","x-ssb-version":"v1","Host":"10.196.64.38","x-ssb-transaction-id":"201704051626310348212"}||{"msisdn":"66982818298"}|200|{"resultCode":"20000","developerMessage":"Ntype Match Success.","detail":{"networkType":"3BO","mobileLocation":"BOS","spName":"awn","chargeMode":"0","groupCode":"R","corperateType":"THA","subNetworkType":"Post-paid","cosId":"600001","cbpId":"805","scpId":"705","mobileStatus":"Active","state":"1"}}|58||null
2017-04-05 16:26:35.651|1491384394211:PMYCHNA901G:12211:j14hcn7o:10026|10.195.208.89|201704051626310348212|POST|/ssb/profile/customerprofile/query|{"x-ssb-origin":"myChannel","x-ssb-service-origin":"mychannel-customer-portal","x-ssb-order-channel":"WEB","x-ssb-version":"v1","Host":"10.196.64.38","x-ssb-transaction-id":"201704051626310348212"}||{"user":{"userIdType":"0","userIdData":"66982818298"},"optionGetCustomerInfo":"1","optionQueryPersonalInfo":[{"option":"1"}]}|200|{"resultCode":"20000","developerMessage":"Success","detail":{"networkType":"3BO","mobileLocation":"BOS","spName":"awn","chargeMode":"0","groupCode":"R","corperateType":"THA","subNetworkType":"Post-paid","cosId":"600001","cbpId":"805","scpId":"705"},"personalInfomation":{"opt_1":{"idCardNo":"3200100209761","mobileNo":"0982818298","customerAccount":"จันทร์เพ็ญ แซ่เจี้ย","customerAccountRowId":"1-7ZK9-239","mobileSegment":"Classic","registerDt":"07/08/2014 11:47:43","email":"chanphes@ais.co.th","mobileStatus":"Active","networkType":"3G","isBOSSystem":"Yes","houseTelNo":"022719300","caAccountNo":"8002999757","caAccountTitle":"นางสาว","invoicingCompany":"AWN","billAccountName":"คุณจันทร์เพ็ญ แซ่เจี้ย","customerType":"Res","gprsStartDate":"07/08/2014 11:47:44","genDer":"F","customerSubType":"THA","billAccountTitle":"นางสาว","birthDay":"16/07/1978","billingSystem":"BOS","officeTelNo":"0812558100","baAccountNo":"31400008177746","mobileStatusReason":"071-Waive ค่าต่อสัญญาณ","billCycle":"Cycle 4-3/11","idCardType":"ID_CARD","chargeType":"Post-paid","gprsType":"Volume-Based","baRegisterDt":"07/08/2014"}},"aisassetgetcustomerinfo":{"customerInfoList":[{"out_birthDate":"07/16/1978","out_contClass":"General","out_accntTypeCode":"Customer","out_networkType":"3G","out_networkServType":"Post-paid","out_ivrPassword":"615879842 1619920593","out_custGroupAcc":"8002999757","out_crmSegment":"Gold","out_accntCat":"Residential","out_accntSubCat":"Thai Citizen","out_mobileStatus":"Active","out_custGroupAccBA":"31400008177746","out_MobileSegment":"Classic","out_Province":"ชลบุรี","out_contName":"จันทร์เพ็ญ แซ่เจี้ย","out_idCardNumber":"3200100209761","out_secretPassword":"Y","out_churnScore":"Low","out_caBlacklist":"Green","out_registerDate":"08/07/2014","out_segmentExpired":"02/28/2018 23:59:59","out_preferredLanguage":"THA","out_accountNum":"8002999757","out_mobileRegion":"CENTRAL-C301","out_CAName":"จันทร์เพ็ญ แซ่เจี้ย","out_CAIDCardNo":"3200100209761","out_MobileSegmentEffDT":"03/01/2017 00:00:00","out_CLV_Segment":"Normal_109","out_contTitle":"นางสาว","out_contEmail":"chanphes@ais.co.th","out_AssetID":"1-DDAL0QT","out_Picture_URL":"http://www.ccp.ais.co.th/CCPWeb/LogoPictureServlet?level1=081&level2=0819458&filename=0819458208_1-8R26-15.jpg","out_URL_Date":"07/10/2014 00:00:00","out_ContactId":"1-8R26-15","out_Billing_System":"BOS","out_AmendmentReason":"Arpu - Normal","outParam2":"นางสาว"}],"outErrorMessage":"Success"}}|1375||null
2017-04-05 16:27:19.454|1491384439400:PMYCHNA901G:12211:j14hcn7o:10027|10.195.208.89|201704051627162237457|POST|/ssb/profile/getNetworkType|{"x-ssb-origin":"myChannel","x-ssb-service-origin":"mychannel-customer-portal","x-ssb-order-channel":"WEB","x-ssb-version":"v1","Host":"10.196.64.38","x-ssb-transaction-id":"201704051627162237457"}||{"msisdn":"66982818298"}|200|{"resultCode":"20000","developerMessage":"Ntype Match Success.","detail":{"networkType":"3BO","mobileLocation":"BOS","spName":"awn","chargeMode":"0","groupCode":"R","corperateType":"THA","subNetworkType":"Post-paid","cosId":"600001","cbpId":"805","scpId":"705","mobileStatus":"Active","state":"1"}}|50||null
2017-04-05 16:27:20.841|1491384439400:PMYCHNA901G:12211:j14hcn7o:10027|10.195.208.89|201704051627162237457|POST|/ssb/profile/customerprofile/query|{"x-ssb-origin":"myChannel","x-ssb-service-origin":"mychannel-customer-portal","x-ssb-order-channel":"WEB","x-ssb-version":"v1","Host":"10.196.64.38","x-ssb-transaction-id":"201704051627162237457"}||{"user":{"userIdType":"0","userIdData":"66982818298"},"optionGetCustomerInfo":"1","optionQueryPersonalInfo":[{"option":"1"}]}|200|{"resultCode":"20000","developerMessage":"Success","detail":{"networkType":"3BO","mobileLocation":"BOS","spName":"awn","chargeMode":"0","groupCode":"R","corperateType":"THA","subNetworkType":"Post-paid","cosId":"600001","cbpId":"805","scpId":"705"},"personalInfomation":{"opt_1":{"idCardNo":"3200100209761","mobileNo":"0982818298","customerAccount":"จันทร์เพ็ญ แซ่เจี้ย","customerAccountRowId":"1-7ZK9-239","mobileSegment":"Classic","registerDt":"07/08/2014 11:47:43","email":"chanphes@ais.co.th","mobileStatus":"Active","networkType":"3G","isBOSSystem":"Yes","houseTelNo":"022719300","caAccountNo":"8002999757","caAccountTitle":"นางสาว","invoicingCompany":"AWN","billAccountName":"คุณจันทร์เพ็ญ แซ่เจี้ย","customerType":"Res","gprsStartDate":"07/08/2014 11:47:44","genDer":"F","customerSubType":"THA","billAccountTitle":"นางสาว","birthDay":"16/07/1978","billingSystem":"BOS","officeTelNo":"0812558100","baAccountNo":"31400008177746","mobileStatusReason":"071-Waive ค่าต่อสัญญาณ","billCycle":"Cycle 4-3/11","idCardType":"ID_CARD","chargeType":"Post-paid","gprsType":"Volume-Based","baRegisterDt":"07/08/2014"}},"aisassetgetcustomerinfo":{"customerInfoList":[{"out_birthDate":"07/16/1978","out_contClass":"General","out_accntTypeCode":"Customer","out_networkType":"3G","out_networkServType":"Post-paid","out_ivrPassword":"615879842 1619920593","out_custGroupAcc":"8002999757","out_crmSegment":"Gold","out_accntCat":"Residential","out_accntSubCat":"Thai Citizen","out_mobileStatus":"Active","out_custGroupAccBA":"31400008177746","out_MobileSegment":"Classic","out_Province":"ชลบุรี","out_contName":"จันทร์เพ็ญ แซ่เจี้ย","out_idCardNumber":"3200100209761","out_secretPassword":"Y","out_churnScore":"Low","out_caBlacklist":"Green","out_registerDate":"08/07/2014","out_segmentExpired":"02/28/2018 23:59:59","out_preferredLanguage":"THA","out_accountNum":"8002999757","out_mobileRegion":"CENTRAL-C301","out_CAName":"จันทร์เพ็ญ แซ่เจี้ย","out_CAIDCardNo":"3200100209761","out_MobileSegmentEffDT":"03/01/2017 00:00:00","out_CLV_Segment":"Normal_109","out_contTitle":"นางสาว","out_contEmail":"chanphes@ais.co.th","out_AssetID":"1-DDAL0QT","out_Picture_URL":"http://www.ccp.ais.co.th/CCPWeb/LogoPictureServlet?level1=081&level2=0819458&filename=0819458208_1-8R26-15.jpg","out_URL_Date":"07/10/2014 00:00:00","out_ContactId":"1-8R26-15","out_Billing_System":"BOS","out_AmendmentReason":"Arpu - Normal","outParam2":"นางสาว"}],"outErrorMessage":"Success"}}|1385||null
