|-|-|-|-|
2017-04-05 13:12:30.801|1491372750801:PMYCHNA902G:31394:j14hdevv:10009|10.195.208.89|201704051312277905523|Error: {"name":"ssbItTransform.queryActivityByMobile","body":{"resultCode":"40302","developerMessage":"Incorrect Parameter (Endpoint)","data":{}}}
    at server.on (/app/services/service-customer-portal/node_modules/mychannel-logger/lib/events.js:61:29)
    at invoke (/app/services/service-customer-portal/node_modules/hapi/node_modules/podium/lib/index.js:239:30)
    at each (/app/services/service-customer-portal/node_modules/hapi/node_modules/podium/lib/index.js:243:13)
    at Object.exports.parallel (/app/services/service-customer-portal/node_modules/hapi/node_modules/items/lib/index.js:70:13)
    at Object.internals.emit (/app/services/service-customer-portal/node_modules/hapi/node_modules/podium/lib/index.js:260:18)
    at internals.Podium._emit (/app/services/service-customer-portal/node_modules/hapi/node_modules/podium/lib/index.js:140:15)
    at each (/app/services/service-customer-portal/node_modules/hapi/node_modules/podium/lib/index.js:181:47)
    at Object.exports.parallel (/app/services/service-customer-portal/node_modules/hapi/node_modules/items/lib/index.js:70:13)
    at relay (/app/services/service-customer-portal/node_modules/hapi/node_modules/podium/lib/index.js:182:15)
    at Object.internals.emit (/app/services/service-customer-portal/node_modules/hapi/node_modules/podium/lib/index.js:186:16)
    at internals.emitEmitter (/app/services/service-customer-portal/node_modules/hapi/node_modules/podium/lib/index.js:272:15)
    at _combinedTickCallback (internal/process/next_tick.js:71:11)
    at process._tickDomainCallback (internal/process/next_tick.js:122:9)
