-|-|-|-|-|-|-|-|-|
2017-04-04 00:29:12.370|1491240552370:PMYCHNA902G:27806:j0uflspf:10125|10.198.41.23|201704040029099875291|POST|/api/auth/refreshToken|{"x-api-request-id":"201704040029099875291","x-authorization":"Bearer eyJhbGciOiJIUzI1NiIsInR5cCI6IkpXVCJ9.eyJ1c2VybmFtZSI6IlNVTUVUU0FJIiwidGltZXN0YW1wIjoiMjAxNzA0MDQwMDAwIiwibG9jYXRpb25Db2RlIjoiODg4OCIsImlhdCI6MTQ5MTIzOTU3OCwiZXhwIjoxNDkxMjQwNDc4fQ.NotlDUcSwcDKneNF1nMMT7oqfw3GoZCAuy-B8nHj2sU","host":"10.198.40.23:8443","accept":"application/json","content-type":"application/json","content-length":"4","connection":"close"}||
2017-04-04 00:29:37.526|1491240577526:PMYCHNA902G:27806:j0uflspf:10126|10.198.41.23|201704040029351474285|GET|/api/auth/login|{"x-api-request-id":"201704040029351474285","host":"10.198.40.23:8443","accept":"application/json","content-type":"application/json","content-length":"4","connection":"close"}|{"tokenID":"qogp3FFHcyDkCj6Rhc6oQzOYSUVjEX4nLykUcCoYakE="}|
