-|-|-|-|-|-|-|-|-|-|-|-|-|-|
2017-04-05 13:26:55.000|1491373615557:PMYCHAW902G:23327:j14hdzmw:10175|10.195.161.26|201704051326555659048|POST|http://10.198.40.23:8443/api/auth/refreshToken|{"x-api-request-id":"201704051326555659048","x-authorization":"Bearer eyJhbGciOiJIUzI1NiIsInR5cCI6IkpXVCJ9.eyJ1c2VybmFtZSI6IlNVTUVUU0FJIiwidGltZXN0YW1wIjoiMjAxNzA0MDQwOTA2IiwibG9jYXRpb25Db2RlIjoiODg4OCIsImlhdCI6MTQ5MTI3MTYxMSwiZXhwIjoxNDkxMjcyNTExfQ.H8Hz9vWZMklXjEuZhkuYcmrOBKrENBgGLOVKDMTCoS0"}||"{}"|401||26|"401 - {\"resultCode\":401,\"resultDescription\":\"Invalid token\",\"developerMessage\":\"\",\"errors\":{}}"|StatusCodeError
2017-04-05 13:27:35.000|1491373655401:PMYCHAW902G:23311:j14hdzid:10191|10.195.161.26|201704051327354056315|POST|http://10.198.40.23:8443/api/auth/refreshToken|{"x-api-request-id":"201704051327354056315","x-authorization":"Bearer eyJhbGciOiJIUzI1NiIsInR5cCI6IkpXVCJ9.eyJ1c2VybmFtZSI6IlNVTUVUU0FJIiwidGltZXN0YW1wIjoiMjAxNzA0MDQwOTA2IiwibG9jYXRpb25Db2RlIjoiODg4OCIsImlhdCI6MTQ5MTI3MTYxMSwiZXhwIjoxNDkxMjcyNTExfQ.H8Hz9vWZMklXjEuZhkuYcmrOBKrENBgGLOVKDMTCoS0"}||"{}"|401||25|"401 - {\"resultCode\":401,\"resultDescription\":\"Invalid token\",\"developerMessage\":\"\",\"errors\":{}}"|StatusCodeError
